
 Profile 317

 Sensors were turned on at  04/01/2017 12:00:02
 Vehicle began profiling at 04/01/2017 12:02:04

Date,[mA],[V],[dbar],Oxygen[uM],Optode Temp[C],Chl,NTU,Therm
04/01/2017 12:02:04,0,11.0,0.000,0.00,0.00,54,124,570
04/01/2017 12:02:14,181,10.8,0.000,0.00,0.00,52,138,569
04/01/2017 12:02:24,144,10.8,0.000,0.00,0.00,53,122,569
04/01/2017 12:02:37,143,10.8,2505.580,337.55,2.21,53,123,569
04/01/2017 12:02:47,80,11.0,2502.710,336.15,2.23,52,124,569
04/01/2017 12:02:57,71,11.0,2499.790,336.52,2.24,53,121,569
04/01/2017 12:03:07,88,10.9,2496.940,335.64,2.24,53,124,569
04/01/2017 12:03:17,80,11.0,2494.120,336.19,2.25,54,122,569
04/01/2017 12:03:27,77,11.0,2491.280,336.18,2.26,54,122,569
04/01/2017 12:03:37,78,11.0,2488.630,335.72,2.27,54,125,569
04/01/2017 12:03:47,82,10.9,2485.890,336.14,2.28,54,126,569
04/01/2017 12:03:57,75,11.0,2483.090,335.35,2.30,54,132,569
04/01/2017 12:04:07,73,10.9,2480.210,336.73,2.30,54,127,569
04/01/2017 12:04:17,87,11.0,2477.320,336.63,2.31,53,124,569
04/01/2017 12:04:27,69,11.0,2474.450,336.29,2.33,53,122,569
04/01/2017 12:04:37,64,11.0,2471.630,336.18,2.35,53,123,568
04/01/2017 12:04:47,71,10.9,2468.860,335.89,2.36,54,123,568
04/01/2017 12:04:57,69,10.9,2466.060,335.81,2.36,53,123,568
04/01/2017 12:05:07,66,11.0,2463.380,335.81,2.37,53,124,568
04/01/2017 12:05:17,85,11.0,2460.600,335.07,2.38,53,118,568
04/01/2017 12:05:27,75,10.9,2457.660,333.46,2.39,53,121,568
04/01/2017 12:05:37,70,10.9,2454.850,333.08,2.40,54,124,568
04/01/2017 12:05:47,76,10.9,2452.220,333.59,2.42,52,121,568
04/01/2017 12:05:57,81,10.9,2449.270,333.20,2.42,53,121,568
04/01/2017 12:06:07,72,10.9,2446.540,332.93,2.44,53,122,568
04/01/2017 12:06:17,77,10.9,2443.730,332.82,2.44,54,121,568
04/01/2017 12:06:27,75,10.9,2441.000,333.08,2.45,54,121,568
04/01/2017 12:06:37,73,10.9,2438.200,332.82,2.46,53,121,568
04/01/2017 12:06:47,79,10.9,2435.260,332.62,2.48,52,125,568
04/01/2017 12:06:57,73,10.9,2432.520,331.97,2.49,53,123,568
04/01/2017 12:07:07,79,10.9,2429.780,330.41,2.49,53,124,567
04/01/2017 12:07:17,75,10.9,2426.900,331.48,2.49,53,124,568
04/01/2017 12:07:27,68,10.9,2424.180,331.82,2.50,53,127,568
04/01/2017 12:07:37,74,10.9,2421.390,331.98,2.51,53,128,568
04/01/2017 12:07:47,74,10.9,2418.610,332.38,2.51,53,131,567
04/01/2017 12:07:57,79,10.9,2415.800,332.12,2.52,53,127,567
04/01/2017 12:08:07,74,10.9,2413.010,333.06,2.52,52,132,568
04/01/2017 12:08:17,77,10.9,2410.120,333.57,2.52,54,128,568
04/01/2017 12:08:27,74,10.9,2407.360,333.51,2.52,52,140,568
04/01/2017 12:08:37,76,10.9,2404.650,334.05,2.53,51,129,568
04/01/2017 12:08:47,74,10.9,2401.700,334.35,2.54,53,131,567
04/01/2017 12:08:57,80,10.9,2399.010,334.04,2.54,53,131,567
04/01/2017 12:09:07,75,10.9,2396.210,333.46,2.55,53,130,567
04/01/2017 12:09:17,82,10.9,2393.460,333.70,2.56,53,133,567
04/01/2017 12:09:27,66,10.9,2390.610,333.73,2.57,53,133,567
04/01/2017 12:09:37,91,10.9,2387.820,333.03,2.59,55,129,567
04/01/2017 12:09:47,83,10.9,2384.990,332.77,2.59,53,130,567
04/01/2017 12:09:57,78,10.9,2382.260,333.50,2.60,53,141,567
04/01/2017 12:10:07,83,10.9,2379.510,333.20,2.60,53,129,567
04/01/2017 12:10:17,70,10.9,2376.600,332.86,2.60,54,130,567
04/01/2017 12:10:27,83,10.9,2373.860,333.24,2.60,53,127,567
04/01/2017 12:10:37,79,10.9,2371.150,333.31,2.60,53,127,567
04/01/2017 12:10:47,72,10.9,2368.360,333.87,2.61,53,131,567
04/01/2017 12:10:57,75,10.9,2365.480,333.13,2.61,53,128,567
04/01/2017 12:11:07,74,10.9,2362.630,333.09,2.62,53,125,567
04/01/2017 12:11:17,85,10.9,2359.990,332.22,2.64,53,128,567
04/01/2017 12:11:27,77,10.9,2357.220,331.35,2.66,54,122,567
04/01/2017 12:11:37,85,10.9,2354.330,330.53,2.66,53,130,567
04/01/2017 12:11:47,77,10.9,2351.650,330.67,2.67,52,121,567
04/01/2017 12:11:57,76,10.9,2348.770,330.11,2.67,52,120,567
04/01/2017 12:12:07,78,10.9,2346.000,329.99,2.67,53,121,567
04/01/2017 12:12:17,73,10.9,2343.240,329.48,2.69,54,125,567
04/01/2017 12:12:27,67,10.9,2340.340,329.27,2.70,52,121,567
04/01/2017 12:12:37,84,10.9,2337.600,328.74,2.70,53,126,567
04/01/2017 12:12:47,77,10.9,2334.940,329.51,2.70,52,124,567
04/01/2017 12:12:57,84,10.9,2332.070,329.53,2.70,52,123,567
04/01/2017 12:13:07,82,10.9,2329.370,329.82,2.71,52,127,567
04/01/2017 12:13:17,79,10.9,2326.680,329.35,2.70,54,124,567
04/01/2017 12:13:27,85,10.9,2323.740,330.20,2.70,53,124,567
04/01/2017 12:13:37,69,10.9,2321.100,330.40,2.70,54,128,567
04/01/2017 12:13:47,82,10.9,2318.280,330.76,2.71,54,132,567
04/01/2017 12:13:57,80,10.9,2315.460,330.67,2.72,52,128,567
04/01/2017 12:14:07,83,10.9,2312.620,330.32,2.73,54,124,567
04/01/2017 12:14:17,93,10.9,2309.940,331.09,2.73,54,128,567
04/01/2017 12:14:27,80,10.9,2307.210,330.58,2.73,54,125,567
04/01/2017 12:14:37,75,10.9,2304.420,330.59,2.73,54,125,567
04/01/2017 12:14:47,79,10.9,2301.630,330.47,2.74,53,135,567
04/01/2017 12:14:57,80,10.9,2298.790,329.85,2.74,54,129,567
04/01/2017 12:15:07,79,10.9,2295.970,329.43,2.75,54,125,567
04/01/2017 12:15:17,86,10.9,2293.260,330.29,2.76,52,123,566
04/01/2017 12:15:27,91,10.9,2290.490,330.31,2.77,52,122,567
04/01/2017 12:15:37,78,10.9,2287.770,329.83,2.77,53,124,567
04/01/2017 12:15:47,74,10.9,2284.970,329.61,2.78,53,124,567
04/01/2017 12:15:57,72,10.9,2282.230,328.83,2.78,52,126,567
04/01/2017 12:16:07,75,10.9,2279.520,330.09,2.79,54,123,566
04/01/2017 12:16:17,78,10.9,2276.700,330.15,2.79,53,123,566
04/01/2017 12:16:27,76,10.9,2273.900,329.23,2.79,53,124,567
04/01/2017 12:16:37,88,10.9,2271.160,329.67,2.80,54,124,567
04/01/2017 12:16:47,78,10.9,2268.340,330.03,2.80,52,124,566
04/01/2017 12:16:57,86,10.9,2265.530,330.80,2.81,52,122,567
04/01/2017 12:17:07,88,10.9,2262.810,330.69,2.82,54,124,566
04/01/2017 12:17:17,78,10.9,2259.940,329.35,2.82,53,120,566
04/01/2017 12:17:27,84,10.9,2257.150,328.66,2.84,53,121,566
04/01/2017 12:17:37,74,10.9,2254.490,328.85,2.84,54,121,566
04/01/2017 12:17:47,78,10.9,2251.710,328.34,2.84,53,122,566
04/01/2017 12:17:57,88,10.9,2248.980,327.88,2.85,53,121,566
04/01/2017 12:18:07,80,10.9,2246.150,328.09,2.85,53,120,566
04/01/2017 12:18:17,72,10.9,2243.270,328.06,2.86,53,118,566
04/01/2017 12:18:27,83,10.9,2240.560,327.01,2.87,53,117,566
04/01/2017 12:18:37,79,10.9,2237.910,326.90,2.89,52,117,566
04/01/2017 12:18:47,92,10.9,2235.100,326.34,2.90,54,119,566
04/01/2017 12:18:57,91,10.9,2232.400,325.64,2.90,53,116,566
04/01/2017 12:19:07,81,10.9,2229.720,325.27,2.91,52,116,566
04/01/2017 12:19:17,77,10.9,2226.860,325.36,2.91,53,116,567
04/01/2017 12:19:27,83,10.9,2224.030,324.32,2.92,53,116,566
04/01/2017 12:19:37,78,10.9,2221.370,324.60,2.92,53,118,566
04/01/2017 12:19:47,70,10.9,2218.610,323.89,2.92,54,115,566
04/01/2017 12:19:57,71,10.9,2215.780,325.21,2.92,54,116,566
04/01/2017 12:20:07,77,10.9,2212.980,324.74,2.93,52,114,566
04/01/2017 12:20:17,81,10.9,2210.280,324.91,2.93,53,115,566
04/01/2017 12:20:27,74,10.9,2207.530,324.34,2.94,52,114,566
04/01/2017 12:20:37,79,10.9,2204.700,324.54,2.95,53,113,566
04/01/2017 12:20:47,81,10.9,2201.910,323.74,2.96,52,123,566
04/01/2017 12:20:57,81,10.9,2199.250,323.02,2.96,53,114,566
04/01/2017 12:21:07,75,10.9,2196.400,323.04,2.96,54,114,566
04/01/2017 12:21:17,86,10.9,2193.660,323.50,2.96,54,114,566
04/01/2017 12:21:27,82,10.9,2190.850,323.42,2.97,53,114,566
04/01/2017 12:21:37,70,10.9,2188.060,324.22,2.97,54,115,566
04/01/2017 12:21:47,96,10.9,2185.430,323.73,2.97,53,114,566
04/01/2017 12:21:57,82,10.9,2182.500,323.60,2.98,54,116,566
04/01/2017 12:22:07,84,10.9,2179.750,323.82,2.98,53,115,566
04/01/2017 12:22:17,81,10.9,2177.000,323.52,2.98,53,117,566
04/01/2017 12:22:27,75,10.9,2174.260,323.27,2.99,52,118,566
04/01/2017 12:22:37,93,10.9,2171.480,323.19,2.99,53,115,566
04/01/2017 12:22:47,87,10.9,2168.800,324.02,2.99,53,115,566
04/01/2017 12:22:57,88,10.9,2165.910,323.59,2.99,52,113,566
04/01/2017 12:23:07,81,10.9,2163.140,324.00,2.99,53,113,566
04/01/2017 12:23:17,84,10.9,2160.420,323.30,3.00,53,111,566
04/01/2017 12:23:27,83,10.9,2157.690,322.69,3.00,52,111,566
04/01/2017 12:23:37,87,10.9,2155.010,322.00,3.01,53,111,566
04/01/2017 12:23:47,89,10.9,2152.210,322.17,3.01,53,109,566
04/01/2017 12:23:57,81,10.9,2149.450,322.32,3.01,53,110,566
04/01/2017 12:24:07,88,10.9,2146.680,321.41,3.02,53,111,566
04/01/2017 12:24:17,88,10.9,2143.880,320.89,3.02,53,113,566
04/01/2017 12:24:27,93,10.9,2140.960,322.01,3.02,54,113,566
04/01/2017 12:24:37,90,10.9,2138.260,322.43,3.01,53,115,566
04/01/2017 12:24:47,84,10.9,2135.610,322.78,3.02,53,113,566
04/01/2017 12:24:57,90,10.9,2132.740,322.69,3.03,53,114,566
04/01/2017 12:25:07,91,10.9,2130.090,322.00,3.03,53,112,566
04/01/2017 12:25:17,82,10.9,2127.190,322.72,3.03,53,112,566
04/01/2017 12:25:27,93,10.9,2124.420,322.02,3.03,53,110,566
04/01/2017 12:25:37,86,10.9,2121.760,322.43,3.04,52,113,566
04/01/2017 12:25:47,91,10.9,2118.920,321.45,3.04,53,109,566
04/01/2017 12:25:57,87,10.9,2116.210,322.03,3.04,52,110,566
04/01/2017 12:26:07,86,10.9,2113.470,321.29,3.04,52,111,566
04/01/2017 12:26:17,85,10.9,2110.720,321.30,3.05,53,111,566
04/01/2017 12:26:27,87,10.9,2107.860,322.30,3.05,54,112,566
04/01/2017 12:26:37,89,10.9,2105.230,321.95,3.05,54,116,566
04/01/2017 12:26:47,92,10.9,2102.360,323.69,3.04,54,117,566
04/01/2017 12:26:57,98,10.9,2099.700,324.19,3.04,52,118,566
04/01/2017 12:27:07,85,10.9,2096.840,324.81,3.05,53,117,566
04/01/2017 12:27:17,83,10.9,2094.000,324.83,3.05,53,117,566
04/01/2017 12:27:27,85,10.9,2091.380,325.11,3.05,54,116,566
04/01/2017 12:27:37,91,10.9,2088.600,325.10,3.06,54,114,566
04/01/2017 12:27:47,89,10.9,2085.910,325.15,3.06,54,116,566
04/01/2017 12:27:57,83,10.9,2083.090,325.34,3.06,51,118,566
04/01/2017 12:28:07,98,10.9,2080.380,326.00,3.06,54,117,566
04/01/2017 12:28:17,85,10.9,2077.620,325.70,3.06,53,124,566
04/01/2017 12:28:27,85,10.9,2074.830,326.47,3.07,54,119,566
04/01/2017 12:28:37,96,10.9,2071.990,326.01,3.07,52,120,566
04/01/2017 12:28:47,90,10.9,2069.300,326.14,3.07,53,119,566
04/01/2017 12:28:57,99,10.9,2066.450,326.85,3.08,53,118,566
04/01/2017 12:29:07,88,10.9,2063.800,325.97,3.08,52,118,566
04/01/2017 12:29:17,91,10.9,2061.050,326.34,3.09,53,118,566
04/01/2017 12:29:27,107,10.9,2058.310,326.34,3.09,52,117,566
04/01/2017 12:29:37,94,10.9,2055.460,325.95,3.09,55,117,566
04/01/2017 12:29:47,98,10.9,2052.940,325.99,3.10,53,117,566
04/01/2017 12:29:57,92,10.9,2049.970,325.76,3.10,53,116,566
04/01/2017 12:30:07,96,10.9,2047.280,325.32,3.11,54,118,566
04/01/2017 12:30:17,94,10.9,2044.700,325.71,3.11,52,116,566
04/01/2017 12:30:27,88,10.9,2041.860,325.47,3.12,53,116,566
04/01/2017 12:30:37,97,10.9,2039.160,325.32,3.12,53,125,566
04/01/2017 12:30:47,95,10.9,2036.300,325.29,3.13,53,113,566
04/01/2017 12:30:57,94,10.9,2033.700,325.28,3.13,53,115,566
04/01/2017 12:31:07,98,10.9,2030.890,325.05,3.13,54,113,566
04/01/2017 12:31:17,94,10.9,2028.170,324.95,3.14,53,115,566
04/01/2017 12:31:27,86,10.9,2025.310,325.18,3.14,51,115,566
04/01/2017 12:31:37,98,10.9,2022.730,324.96,3.14,52,117,566
04/01/2017 12:31:47,90,10.9,2019.930,324.74,3.15,52,113,566
04/01/2017 12:31:57,95,10.9,2017.100,324.47,3.16,54,113,565
04/01/2017 12:32:07,103,10.9,2014.390,323.22,3.16,53,111,566
04/01/2017 12:32:17,94,10.9,2011.610,323.52,3.17,54,112,566
04/01/2017 12:32:27,83,10.9,2008.880,322.39,3.17,53,111,566
04/01/2017 12:32:37,91,10.9,2006.070,322.16,3.17,51,112,566
04/01/2017 12:32:47,95,10.9,2003.470,322.82,3.17,52,112,566
04/01/2017 12:32:57,95,10.9,2000.590,322.36,3.18,52,114,566
04/01/2017 12:33:07,94,10.9,1997.840,323.10,3.18,54,110,566
04/01/2017 12:33:17,93,10.9,1995.180,322.83,3.18,53,111,566
04/01/2017 12:33:27,98,10.9,1992.390,321.92,3.19,54,111,566
04/01/2017 12:33:37,92,10.9,1989.740,322.59,3.19,52,112,566
04/01/2017 12:33:47,96,10.9,1986.890,322.96,3.19,52,116,566
04/01/2017 12:33:57,97,10.9,1984.210,321.65,3.19,53,111,566
04/01/2017 12:34:07,94,10.9,1981.450,322.08,3.19,53,111,565
04/01/2017 12:34:17,96,10.9,1978.650,322.69,3.20,52,112,566
04/01/2017 12:34:27,101,10.9,1976.030,322.22,3.20,54,112,565
04/01/2017 12:34:37,91,10.9,1973.140,321.87,3.20,53,111,565
04/01/2017 12:34:47,96,10.9,1970.480,322.50,3.20,54,109,566
04/01/2017 12:34:57,95,10.9,1967.680,322.46,3.20,53,110,566
04/01/2017 12:35:07,95,10.9,1964.920,322.44,3.21,53,112,565
04/01/2017 12:35:17,104,10.9,1962.250,322.70,3.20,53,110,566
04/01/2017 12:35:27,100,10.9,1959.550,323.57,3.21,52,111,566
04/01/2017 12:35:37,102,10.9,1956.690,322.78,3.21,54,110,565
04/01/2017 12:35:47,94,10.9,1954.010,322.70,3.21,53,112,565
04/01/2017 12:35:57,91,10.9,1951.350,322.61,3.21,52,112,566
04/01/2017 12:36:07,98,10.9,1948.460,322.56,3.21,52,110,565
04/01/2017 12:36:17,96,10.8,1945.860,322.56,3.22,53,113,565
04/01/2017 12:36:27,100,10.9,1942.950,323.08,3.22,53,111,565
04/01/2017 12:36:37,107,10.9,1940.340,322.66,3.22,52,111,565
04/01/2017 12:36:47,100,10.9,1937.640,322.46,3.24,54,110,566
04/01/2017 12:36:57,110,10.9,1934.790,322.17,3.25,52,113,565
04/01/2017 12:37:07,99,10.9,1932.130,321.70,3.25,53,110,566
04/01/2017 12:37:17,99,10.9,1929.260,322.03,3.25,52,110,565
04/01/2017 12:37:27,96,10.9,1926.550,321.91,3.25,52,110,565
04/01/2017 12:37:37,99,10.9,1923.830,321.86,3.26,52,110,565
04/01/2017 12:37:47,91,10.9,1921.130,321.82,3.26,54,111,565
04/01/2017 12:37:57,105,10.9,1918.400,321.58,3.26,53,112,565
04/01/2017 12:38:07,94,10.9,1915.640,322.13,3.26,55,110,566
04/01/2017 12:38:17,86,10.9,1912.830,321.38,3.27,52,110,565
04/01/2017 12:38:27,103,10.9,1910.020,322.01,3.27,53,111,565
04/01/2017 12:38:37,97,10.9,1907.250,322.46,3.27,53,115,566
04/01/2017 12:38:47,103,10.9,1904.570,322.03,3.27,52,110,565
04/01/2017 12:38:57,100,10.9,1901.850,322.38,3.27,52,111,565
04/01/2017 12:39:07,104,10.9,1899.250,321.77,3.27,54,110,565
04/01/2017 12:39:17,103,10.8,1896.380,322.15,3.27,52,111,565
04/01/2017 12:39:27,98,10.9,1893.820,322.69,3.28,53,111,565
04/01/2017 12:39:37,101,10.9,1890.890,322.06,3.28,52,112,566
04/01/2017 12:39:47,101,10.9,1888.210,322.01,3.28,53,112,565
04/01/2017 12:39:57,102,10.9,1885.530,322.19,3.29,53,111,565
04/01/2017 12:40:07,107,10.9,1882.760,322.76,3.28,54,112,565
04/01/2017 12:40:17,109,10.9,1879.990,322.45,3.28,54,112,565
04/01/2017 12:40:27,105,10.9,1877.380,322.10,3.29,54,111,565
04/01/2017 12:40:37,102,10.9,1874.540,321.99,3.29,52,112,565
04/01/2017 12:40:47,104,10.9,1871.830,322.37,3.29,52,111,565
04/01/2017 12:40:57,107,10.9,1869.120,322.74,3.29,53,112,565
04/01/2017 12:41:07,105,10.9,1866.320,321.76,3.29,51,112,565
04/01/2017 12:41:17,100,10.9,1863.710,323.60,3.29,54,112,565
04/01/2017 12:41:27,102,10.9,1860.880,322.99,3.30,52,111,565
04/01/2017 12:41:37,104,10.9,1858.150,323.00,3.30,54,112,565
04/01/2017 12:41:47,112,10.9,1855.420,321.97,3.30,53,126,565
04/01/2017 12:41:57,97,10.9,1852.660,322.70,3.30,54,111,565
04/01/2017 12:42:07,102,10.9,1849.880,322.88,3.30,52,113,565
04/01/2017 12:42:17,109,10.9,1847.130,322.45,3.31,53,110,565
04/01/2017 12:42:27,107,10.9,1844.440,322.86,3.31,53,112,565
04/01/2017 12:42:37,100,10.9,1841.670,322.95,3.32,53,111,565
04/01/2017 12:42:47,107,10.9,1839.130,322.65,3.32,53,113,565
04/01/2017 12:42:57,102,10.9,1836.290,322.44,3.33,54,112,565
04/01/2017 12:43:07,102,10.9,1833.550,323.32,3.33,54,113,565
04/01/2017 12:43:17,107,10.9,1830.940,321.74,3.34,52,112,565
04/01/2017 12:43:27,98,10.9,1828.180,323.31,3.35,54,113,565
04/01/2017 12:43:37,99,10.9,1825.430,323.08,3.35,54,112,565
04/01/2017 12:43:47,96,10.9,1822.730,323.03,3.35,53,112,565
04/01/2017 12:43:57,96,10.9,1820.060,323.10,3.35,53,112,565
04/01/2017 12:44:07,92,10.9,1817.260,322.92,3.35,54,113,565
04/01/2017 12:44:17,101,10.9,1814.500,323.38,3.36,54,112,565
04/01/2017 12:44:27,104,10.9,1811.770,322.92,3.36,52,113,565
04/01/2017 12:44:37,106,10.9,1809.040,322.48,3.36,52,111,565
04/01/2017 12:44:47,96,10.9,1806.320,323.88,3.37,52,113,565
04/01/2017 12:44:57,96,10.9,1803.550,323.05,3.37,53,112,565
04/01/2017 12:45:07,101,10.9,1800.810,323.27,3.37,53,112,565
04/01/2017 12:45:17,115,10.9,1798.160,323.36,3.37,53,112,565
04/01/2017 12:45:27,102,10.9,1795.480,322.91,3.37,53,110,565
04/01/2017 12:45:37,96,10.9,1792.780,323.56,3.37,53,116,565
04/01/2017 12:45:47,89,10.9,1790.020,323.06,3.37,54,112,565
04/01/2017 12:45:57,113,10.9,1787.210,323.68,3.38,54,114,565
04/01/2017 12:46:07,106,10.9,1784.540,322.92,3.38,53,113,565
04/01/2017 12:46:17,103,10.9,1781.880,323.68,3.38,53,113,565
04/01/2017 12:46:27,108,10.9,1779.210,323.00,3.38,52,111,565
04/01/2017 12:46:37,102,10.9,1776.320,323.00,3.37,53,114,565
04/01/2017 12:46:47,109,10.9,1773.750,323.44,3.38,54,112,565
04/01/2017 12:46:57,108,10.9,1770.980,323.08,3.38,54,111,565
04/01/2017 12:47:07,105,10.9,1768.200,323.45,3.38,52,112,565
04/01/2017 12:47:17,108,10.9,1765.560,323.03,3.38,54,113,565
04/01/2017 12:47:27,97,10.9,1762.890,322.93,3.38,53,111,565
04/01/2017 12:47:37,90,10.9,1760.080,323.37,3.38,52,113,565
04/01/2017 12:47:47,105,10.9,1757.460,323.22,3.38,52,113,565
04/01/2017 12:47:57,94,10.9,1754.780,322.83,3.38,52,113,565
04/01/2017 12:48:07,110,10.8,1751.990,322.97,3.38,51,113,565
04/01/2017 12:48:17,107,10.9,1749.430,323.86,3.39,54,112,565
04/01/2017 12:48:27,106,10.8,1746.610,323.28,3.39,52,114,565
04/01/2017 12:48:37,69,10.9,1743.880,323.46,3.39,54,113,565
04/01/2017 12:48:47,85,10.9,1741.220,324.29,3.40,52,112,565
04/01/2017 12:48:57,91,10.9,1738.450,323.44,3.40,52,112,565
04/01/2017 12:49:07,97,10.9,1735.750,323.51,3.40,54,114,565
04/01/2017 12:49:17,109,10.9,1733.070,322.85,3.40,52,112,565
04/01/2017 12:49:27,112,10.9,1730.400,323.19,3.40,51,112,565
04/01/2017 12:49:37,113,10.9,1727.670,322.85,3.41,53,111,565
04/01/2017 12:49:47,105,10.9,1724.930,323.41,3.41,53,114,565
04/01/2017 12:49:57,88,10.9,1722.210,323.56,3.41,51,112,565
04/01/2017 12:50:07,87,10.9,1719.570,323.54,3.41,52,111,565
04/01/2017 12:50:17,95,10.9,1716.990,322.95,3.41,51,113,565
04/01/2017 12:50:27,95,10.9,1714.100,322.93,3.41,53,113,565
04/01/2017 12:50:37,108,10.9,1711.470,323.36,3.42,52,111,565
04/01/2017 12:50:47,107,10.9,1708.670,323.59,3.42,53,111,565
04/01/2017 12:50:57,103,10.9,1706.070,322.79,3.42,53,113,565
04/01/2017 12:51:07,113,10.9,1703.240,322.97,3.42,53,114,565
04/01/2017 12:51:17,106,10.9,1700.620,322.55,3.43,54,114,565
04/01/2017 12:51:27,103,10.8,1697.810,322.78,3.43,52,112,565
04/01/2017 12:51:37,88,10.9,1695.190,322.80,3.44,53,113,565
04/01/2017 12:51:47,98,10.9,1692.500,322.81,3.44,53,116,565
04/01/2017 12:51:57,104,10.9,1689.740,323.51,3.45,52,112,565
04/01/2017 12:52:07,104,10.9,1686.950,322.73,3.45,54,114,565
04/01/2017 12:52:17,98,10.9,1684.390,322.72,3.45,53,113,565
04/01/2017 12:52:27,99,10.9,1681.700,323.46,3.45,53,112,565
04/01/2017 12:52:37,98,10.9,1678.940,323.31,3.46,52,113,565
04/01/2017 12:52:47,104,10.9,1676.200,323.36,3.46,54,113,565
04/01/2017 12:52:57,102,10.9,1673.460,322.65,3.47,54,113,565
04/01/2017 12:53:07,101,10.9,1670.860,323.33,3.47,53,113,565
04/01/2017 12:53:17,94,10.9,1668.040,322.79,3.47,53,113,565
04/01/2017 12:53:27,94,10.9,1665.380,323.60,3.48,52,113,565
04/01/2017 12:53:37,90,10.9,1662.480,323.13,3.48,53,113,565
04/01/2017 12:53:47,103,10.9,1659.940,323.51,3.48,54,113,565
04/01/2017 12:53:57,105,10.9,1657.100,323.50,3.49,52,113,565
04/01/2017 12:54:07,101,10.9,1654.490,323.56,3.49,53,112,565
04/01/2017 12:54:17,108,10.9,1651.690,323.16,3.50,52,113,565
04/01/2017 12:54:27,105,10.9,1649.010,323.58,3.50,51,113,565
04/01/2017 12:54:37,92,10.9,1646.360,323.66,3.51,52,112,565
04/01/2017 12:54:47,101,10.9,1643.640,323.44,3.51,53,114,565
04/01/2017 12:54:57,109,10.9,1640.940,323.91,3.51,52,114,565
04/01/2017 12:55:07,104,10.9,1638.160,324.05,3.51,52,112,565
04/01/2017 12:55:17,108,10.9,1635.530,323.67,3.51,53,113,565
04/01/2017 12:55:27,111,10.9,1632.790,323.43,3.51,54,113,565
04/01/2017 12:55:37,115,10.9,1629.960,324.08,3.52,54,113,565
04/01/2017 12:55:47,118,10.9,1627.390,325.09,3.52,52,114,565
04/01/2017 12:55:57,106,10.9,1624.580,323.61,3.53,55,114,565
04/01/2017 12:56:07,109,10.9,1621.880,323.46,3.53,54,114,565
04/01/2017 12:56:17,98,10.9,1619.110,323.55,3.53,53,113,565
04/01/2017 12:56:27,106,10.9,1616.570,323.54,3.53,51,115,565
04/01/2017 12:56:37,118,10.8,1613.700,323.36,3.53,54,114,565
04/01/2017 12:56:47,125,10.8,1611.160,323.92,3.54,53,111,565
04/01/2017 12:56:57,110,10.8,1608.400,323.85,3.54,53,114,565
04/01/2017 12:57:07,108,10.8,1605.540,324.07,3.54,53,112,565
04/01/2017 12:57:17,112,10.9,1602.890,324.42,3.55,53,115,565
04/01/2017 12:57:27,111,10.9,1600.290,325.71,3.55,53,113,565
04/01/2017 12:57:37,117,10.9,1597.560,324.34,3.55,53,114,565
04/01/2017 12:57:47,111,10.9,1594.750,324.58,3.55,53,113,565
04/01/2017 12:57:57,96,10.9,1592.160,324.05,3.55,53,113,565
04/01/2017 12:58:07,116,10.8,1589.330,324.95,3.56,53,114,565
04/01/2017 12:58:17,107,10.9,1586.690,324.27,3.56,52,113,565
04/01/2017 12:58:27,113,10.9,1584.050,324.80,3.56,52,113,565
04/01/2017 12:58:37,119,10.9,1581.360,324.64,3.56,52,113,565
04/01/2017 12:58:47,112,10.9,1578.630,325.31,3.56,52,118,565
04/01/2017 12:58:57,107,10.9,1575.840,324.47,3.56,52,112,565
04/01/2017 12:59:07,105,10.8,1573.200,325.05,3.56,53,115,565
04/01/2017 12:59:17,103,10.9,1570.490,325.34,3.56,54,113,565
04/01/2017 12:59:27,110,10.9,1567.770,325.03,3.57,54,112,565
04/01/2017 12:59:37,123,10.8,1565.010,324.73,3.57,52,113,565
04/01/2017 12:59:47,110,10.9,1562.380,325.42,3.57,53,112,565
04/01/2017 12:59:57,111,10.8,1559.690,324.74,3.57,52,114,565
04/01/2017 13:00:07,98,10.9,1556.990,325.71,3.57,53,114,565
04/01/2017 13:00:17,108,10.9,1554.210,324.98,3.57,52,114,565
04/01/2017 13:00:27,121,10.8,1551.590,325.84,3.57,52,115,565
04/01/2017 13:00:37,115,10.9,1548.840,326.05,3.58,53,114,565
04/01/2017 13:00:47,108,10.8,1546.190,325.73,3.58,54,114,565
04/01/2017 13:00:57,104,10.9,1543.300,325.73,3.58,53,113,565
04/01/2017 13:01:07,109,10.8,1540.590,326.50,3.58,53,113,565
04/01/2017 13:01:17,110,10.8,1538.020,325.47,3.58,53,114,565
04/01/2017 13:01:27,106,10.9,1535.180,326.05,3.58,51,112,565
04/01/2017 13:01:37,115,10.9,1532.480,325.95,3.58,54,113,565
04/01/2017 13:01:47,107,10.9,1529.770,326.56,3.58,53,116,565
04/01/2017 13:01:57,101,10.9,1527.120,325.96,3.58,52,114,565
04/01/2017 13:02:07,112,10.9,1524.430,326.46,3.58,52,113,565
04/01/2017 13:02:17,111,10.8,1521.740,326.73,3.58,53,114,565
04/01/2017 13:02:27,112,10.9,1518.930,327.29,3.58,54,113,565
04/01/2017 13:02:37,120,10.9,1516.260,327.10,3.59,53,113,565
04/01/2017 13:02:47,111,10.9,1513.610,327.47,3.59,53,134,565
04/01/2017 13:02:57,106,10.9,1510.870,327.25,3.59,53,113,565
04/01/2017 13:03:07,118,10.8,1508.260,328.05,3.58,53,112,565
04/01/2017 13:03:17,122,10.9,1505.460,327.45,3.58,53,114,565
04/01/2017 13:03:27,116,10.9,1502.820,327.94,3.58,50,113,565
04/01/2017 13:03:37,120,10.9,1500.090,328.43,3.58,54,114,565
04/01/2017 13:03:47,119,10.9,1497.390,328.75,3.59,53,114,565
04/01/2017 13:03:57,111,10.9,1494.720,328.59,3.58,54,114,565
04/01/2017 13:04:07,122,10.9,1491.970,328.86,3.58,53,114,565
04/01/2017 13:04:17,109,10.9,1489.290,329.03,3.58,52,113,565
04/01/2017 13:04:27,117,10.8,1486.630,329.96,3.58,52,115,565
04/01/2017 13:04:37,108,10.8,1483.750,329.77,3.58,55,112,565
04/01/2017 13:04:47,118,10.9,1481.160,330.37,3.58,53,112,565
04/01/2017 13:04:57,114,10.9,1478.510,329.92,3.58,52,113,565
04/01/2017 13:05:07,110,10.9,1475.730,329.92,3.58,52,113,565
04/01/2017 13:05:17,122,10.9,1473.010,329.64,3.58,54,114,565
04/01/2017 13:05:27,115,10.8,1470.400,331.36,3.57,53,114,565
04/01/2017 13:05:37,120,10.9,1467.550,330.27,3.58,52,114,565
04/01/2017 13:05:47,114,10.9,1464.890,330.70,3.58,52,113,565
04/01/2017 13:05:57,114,10.9,1462.260,331.17,3.57,52,115,565
04/01/2017 13:06:07,104,10.8,1459.420,330.97,3.58,52,113,565
04/01/2017 13:06:17,108,10.8,1456.750,330.63,3.57,55,113,565
04/01/2017 13:06:27,112,10.9,1454.110,331.24,3.57,52,116,565
04/01/2017 13:06:37,113,10.9,1451.470,331.28,3.57,52,113,565
04/01/2017 13:06:47,111,10.8,1448.680,332.49,3.56,52,112,565
04/01/2017 13:06:57,108,10.8,1445.920,332.20,3.56,54,114,565
04/01/2017 13:07:07,122,10.9,1443.280,332.24,3.56,52,112,565
04/01/2017 13:07:17,118,10.9,1440.650,332.15,3.55,53,111,565
04/01/2017 13:07:27,122,10.8,1437.980,333.26,3.55,53,116,565
04/01/2017 13:07:37,107,10.8,1435.120,333.62,3.54,52,117,565
04/01/2017 13:07:47,110,10.8,1432.380,334.26,3.54,52,113,565
04/01/2017 13:07:57,114,10.9,1429.730,334.48,3.53,53,111,565
04/01/2017 13:08:07,116,10.9,1427.040,335.26,3.53,52,111,565
04/01/2017 13:08:17,117,10.9,1424.410,336.41,3.52,53,113,565
04/01/2017 13:08:27,111,10.8,1421.640,335.70,3.52,53,113,565
04/01/2017 13:08:37,115,10.8,1418.970,336.34,3.52,53,113,565
04/01/2017 13:08:47,117,10.9,1416.470,337.15,3.50,52,113,565
04/01/2017 13:08:57,112,10.9,1413.600,337.94,3.49,52,113,565
04/01/2017 13:09:07,112,10.9,1410.870,338.87,3.49,53,118,565
04/01/2017 13:09:17,117,10.8,1408.210,338.92,3.48,53,113,565
04/01/2017 13:09:27,124,10.8,1405.530,339.62,3.48,53,113,565
04/01/2017 13:09:37,116,10.8,1402.760,339.97,3.48,53,115,565
04/01/2017 13:09:47,123,10.8,1400.230,340.83,3.47,53,112,565
04/01/2017 13:09:57,115,10.8,1397.360,340.78,3.46,53,113,565
04/01/2017 13:10:07,131,10.8,1394.660,341.20,3.46,53,113,565
04/01/2017 13:10:17,111,10.8,1392.140,341.74,3.46,53,113,565
04/01/2017 13:10:27,116,10.9,1389.400,341.66,3.46,52,114,565
04/01/2017 13:10:37,123,10.8,1386.670,342.39,3.46,53,112,565
04/01/2017 13:10:47,118,10.8,1383.960,342.23,3.45,52,112,565
04/01/2017 13:10:57,115,10.9,1381.290,342.66,3.45,51,117,565
04/01/2017 13:11:07,119,10.8,1378.550,342.72,3.44,53,113,564
04/01/2017 13:11:17,112,10.9,1375.870,344.22,3.44,52,114,565
04/01/2017 13:11:27,123,10.9,1373.150,344.43,3.44,53,113,565
04/01/2017 13:11:37,121,10.8,1370.580,344.33,3.43,54,113,565
04/01/2017 13:11:47,113,10.9,1367.750,345.24,3.43,53,114,565
04/01/2017 13:11:57,121,10.9,1365.160,344.99,3.43,53,114,565
04/01/2017 13:12:07,122,10.8,1362.490,345.63,3.42,52,114,565
04/01/2017 13:12:17,110,10.9,1359.610,345.90,3.42,52,116,565
04/01/2017 13:12:27,131,10.8,1356.990,346.53,3.41,53,114,565
04/01/2017 13:12:37,120,10.8,1354.400,347.27,3.40,54,113,565
04/01/2017 13:12:47,120,10.9,1351.640,347.86,3.39,52,113,565
04/01/2017 13:12:57,127,10.8,1349.050,348.42,3.39,51,112,565
04/01/2017 13:13:07,114,10.8,1346.350,347.32,3.39,52,113,565
04/01/2017 13:13:17,117,10.8,1343.690,349.41,3.39,52,117,565
04/01/2017 13:13:27,125,10.9,1340.970,349.08,3.39,52,113,565
04/01/2017 13:13:37,122,10.9,1338.300,349.19,3.39,52,113,565
04/01/2017 13:13:47,129,10.9,1335.580,349.38,3.38,53,116,565
04/01/2017 13:13:57,117,10.9,1332.890,348.97,3.38,53,113,565
04/01/2017 13:14:07,117,10.8,1330.210,349.74,3.38,52,113,565
04/01/2017 13:14:17,124,10.8,1327.540,349.79,3.37,53,113,565
04/01/2017 13:14:27,122,10.9,1324.890,350.48,3.37,52,113,565
04/01/2017 13:14:37,126,10.8,1322.120,350.75,3.37,51,112,565
04/01/2017 13:14:47,114,10.8,1319.400,350.43,3.36,53,114,565
04/01/2017 13:14:57,120,10.8,1316.780,351.64,3.36,53,114,565
04/01/2017 13:15:07,123,10.8,1314.070,351.66,3.36,52,114,565
04/01/2017 13:15:17,116,10.9,1311.420,352.17,3.36,52,113,565
04/01/2017 13:15:27,128,10.8,1308.760,351.68,3.35,51,112,565
04/01/2017 13:15:37,128,10.8,1306.010,352.25,3.35,54,114,565
04/01/2017 13:15:47,125,10.8,1303.370,352.33,3.35,52,112,565
04/01/2017 13:15:57,117,10.8,1300.650,351.97,3.35,52,113,565
04/01/2017 13:16:07,124,10.8,1297.950,351.60,3.35,52,113,565
04/01/2017 13:16:17,126,10.8,1295.370,352.29,3.35,51,112,565
04/01/2017 13:16:27,126,10.8,1292.590,352.52,3.35,53,115,565
04/01/2017 13:16:37,129,10.8,1289.960,353.24,3.35,52,113,565
04/01/2017 13:16:47,126,10.8,1287.200,352.73,3.35,52,114,565
04/01/2017 13:16:57,128,10.8,1284.560,353.26,3.35,53,113,565
04/01/2017 13:17:07,128,10.8,1281.850,353.71,3.35,51,113,565
04/01/2017 13:17:17,123,10.9,1279.290,352.35,3.35,52,114,565
04/01/2017 13:17:27,123,10.9,1276.470,353.10,3.34,54,113,565
04/01/2017 13:17:37,129,10.8,1273.760,353.53,3.34,52,113,565
04/01/2017 13:17:47,130,10.9,1271.190,353.65,3.34,52,114,565
04/01/2017 13:17:57,129,10.8,1268.460,352.81,3.34,53,114,565
04/01/2017 13:18:07,132,10.9,1265.810,353.65,3.34,54,112,565
04/01/2017 13:18:17,127,10.8,1263.080,352.67,3.34,51,114,565
04/01/2017 13:18:27,126,10.9,1260.380,353.90,3.34,51,114,565
04/01/2017 13:18:37,125,10.8,1257.800,353.77,3.34,52,113,565
04/01/2017 13:18:47,132,10.9,1255.040,354.71,3.34,52,113,565
04/01/2017 13:18:57,114,10.8,1252.300,354.96,3.34,52,113,565
04/01/2017 13:19:07,123,10.8,1249.830,353.69,3.34,53,113,565
04/01/2017 13:19:17,120,10.8,1246.910,355.04,3.34,52,112,565
04/01/2017 13:19:27,115,10.8,1244.280,354.70,3.34,52,114,565
04/01/2017 13:19:37,130,10.9,1241.650,354.96,3.34,52,112,565
04/01/2017 13:19:47,118,10.9,1238.920,355.27,3.34,52,114,565
04/01/2017 13:19:57,110,10.9,1236.350,354.52,3.34,53,112,565
04/01/2017 13:20:07,125,10.8,1233.630,354.16,3.34,52,115,565
04/01/2017 13:20:17,124,10.8,1231.000,355.25,3.34,52,115,565
04/01/2017 13:20:27,121,10.8,1228.260,355.04,3.34,53,113,565
04/01/2017 13:20:37,121,10.9,1225.630,355.31,3.34,53,115,565
04/01/2017 13:20:47,131,10.8,1222.810,355.42,3.34,51,114,565
04/01/2017 13:20:57,124,10.9,1220.180,354.36,3.34,52,113,565
04/01/2017 13:21:07,125,10.8,1217.490,355.67,3.34,50,113,565
04/01/2017 13:21:17,127,10.8,1214.900,355.21,3.34,53,114,565
04/01/2017 13:21:27,121,10.9,1212.240,355.08,3.34,52,113,565
04/01/2017 13:21:37,125,10.9,1209.380,354.78,3.34,53,114,565
04/01/2017 13:21:47,121,10.8,1206.810,355.34,3.34,51,114,565
04/01/2017 13:21:57,128,10.9,1203.990,355.43,3.34,53,114,565
04/01/2017 13:22:07,119,10.9,1201.400,355.68,3.34,54,114,565
04/01/2017 13:22:17,141,10.8,1198.730,355.75,3.34,52,119,565
04/01/2017 13:22:27,120,10.9,1196.030,355.58,3.34,51,114,565
04/01/2017 13:22:37,128,10.9,1193.450,355.18,3.34,53,116,565
04/01/2017 13:22:47,126,10.9,1190.710,355.37,3.34,52,113,565
04/01/2017 13:22:57,128,10.8,1187.960,355.49,3.34,53,113,565
04/01/2017 13:23:07,123,10.8,1185.420,355.60,3.34,52,114,565
04/01/2017 13:23:17,125,10.9,1182.680,355.83,3.34,53,114,565
04/01/2017 13:23:27,132,10.9,1180.040,355.21,3.34,52,115,565
04/01/2017 13:23:37,126,10.8,1177.300,355.28,3.34,53,113,565
04/01/2017 13:23:47,125,10.8,1174.640,355.54,3.34,52,114,565
04/01/2017 13:23:57,127,10.9,1171.870,355.58,3.34,51,114,565
04/01/2017 13:24:07,124,10.8,1169.250,355.70,3.34,52,114,565
04/01/2017 13:24:17,123,10.8,1166.680,355.58,3.34,53,113,565
04/01/2017 13:24:27,129,10.9,1163.940,355.72,3.34,52,115,565
04/01/2017 13:24:37,132,10.8,1161.310,356.03,3.34,52,114,565
04/01/2017 13:24:47,122,10.8,1158.490,355.98,3.34,53,114,565
04/01/2017 13:24:57,120,10.9,1155.900,355.95,3.35,53,114,565
04/01/2017 13:25:07,116,10.9,1153.110,356.05,3.36,51,115,565
04/01/2017 13:25:17,123,10.9,1150.480,354.58,3.36,53,112,565
04/01/2017 13:25:27,122,10.9,1147.920,355.51,3.36,51,114,565
04/01/2017 13:25:37,120,10.9,1145.140,355.81,3.36,52,115,565
04/01/2017 13:25:47,122,10.8,1142.510,355.75,3.36,52,114,565
04/01/2017 13:25:57,131,10.8,1139.730,355.42,3.36,51,113,565
04/01/2017 13:26:07,104,10.9,1137.170,356.77,3.36,52,113,565
04/01/2017 13:26:17,116,10.8,1134.480,356.00,3.36,52,114,565
04/01/2017 13:26:27,138,10.8,1131.770,355.91,3.36,52,114,565
04/01/2017 13:26:37,136,10.9,1129.170,356.26,3.36,52,114,565
04/01/2017 13:26:47,126,10.8,1126.380,355.75,3.37,52,115,565
04/01/2017 13:26:57,125,10.9,1123.730,356.24,3.37,51,114,565
04/01/2017 13:27:07,135,10.9,1121.100,356.31,3.36,51,117,565
04/01/2017 13:27:17,126,10.9,1118.440,355.95,3.36,53,113,565
04/01/2017 13:27:27,118,10.8,1115.780,357.19,3.36,52,122,565
04/01/2017 13:27:37,132,10.9,1113.090,357.11,3.37,52,114,565
04/01/2017 13:27:47,128,10.9,1110.390,356.91,3.37,52,114,565
04/01/2017 13:27:57,124,10.9,1107.700,357.30,3.37,52,114,565
04/01/2017 13:28:07,119,10.9,1105.020,355.48,3.36,51,115,565
04/01/2017 13:28:17,117,10.8,1102.430,357.02,3.36,52,114,565
04/01/2017 13:28:27,122,10.9,1099.590,357.03,3.36,53,114,565
04/01/2017 13:28:37,122,10.9,1096.940,356.79,3.36,52,114,565
04/01/2017 13:28:47,129,10.9,1094.350,357.42,3.37,51,116,565
04/01/2017 13:28:57,131,10.8,1091.630,356.91,3.37,52,115,565
04/01/2017 13:29:07,135,10.9,1088.930,356.55,3.37,52,114,565
04/01/2017 13:29:17,122,10.9,1086.210,357.04,3.38,52,114,565
04/01/2017 13:29:27,136,10.9,1083.520,356.25,3.39,52,114,565
04/01/2017 13:29:37,138,10.8,1080.910,356.30,3.40,51,116,565
04/01/2017 13:29:47,120,10.9,1078.300,357.23,3.40,51,112,565
04/01/2017 13:29:57,134,10.8,1075.530,356.56,3.41,52,114,565
04/01/2017 13:30:07,122,10.9,1072.800,356.43,3.41,52,114,565
04/01/2017 13:30:17,129,10.9,1070.150,356.71,3.41,54,113,565
04/01/2017 13:30:27,124,10.9,1067.520,356.65,3.42,53,113,565
04/01/2017 13:30:37,127,10.8,1064.880,357.04,3.42,52,114,565
04/01/2017 13:30:47,127,10.9,1062.220,356.60,3.42,54,113,565
04/01/2017 13:30:57,131,10.9,1059.370,356.32,3.42,53,113,565
04/01/2017 13:31:07,131,10.9,1056.800,356.13,3.42,53,116,565
04/01/2017 13:31:17,124,10.9,1054.160,356.75,3.42,52,113,565
04/01/2017 13:31:27,124,10.9,1051.500,356.93,3.42,54,113,565
04/01/2017 13:31:37,123,10.9,1048.700,356.86,3.42,53,117,565
04/01/2017 13:31:47,120,10.9,1046.080,357.10,3.43,54,116,565
04/01/2017 13:31:57,129,10.9,1043.460,356.28,3.43,51,113,565
04/01/2017 13:32:07,119,10.9,1040.680,356.33,3.43,51,113,565
04/01/2017 13:32:17,121,10.9,1038.130,357.14,3.43,52,114,565
04/01/2017 13:32:27,136,10.8,1035.380,357.60,3.43,53,114,565
04/01/2017 13:32:37,127,10.9,1032.650,356.02,3.43,52,114,565
04/01/2017 13:32:47,126,10.8,1029.940,357.29,3.43,52,113,565
04/01/2017 13:32:57,141,10.8,1027.370,357.92,3.43,52,114,565
04/01/2017 13:33:07,145,10.8,1024.800,357.74,3.43,51,114,565
04/01/2017 13:33:17,90,10.9,1022.260,357.63,3.42,51,113,565
04/01/2017 13:33:27,164,10.8,1019.760,357.13,3.42,51,113,565
04/01/2017 13:33:37,128,10.9,1017.130,358.14,3.42,51,116,565
04/01/2017 13:33:47,132,10.9,1014.300,357.17,3.41,52,115,565
04/01/2017 13:33:57,134,10.9,1011.640,357.13,3.41,52,118,565
04/01/2017 13:34:07,119,10.9,1009.030,357.51,3.41,53,115,565
04/01/2017 13:34:17,117,10.9,1006.350,357.27,3.41,53,114,565
04/01/2017 13:34:27,128,10.9,1003.650,357.70,3.41,52,116,565
04/01/2017 13:34:37,127,10.9,1000.990,358.01,3.41,52,115,565
04/01/2017 13:34:47,130,10.8,998.410,357.86,3.41,53,116,565
04/01/2017 13:34:57,125,10.9,995.600,358.31,3.41,51,114,565
04/01/2017 13:35:07,122,10.9,992.930,357.94,3.41,53,116,565
04/01/2017 13:35:17,137,10.9,990.360,357.52,3.41,53,114,565
04/01/2017 13:35:27,131,10.9,987.590,358.24,3.42,52,115,565
04/01/2017 13:35:37,126,10.9,985.000,358.17,3.41,52,114,565
04/01/2017 13:35:47,129,10.9,982.310,357.45,3.41,52,115,565
04/01/2017 13:35:57,129,10.9,979.580,358.16,3.41,52,114,565
04/01/2017 13:36:07,130,10.9,976.920,358.01,3.41,53,116,565
04/01/2017 13:36:17,135,10.9,974.250,358.13,3.41,52,123,565
04/01/2017 13:36:27,131,10.9,971.640,358.59,3.41,54,116,565
04/01/2017 13:36:37,135,10.8,968.860,357.85,3.41,51,113,565
04/01/2017 13:36:47,129,10.9,966.330,358.32,3.42,51,114,565
04/01/2017 13:36:57,123,10.9,963.600,358.58,3.42,52,114,565
04/01/2017 13:37:07,124,10.9,960.940,357.35,3.42,51,116,565
04/01/2017 13:37:17,136,10.9,958.260,358.04,3.42,51,115,565
04/01/2017 13:37:27,125,10.9,955.560,357.50,3.42,52,115,565
04/01/2017 13:37:37,136,10.9,952.940,358.83,3.43,53,116,565
04/01/2017 13:37:47,128,10.9,950.150,357.76,3.43,52,115,565
04/01/2017 13:37:57,138,10.9,947.580,358.25,3.43,52,115,565
04/01/2017 13:38:07,132,10.9,944.960,358.16,3.43,52,116,565
04/01/2017 13:38:17,130,10.8,942.320,358.53,3.44,51,116,565
04/01/2017 13:38:27,130,10.9,939.590,358.52,3.44,51,116,565
04/01/2017 13:38:37,130,10.9,936.900,358.41,3.44,51,116,565
04/01/2017 13:38:47,137,10.9,934.280,358.50,3.44,51,114,565
04/01/2017 13:38:57,137,10.9,931.520,358.28,3.45,52,115,565
04/01/2017 13:39:07,132,10.8,929.000,358.62,3.45,52,115,565
04/01/2017 13:39:17,127,10.9,926.230,358.06,3.44,52,116,565
04/01/2017 13:39:27,132,10.9,923.650,358.35,3.44,52,115,565
04/01/2017 13:39:37,138,10.9,920.910,358.58,3.44,53,115,565
04/01/2017 13:39:47,135,10.8,918.230,358.24,3.44,53,115,565
04/01/2017 13:39:57,137,10.9,915.530,358.70,3.44,53,116,565
04/01/2017 13:40:07,127,10.9,912.890,358.29,3.44,54,116,565
04/01/2017 13:40:17,138,10.8,910.340,360.06,3.44,53,115,565
04/01/2017 13:40:27,134,10.9,907.640,358.50,3.44,52,116,565
04/01/2017 13:40:37,132,10.9,905.000,358.18,3.45,52,115,565
04/01/2017 13:40:47,135,10.9,902.320,359.14,3.45,53,115,565
04/01/2017 13:40:57,129,10.9,899.660,359.36,3.45,54,116,565
04/01/2017 13:41:07,138,10.9,897.020,359.56,3.46,54,117,565
04/01/2017 13:41:17,128,10.9,894.210,359.91,3.46,53,115,565
04/01/2017 13:41:27,134,10.9,891.640,359.81,3.46,52,117,565
04/01/2017 13:41:37,132,10.9,888.980,359.30,3.46,54,117,565
04/01/2017 13:41:47,124,10.9,886.210,359.29,3.46,53,117,565
04/01/2017 13:41:57,127,10.9,883.530,360.34,3.46,52,118,565
04/01/2017 13:42:07,147,10.8,881.040,359.76,3.46,52,117,565
04/01/2017 13:42:17,144,10.9,878.310,359.42,3.46,52,116,565
04/01/2017 13:42:27,152,10.9,875.550,360.33,3.46,53,116,565
04/01/2017 13:42:37,132,10.9,872.970,360.54,3.47,54,116,565
04/01/2017 13:42:47,131,10.9,870.370,360.91,3.47,53,119,565
04/01/2017 13:42:57,136,10.9,867.730,360.68,3.48,52,116,565
04/01/2017 13:43:07,131,10.9,865.070,360.51,3.48,54,120,565
04/01/2017 13:43:17,135,10.9,862.380,361.23,3.48,54,117,565
04/01/2017 13:43:27,134,10.9,859.690,360.85,3.48,54,117,565
04/01/2017 13:43:37,137,10.8,857.040,360.77,3.48,53,117,565
04/01/2017 13:43:47,131,10.8,854.300,361.30,3.49,54,118,565
04/01/2017 13:43:57,140,10.9,851.650,361.30,3.49,54,116,565
04/01/2017 13:44:07,190,10.8,849.050,361.60,3.49,55,117,565
04/01/2017 13:44:17,145,10.9,846.450,361.82,3.50,56,122,565
04/01/2017 13:44:27,145,10.8,843.740,362.07,3.50,56,118,565
04/01/2017 13:44:37,128,10.9,841.100,361.69,3.50,56,119,565
04/01/2017 13:44:47,128,10.9,838.430,361.79,3.50,55,118,565
04/01/2017 13:44:57,142,10.8,835.880,362.28,3.50,56,117,565
04/01/2017 13:45:07,135,10.9,833.140,362.82,3.51,55,120,565
04/01/2017 13:45:17,134,10.9,830.470,362.69,3.50,55,117,565
04/01/2017 13:45:27,135,10.9,827.880,362.33,3.51,56,117,565
04/01/2017 13:45:37,131,10.9,825.210,362.68,3.51,56,117,565
04/01/2017 13:45:47,143,10.9,822.530,362.84,3.52,55,116,565
04/01/2017 13:45:57,131,10.9,819.780,362.89,3.53,56,119,565
04/01/2017 13:46:07,129,10.9,817.240,363.08,3.56,61,121,565
04/01/2017 13:46:17,135,10.9,814.630,365.02,3.57,61,120,565
04/01/2017 13:46:27,142,10.9,811.850,364.84,3.57,61,123,565
04/01/2017 13:46:37,132,10.9,809.220,365.51,3.57,60,125,565
04/01/2017 13:46:47,136,10.9,806.620,365.13,3.57,59,119,565
04/01/2017 13:46:57,134,10.8,804.000,366.26,3.58,60,118,565
04/01/2017 13:47:07,143,10.9,801.190,366.28,3.58,60,120,565
04/01/2017 13:47:17,141,10.8,798.650,367.16,3.58,60,119,565
04/01/2017 13:47:27,139,10.9,795.920,366.89,3.58,62,120,565
04/01/2017 13:47:37,134,10.9,793.290,367.01,3.59,62,122,565
04/01/2017 13:47:47,138,10.9,790.700,367.48,3.59,61,119,565
04/01/2017 13:47:57,140,10.9,787.880,367.96,3.59,62,120,565
04/01/2017 13:48:07,138,10.9,785.250,366.77,3.60,62,120,565
04/01/2017 13:48:17,145,10.9,782.650,367.84,3.60,62,119,565
04/01/2017 13:48:27,142,10.8,780.010,368.07,3.60,63,121,565
04/01/2017 13:48:37,140,10.9,777.250,368.61,3.61,64,121,565
04/01/2017 13:48:47,128,10.8,774.750,368.86,3.61,64,121,565
04/01/2017 13:48:57,141,10.9,771.990,368.28,3.61,64,123,565
04/01/2017 13:49:07,131,10.8,769.390,369.94,3.61,63,121,565
04/01/2017 13:49:17,149,10.8,766.800,367.95,3.61,64,120,565
04/01/2017 13:49:27,141,10.9,764.100,368.73,3.61,64,121,565
04/01/2017 13:49:37,123,10.9,761.430,369.10,3.61,63,121,565
04/01/2017 13:49:47,146,10.9,758.730,369.20,3.61,66,122,565
04/01/2017 13:49:57,134,10.9,756.050,370.17,3.61,65,123,565
04/01/2017 13:50:07,146,10.8,753.490,369.36,3.61,64,122,565
04/01/2017 13:50:17,140,10.9,750.700,370.30,3.61,66,123,565
04/01/2017 13:50:27,159,10.8,748.080,370.13,3.62,65,122,565
04/01/2017 13:50:37,145,10.8,745.450,370.24,3.62,65,122,565
04/01/2017 13:50:47,138,10.8,742.860,370.07,3.62,65,122,565
04/01/2017 13:50:57,138,10.9,740.260,371.22,3.62,67,121,565
04/01/2017 13:51:07,128,10.9,737.540,370.39,3.62,66,122,565
04/01/2017 13:51:17,139,10.9,734.860,370.42,3.62,65,121,565
04/01/2017 13:51:27,141,10.9,732.230,370.99,3.62,65,120,565
04/01/2017 13:51:37,145,10.9,729.560,370.30,3.62,65,122,565
04/01/2017 13:51:47,144,10.9,726.990,370.52,3.62,66,124,565
04/01/2017 13:51:57,139,10.9,724.250,370.26,3.62,66,120,565
04/01/2017 13:52:07,139,10.9,721.530,370.81,3.62,66,123,565
04/01/2017 13:52:17,138,10.8,718.900,371.04,3.62,65,121,565
04/01/2017 13:52:27,136,10.9,716.390,370.94,3.62,65,122,565
04/01/2017 13:52:37,138,10.9,713.670,370.71,3.62,67,120,565
04/01/2017 13:52:47,146,10.8,710.950,371.22,3.62,65,122,565
04/01/2017 13:52:57,147,10.9,708.380,370.91,3.62,64,121,565
04/01/2017 13:53:07,134,10.8,705.770,370.54,3.62,66,120,564
04/01/2017 13:53:17,144,10.9,702.970,370.70,3.62,66,120,565
04/01/2017 13:53:27,143,10.8,700.460,370.46,3.62,67,123,565
04/01/2017 13:53:37,148,10.9,697.690,370.84,3.62,66,121,565
04/01/2017 13:53:47,148,10.9,695.160,372.00,3.62,66,121,565
04/01/2017 13:53:57,142,10.9,692.420,371.99,3.63,67,122,565
04/01/2017 13:54:07,146,10.8,689.850,371.76,3.63,68,122,565
04/01/2017 13:54:17,136,10.9,687.040,371.77,3.63,67,121,565
04/01/2017 13:54:27,143,10.9,684.570,371.48,3.63,65,121,565
04/01/2017 13:54:37,143,10.9,681.780,371.54,3.63,65,121,565
04/01/2017 13:54:47,133,10.9,679.120,371.03,3.63,66,123,565
04/01/2017 13:54:57,141,10.9,676.620,372.18,3.63,66,122,565
04/01/2017 13:55:07,143,10.8,673.950,370.88,3.64,68,121,564
04/01/2017 13:55:17,149,10.8,671.170,372.05,3.64,65,123,565
04/01/2017 13:55:27,152,10.8,668.610,371.46,3.64,66,122,565
04/01/2017 13:55:37,151,10.9,666.020,372.70,3.64,66,122,564
04/01/2017 13:55:47,142,10.9,663.220,371.64,3.65,66,124,565
04/01/2017 13:55:57,139,10.9,660.640,372.32,3.65,68,125,565
04/01/2017 13:56:07,145,10.9,657.970,372.85,3.65,66,122,565
04/01/2017 13:56:17,150,10.9,655.280,371.65,3.65,67,123,564
04/01/2017 13:56:27,150,10.8,652.690,372.73,3.65,67,123,565
04/01/2017 13:56:37,155,10.8,650.040,372.12,3.65,68,123,565
04/01/2017 13:56:47,142,10.9,647.300,372.52,3.65,68,125,565
04/01/2017 13:56:57,153,10.8,644.760,373.47,3.66,67,123,565
04/01/2017 13:57:07,141,10.8,642.170,371.96,3.66,69,124,565
04/01/2017 13:57:17,145,10.9,639.440,372.48,3.66,67,121,565
04/01/2017 13:57:27,147,10.9,636.780,372.76,3.66,68,124,564
04/01/2017 13:57:37,149,10.9,634.100,372.58,3.66,66,123,565
04/01/2017 13:57:47,142,10.8,631.430,373.25,3.66,68,122,564
04/01/2017 13:57:57,140,10.9,628.750,373.02,3.66,67,123,565
04/01/2017 13:58:07,149,10.9,626.180,372.64,3.66,68,121,564
04/01/2017 13:58:17,152,10.8,623.600,373.74,3.66,68,123,565
04/01/2017 13:58:27,139,10.9,620.970,373.40,3.66,68,122,565
04/01/2017 13:58:37,144,10.9,618.300,372.49,3.66,68,123,565
04/01/2017 13:58:47,149,10.8,615.580,374.21,3.66,67,122,565
04/01/2017 13:58:57,150,10.9,612.880,372.74,3.66,66,121,565
04/01/2017 13:59:07,149,10.9,610.280,373.06,3.66,68,123,565
04/01/2017 13:59:17,160,10.8,607.680,373.44,3.66,70,122,565
04/01/2017 13:59:27,138,10.9,604.980,372.42,3.66,68,125,564
04/01/2017 13:59:37,152,10.9,602.290,373.48,3.66,68,124,565
04/01/2017 13:59:47,158,10.8,599.690,373.83,3.66,67,124,565
04/01/2017 13:59:57,150,10.8,597.070,373.52,3.66,70,122,564
04/01/2017 14:00:07,150,10.9,594.440,373.69,3.66,68,121,565
04/01/2017 14:00:17,153,10.8,591.750,374.33,3.66,68,124,565
04/01/2017 14:00:27,157,10.8,589.090,373.07,3.67,68,124,564
04/01/2017 14:00:37,141,10.9,586.550,374.09,3.67,68,125,564
04/01/2017 14:00:47,138,10.8,583.830,373.68,3.67,68,123,565
04/01/2017 14:00:57,133,10.9,581.200,374.31,3.66,68,122,565
04/01/2017 14:01:07,151,10.9,578.480,374.24,3.66,69,121,565
04/01/2017 14:01:17,143,10.8,575.850,373.39,3.66,68,121,564
04/01/2017 14:01:27,143,10.9,573.280,373.53,3.66,67,123,565
04/01/2017 14:01:37,153,10.8,570.640,373.86,3.67,68,126,564
04/01/2017 14:01:47,151,10.8,567.930,374.24,3.67,69,123,565
04/01/2017 14:01:57,153,10.9,565.360,374.55,3.67,69,125,564
04/01/2017 14:02:07,151,10.8,562.560,374.26,3.67,70,124,565
04/01/2017 14:02:17,149,10.8,560.070,373.85,3.67,69,124,565
04/01/2017 14:02:27,149,10.9,557.400,374.99,3.67,70,124,565
04/01/2017 14:02:37,144,10.9,554.750,374.67,3.67,69,124,564
04/01/2017 14:02:47,155,10.9,552.080,374.28,3.67,70,124,565
04/01/2017 14:02:57,145,10.8,549.330,374.33,3.67,70,123,565
04/01/2017 14:03:07,145,10.8,546.840,376.15,3.67,71,123,564
04/01/2017 14:03:17,150,10.9,544.050,374.46,3.67,69,124,565
04/01/2017 14:03:27,136,10.9,541.490,374.59,3.67,70,124,565
04/01/2017 14:03:37,146,10.8,538.830,374.98,3.67,70,122,564
04/01/2017 14:03:47,147,10.9,536.120,375.25,3.67,70,124,564
04/01/2017 14:03:57,144,10.9,533.460,374.46,3.67,71,123,565
04/01/2017 14:04:07,153,10.9,530.900,374.66,3.68,73,123,565
04/01/2017 14:04:17,158,10.9,528.250,375.39,3.68,71,122,564
04/01/2017 14:04:27,133,10.9,525.590,374.79,3.68,71,124,564
04/01/2017 14:04:37,149,10.9,522.840,374.88,3.68,72,123,564
04/01/2017 14:04:47,149,10.9,520.200,375.59,3.68,71,123,565
04/01/2017 14:04:57,152,10.9,517.540,375.92,3.68,70,122,564
04/01/2017 14:05:07,142,10.9,514.940,376.25,3.68,70,124,565
04/01/2017 14:05:17,147,10.9,512.330,375.82,3.68,72,124,564
04/01/2017 14:05:27,148,10.9,509.750,375.51,3.68,70,125,564
04/01/2017 14:05:37,144,10.9,507.070,374.95,3.68,72,124,564
04/01/2017 14:05:47,147,10.9,504.330,374.93,3.68,71,123,565
04/01/2017 14:05:57,153,10.8,501.810,375.87,3.68,71,124,564
04/01/2017 14:06:07,147,10.8,499.090,375.51,3.68,71,123,564
04/01/2017 14:06:17,146,10.9,496.410,375.56,3.68,72,123,564
04/01/2017 14:06:27,149,10.8,493.870,375.94,3.68,71,126,564
04/01/2017 14:06:37,137,10.9,491.230,375.79,3.68,71,124,564
04/01/2017 14:06:47,142,10.8,488.510,375.54,3.68,72,124,564
04/01/2017 14:06:57,146,10.8,485.810,376.39,3.68,71,123,564
04/01/2017 14:07:07,147,10.9,483.220,376.32,3.68,70,125,565
04/01/2017 14:07:17,151,10.8,480.570,377.15,3.68,71,124,564
04/01/2017 14:07:27,147,10.9,478.030,375.64,3.68,72,125,565
04/01/2017 14:07:37,151,10.8,475.260,376.32,3.68,73,125,564
04/01/2017 14:07:47,150,10.8,472.680,376.14,3.68,70,124,564
04/01/2017 14:07:57,142,10.9,470.000,376.25,3.68,71,124,564
04/01/2017 14:08:07,144,10.9,467.500,375.91,3.68,72,123,564
04/01/2017 14:08:17,148,10.8,464.730,375.90,3.68,71,124,564
04/01/2017 14:08:27,147,10.9,462.060,376.50,3.68,73,125,564
04/01/2017 14:08:37,150,10.9,459.450,376.28,3.68,70,123,565
04/01/2017 14:08:47,150,10.8,456.870,376.05,3.68,73,123,564
04/01/2017 14:08:57,157,10.8,454.230,376.59,3.68,72,123,565
04/01/2017 14:09:07,145,10.8,451.610,376.79,3.68,73,123,565
04/01/2017 14:09:17,156,10.8,448.920,375.98,3.68,72,122,564
04/01/2017 14:09:27,154,10.8,446.230,377.19,3.68,71,123,564
04/01/2017 14:09:37,157,10.8,443.690,376.36,3.68,73,122,564
04/01/2017 14:09:47,159,10.8,440.990,376.78,3.68,73,125,565
04/01/2017 14:09:57,143,10.8,438.310,376.27,3.68,73,124,565
04/01/2017 14:10:07,155,10.8,435.680,377.01,3.68,72,123,564
04/01/2017 14:10:17,148,10.9,433.050,375.84,3.68,73,121,565
04/01/2017 14:10:27,149,10.8,430.500,376.69,3.69,72,124,564
04/01/2017 14:10:37,151,10.8,427.860,377.34,3.69,73,124,564
04/01/2017 14:10:47,160,10.8,425.130,377.54,3.69,74,123,564
04/01/2017 14:10:57,148,10.8,422.520,377.20,3.69,73,123,564
04/01/2017 14:11:07,144,10.9,419.930,376.56,3.69,72,124,565
04/01/2017 14:11:17,151,10.9,417.300,377.72,3.69,72,123,564
04/01/2017 14:11:27,147,10.9,414.590,377.48,3.69,73,123,564
04/01/2017 14:11:37,142,10.8,412.040,377.05,3.69,71,124,564
04/01/2017 14:11:47,152,10.9,409.370,377.53,3.69,71,123,564
04/01/2017 14:11:57,145,10.9,406.750,377.31,3.69,73,124,564
04/01/2017 14:12:07,154,10.9,404.100,377.15,3.69,73,124,564
04/01/2017 14:12:17,149,10.9,401.480,377.51,3.69,72,123,564
04/01/2017 14:12:27,141,10.9,398.700,377.81,3.69,73,125,565
04/01/2017 14:12:37,152,10.9,396.120,378.19,3.69,73,126,564
04/01/2017 14:12:47,160,10.8,393.520,378.13,3.69,72,123,565
04/01/2017 14:12:57,151,10.9,390.860,377.21,3.69,73,125,564
04/01/2017 14:13:07,150,10.8,388.160,377.64,3.69,73,123,564
04/01/2017 14:13:17,142,10.9,385.630,377.50,3.69,73,125,564
04/01/2017 14:13:27,147,10.9,382.930,378.46,3.69,74,125,565
04/01/2017 14:13:37,154,10.8,380.300,377.94,3.69,75,123,565
04/01/2017 14:13:47,145,10.9,377.650,378.10,3.69,74,125,564
04/01/2017 14:13:57,155,10.8,375.120,379.06,3.69,73,127,564
04/01/2017 14:14:07,158,10.8,372.360,378.11,3.69,74,123,564
04/01/2017 14:14:17,156,10.9,369.750,378.45,3.69,76,124,565
04/01/2017 14:14:27,152,10.9,367.090,378.64,3.69,74,125,564
04/01/2017 14:14:37,144,10.8,364.590,378.06,3.69,75,124,564
04/01/2017 14:14:47,143,10.8,361.820,378.45,3.69,76,123,564
04/01/2017 14:14:57,145,10.8,359.180,379.00,3.69,74,125,564
04/01/2017 14:15:07,149,10.8,356.560,377.85,3.69,75,123,564
04/01/2017 14:15:17,138,10.9,353.890,378.44,3.69,74,125,564
04/01/2017 14:15:27,153,10.8,351.290,378.57,3.69,75,123,564
04/01/2017 14:15:37,154,10.8,348.640,379.68,3.69,74,125,564
04/01/2017 14:15:47,152,10.9,346.080,378.58,3.69,74,123,564
04/01/2017 14:15:57,154,10.8,343.420,378.39,3.69,75,125,564
04/01/2017 14:16:07,143,10.9,340.750,378.88,3.69,76,125,564
04/01/2017 14:16:17,153,10.9,338.230,378.79,3.69,75,124,564
04/01/2017 14:16:27,153,10.8,335.460,379.11,3.69,74,124,565
04/01/2017 14:16:37,149,10.8,332.820,379.95,3.69,74,121,564
04/01/2017 14:16:47,154,10.9,330.280,378.73,3.69,75,124,564
04/01/2017 14:16:57,143,10.8,327.600,378.36,3.69,74,125,564
04/01/2017 14:17:07,150,10.9,325.010,378.36,3.69,74,124,564
04/01/2017 14:17:17,168,10.8,322.350,378.62,3.69,74,126,564
04/01/2017 14:17:27,150,10.8,319.770,379.67,3.69,73,124,564
04/01/2017 14:17:37,158,10.8,317.070,378.47,3.70,72,125,565
04/01/2017 14:17:47,153,10.8,314.520,378.57,3.70,72,123,564
04/01/2017 14:17:57,159,10.8,311.780,378.66,3.70,73,123,564
04/01/2017 14:18:07,152,10.9,309.210,378.05,3.70,74,124,564
04/01/2017 14:18:17,158,10.9,306.530,377.38,3.70,72,123,565
04/01/2017 14:18:27,164,10.8,303.900,377.57,3.70,71,121,564
04/01/2017 14:18:37,154,10.9,301.300,377.56,3.70,72,123,564
04/01/2017 14:18:47,150,10.8,298.630,378.00,3.70,71,124,564
04/01/2017 14:18:57,156,10.8,296.030,378.21,3.71,70,124,565
04/01/2017 14:19:07,157,10.8,293.440,377.62,3.71,69,124,564
04/01/2017 14:19:17,158,10.9,290.780,375.96,3.71,68,123,564
04/01/2017 14:19:27,158,10.9,288.080,376.54,3.70,69,123,564
04/01/2017 14:19:37,163,10.8,285.530,376.95,3.70,68,121,565
04/01/2017 14:19:47,152,10.8,282.970,376.83,3.70,69,121,564
04/01/2017 14:19:57,157,10.8,280.280,376.56,3.69,65,120,564
04/01/2017 14:20:07,163,10.9,277.710,376.28,3.69,65,122,564
04/01/2017 14:20:17,157,10.8,274.990,376.29,3.68,65,123,564
04/01/2017 14:20:27,162,10.8,272.410,375.73,3.67,57,119,564
04/01/2017 14:20:37,148,10.8,269.870,372.67,3.66,55,122,564
04/01/2017 14:20:47,160,10.8,267.050,372.71,3.66,55,118,564
04/01/2017 14:20:57,153,10.9,264.570,371.81,3.66,55,120,565
04/01/2017 14:21:07,155,10.9,261.880,371.85,3.66,55,118,564
04/01/2017 14:21:17,161,10.8,259.280,372.62,3.66,54,120,564
04/01/2017 14:21:27,176,10.8,256.660,371.21,3.66,56,117,564
04/01/2017 14:21:37,156,10.8,254.000,372.17,3.66,55,118,565
04/01/2017 14:21:47,150,10.9,251.310,371.90,3.66,57,118,564
04/01/2017 14:21:57,158,10.9,248.610,372.54,3.67,63,121,565
04/01/2017 14:22:07,156,10.9,246.070,373.69,3.68,64,120,564
04/01/2017 14:22:17,147,10.8,243.510,374.20,3.68,62,119,564
04/01/2017 14:22:27,157,10.8,240.900,374.70,3.68,62,121,564
04/01/2017 14:22:37,162,10.8,238.290,374.36,3.68,62,120,564
04/01/2017 14:22:47,157,10.9,235.620,375.46,3.69,65,121,564
04/01/2017 14:22:57,151,10.8,232.930,375.15,3.69,66,122,564
04/01/2017 14:23:07,159,10.9,230.280,376.05,3.69,70,123,564
04/01/2017 14:23:17,159,10.9,227.750,376.88,3.69,68,122,565
04/01/2017 14:23:27,147,10.8,225.140,377.24,3.69,71,126,564
04/01/2017 14:23:37,153,10.8,222.570,378.69,3.70,71,125,564
04/01/2017 14:23:47,153,10.9,219.940,378.41,3.70,75,124,564
04/01/2017 14:23:57,154,10.8,217.270,378.39,3.70,76,124,564
04/01/2017 14:24:07,163,10.8,214.630,378.12,3.70,70,122,565
04/01/2017 14:24:17,156,10.9,212.000,378.28,3.70,65,120,564
04/01/2017 14:24:27,158,10.8,209.310,377.06,3.69,66,122,564
04/01/2017 14:24:37,167,10.8,206.670,377.15,3.69,64,123,565
04/01/2017 14:24:47,143,10.9,204.150,377.34,3.69,62,123,564
04/01/2017 14:24:57,154,10.9,201.490,375.41,3.69,63,124,564
04/01/2017 14:25:07,166,10.8,198.950,375.76,3.69,64,120,564
04/01/2017 14:25:17,155,10.9,196.230,375.34,3.69,67,121,565
04/01/2017 14:25:27,149,10.8,193.580,376.55,3.70,71,124,564
04/01/2017 14:25:37,170,10.8,190.980,376.84,3.70,72,123,564
04/01/2017 14:25:47,157,10.8,188.440,377.61,3.70,75,124,564
04/01/2017 14:25:57,148,10.9,185.730,378.75,3.70,75,124,564
04/01/2017 14:26:07,150,10.9,183.240,379.65,3.70,79,123,564
04/01/2017 14:26:17,145,10.9,180.450,378.83,3.70,84,125,564
04/01/2017 14:26:27,184,10.8,177.930,380.53,3.70,84,126,564
04/01/2017 14:26:37,361,10.6,177.250,381.86,3.70,95,142,564
04/01/2017 14:26:47,436,10.6,177.330,380.85,3.70,94,126,564
04/01/2017 14:26:57,472,10.8,177.330,381.81,3.70,97,128,564
04/01/2017 14:27:07,473,10.5,177.250,382.15,3.70,96,129,564
04/01/2017 14:27:17,410,10.7,177.310,381.30,3.70,97,125,564
04/01/2017 14:27:27,420,10.6,177.260,382.64,3.70,95,126,564
04/01/2017 14:27:37,422,10.6,177.370,381.39,3.70,92,126,564

 Ramp exit:    SMOOTH RUNNING
 Profile exit: TOP PRESSURE

 Vehicle motion stopped at 04/01/2017 14:27:41
 Sensor logging stopped at 04/01/2017 14:29:49
