
 Profile 349

 Sensors were turned on at  04/28/2017 04:00:02
 Vehicle began profiling at 04/28/2017 04:02:05

Date,[mA],[V],[dbar],Oxygen[uM],Optode Temp[C],Chl,NTU,Therm
04/28/2017 04:02:05,0,11.0,0.000,0.00,0.00,53,137,568
04/28/2017 04:02:15,183,10.7,0.000,0.00,0.00,53,133,568
04/28/2017 04:02:25,173,10.8,0.000,0.00,0.00,53,135,568
04/28/2017 04:02:38,193,10.8,2136.000,334.43,2.88,54,131,568
04/28/2017 04:02:48,113,11.0,2133.310,333.87,2.89,53,132,568
04/28/2017 04:02:58,108,11.0,2130.490,333.57,2.89,54,126,568
04/28/2017 04:03:08,116,11.0,2127.790,333.63,2.91,53,126,568
04/28/2017 04:03:18,117,11.0,2125.020,331.74,2.93,53,124,568
04/28/2017 04:03:28,121,11.0,2122.190,331.16,2.93,52,126,568
04/28/2017 04:03:38,115,11.0,2119.590,330.99,2.94,51,126,568
04/28/2017 04:03:48,118,11.0,2116.760,331.11,2.94,54,127,568
04/28/2017 04:03:58,123,11.0,2114.020,331.87,2.95,52,124,568
04/28/2017 04:04:08,119,11.0,2111.260,332.03,2.95,54,126,567
04/28/2017 04:04:18,118,11.0,2108.660,332.41,2.96,54,126,567
04/28/2017 04:04:28,106,11.0,2105.730,331.61,2.96,51,124,567
04/28/2017 04:04:38,112,11.0,2103.130,331.24,2.96,52,126,567
04/28/2017 04:04:48,123,11.0,2100.340,330.82,2.97,53,131,567
04/28/2017 04:04:58,109,11.0,2097.630,330.32,2.98,54,123,567
04/28/2017 04:05:08,122,11.0,2094.770,330.08,2.98,54,122,567
04/28/2017 04:05:18,115,11.0,2092.110,330.47,2.99,53,122,567
04/28/2017 04:05:28,113,11.0,2089.240,330.51,2.99,55,121,567
04/28/2017 04:05:38,104,11.0,2086.590,330.47,3.00,53,122,567
04/28/2017 04:05:48,137,11.0,2083.900,329.83,3.00,52,120,567
04/28/2017 04:05:58,119,11.0,2081.130,329.38,3.01,52,121,567
04/28/2017 04:06:08,131,11.0,2078.250,329.49,3.03,51,119,567
04/28/2017 04:06:18,112,11.0,2075.640,328.79,3.05,54,120,567
04/28/2017 04:06:28,115,11.0,2072.780,328.43,3.05,52,121,567
04/28/2017 04:06:38,119,11.0,2070.150,328.00,3.05,52,119,567
04/28/2017 04:06:48,109,11.0,2067.290,328.25,3.05,53,119,567
04/28/2017 04:06:58,123,11.0,2064.600,327.82,3.06,54,119,567
04/28/2017 04:07:08,123,11.0,2061.840,328.57,3.06,53,118,566
04/28/2017 04:07:18,115,11.0,2059.040,327.77,3.07,53,117,567
04/28/2017 04:07:28,126,11.0,2056.290,328.07,3.08,53,119,567
04/28/2017 04:07:38,112,11.0,2053.530,327.42,3.08,52,118,567
04/28/2017 04:07:48,116,11.0,2050.840,326.10,3.09,52,119,567
04/28/2017 04:07:58,119,11.0,2048.130,327.92,3.09,53,119,566
04/28/2017 04:08:08,115,11.0,2045.400,327.45,3.09,53,120,567
04/28/2017 04:08:18,117,11.0,2042.560,327.79,3.09,53,117,567
04/28/2017 04:08:28,115,11.0,2039.730,326.98,3.10,53,116,566
04/28/2017 04:08:38,108,11.0,2037.050,326.56,3.11,54,117,566
04/28/2017 04:08:48,113,11.0,2034.300,327.02,3.12,53,117,566
04/28/2017 04:08:58,99,11.0,2031.600,326.42,3.12,52,119,566
04/28/2017 04:09:08,107,11.0,2028.840,325.37,3.13,52,116,566
04/28/2017 04:09:18,127,11.0,2026.160,326.29,3.13,53,116,566
04/28/2017 04:09:28,120,11.0,2023.260,325.70,3.13,55,117,566
04/28/2017 04:09:38,121,11.0,2020.660,326.77,3.14,53,114,566
04/28/2017 04:09:48,115,11.0,2017.810,325.19,3.15,54,116,566
04/28/2017 04:09:58,115,11.0,2015.140,324.98,3.15,52,115,566
04/28/2017 04:10:08,119,11.0,2012.400,325.19,3.16,52,116,566
04/28/2017 04:10:18,112,11.0,2009.570,324.65,3.17,53,114,566
04/28/2017 04:10:28,108,11.0,2006.800,324.74,3.18,52,114,566
04/28/2017 04:10:38,118,11.0,2004.040,325.13,3.18,53,116,566
04/28/2017 04:10:48,122,11.0,2001.320,325.37,3.18,54,115,566
04/28/2017 04:10:58,117,11.0,1998.670,324.34,3.18,52,116,566
04/28/2017 04:11:08,116,11.0,1995.980,324.57,3.18,53,117,566
04/28/2017 04:11:18,108,11.0,1993.160,324.59,3.18,52,118,566
04/28/2017 04:11:28,103,11.0,1990.250,325.07,3.18,54,115,566
04/28/2017 04:11:38,117,11.0,1987.530,324.38,3.19,52,115,566
04/28/2017 04:11:48,133,11.0,1984.870,324.50,3.19,53,113,566
04/28/2017 04:11:58,100,11.0,1982.210,324.44,3.20,54,113,566
04/28/2017 04:12:08,113,11.0,1979.430,324.27,3.20,53,116,566
04/28/2017 04:12:18,117,11.0,1976.510,323.68,3.21,54,115,566
04/28/2017 04:12:28,114,11.0,1973.920,323.79,3.21,52,114,566
04/28/2017 04:12:38,110,11.0,1971.100,323.92,3.22,52,115,566
04/28/2017 04:12:48,105,11.0,1968.390,323.45,3.22,52,114,566
04/28/2017 04:12:58,112,11.0,1965.630,323.77,3.22,53,114,566
04/28/2017 04:13:08,125,11.0,1962.850,324.25,3.22,53,114,566
04/28/2017 04:13:18,111,11.0,1960.220,323.71,3.22,53,114,566
04/28/2017 04:13:28,117,11.0,1957.430,324.02,3.22,54,112,566
04/28/2017 04:13:38,110,11.0,1954.750,323.54,3.23,53,113,566
04/28/2017 04:13:48,112,11.0,1951.970,324.46,3.23,52,117,566
04/28/2017 04:13:58,129,11.0,1949.270,324.32,3.23,53,114,566
04/28/2017 04:14:08,108,11.0,1946.520,324.61,3.23,52,115,566
04/28/2017 04:14:18,116,11.0,1943.750,324.07,3.23,53,115,566
04/28/2017 04:14:28,121,11.0,1940.970,324.54,3.23,53,117,566
04/28/2017 04:14:38,127,11.0,1938.140,324.07,3.23,54,115,566
04/28/2017 04:14:48,124,11.0,1935.470,325.05,3.23,53,116,566
04/28/2017 04:14:58,106,11.0,1932.720,324.20,3.23,54,118,566
04/28/2017 04:15:08,116,11.0,1929.930,324.87,3.24,53,119,566
04/28/2017 04:15:18,116,11.0,1927.240,324.23,3.24,53,117,566
04/28/2017 04:15:28,110,11.0,1924.650,325.20,3.24,53,113,566
04/28/2017 04:15:38,124,11.0,1921.850,325.28,3.24,53,116,566
04/28/2017 04:15:48,115,11.0,1919.140,325.54,3.25,52,118,566
04/28/2017 04:15:58,116,11.0,1916.370,325.63,3.25,53,116,566
04/28/2017 04:16:08,107,11.0,1913.600,326.42,3.26,52,117,565
04/28/2017 04:16:18,119,11.0,1910.830,324.62,3.27,52,121,566
04/28/2017 04:16:28,112,11.0,1907.970,325.70,3.27,55,114,565
04/28/2017 04:16:38,106,11.0,1905.340,325.37,3.27,53,114,565
04/28/2017 04:16:48,129,11.0,1902.570,324.68,3.28,51,117,566
04/28/2017 04:16:58,125,11.0,1899.850,325.66,3.28,53,115,566
04/28/2017 04:17:08,112,11.0,1897.130,324.52,3.28,54,113,566
04/28/2017 04:17:18,121,11.0,1894.420,325.10,3.29,54,114,565
04/28/2017 04:17:28,123,11.0,1891.580,325.13,3.29,52,117,566
04/28/2017 04:17:38,109,11.0,1888.810,326.26,3.29,52,116,565
04/28/2017 04:17:48,144,11.0,1886.150,325.71,3.30,52,116,565
04/28/2017 04:17:58,116,11.0,1883.470,325.80,3.30,52,115,566
04/28/2017 04:18:08,106,11.0,1880.740,326.07,3.30,52,115,566
04/28/2017 04:18:18,122,11.0,1877.900,325.03,3.30,53,117,565
04/28/2017 04:18:28,119,11.0,1875.180,326.47,3.30,53,115,566
04/28/2017 04:18:38,113,11.0,1872.440,326.16,3.30,53,116,565
04/28/2017 04:18:48,117,11.0,1869.730,326.24,3.30,52,116,565
04/28/2017 04:18:58,110,11.0,1867.090,325.95,3.30,52,117,565
04/28/2017 04:19:08,97,11.0,1864.300,326.86,3.31,54,115,565
04/28/2017 04:19:18,117,11.0,1861.440,324.69,3.33,52,113,565
04/28/2017 04:19:28,118,11.0,1858.760,324.31,3.34,53,113,565
04/28/2017 04:19:38,123,11.0,1856.100,324.15,3.34,53,114,565
04/28/2017 04:19:48,126,11.0,1853.330,324.06,3.34,52,115,565
04/28/2017 04:19:58,120,11.0,1850.560,324.51,3.34,53,113,565
04/28/2017 04:20:08,121,11.0,1847.930,324.30,3.35,53,114,565
04/28/2017 04:20:18,118,11.0,1845.180,323.24,3.35,53,115,565
04/28/2017 04:20:28,116,11.0,1842.360,323.54,3.36,53,114,565
04/28/2017 04:20:38,111,11.0,1839.610,323.74,3.36,54,112,565
04/28/2017 04:20:48,119,11.0,1836.990,323.19,3.36,55,111,565
04/28/2017 04:20:58,115,11.0,1834.160,322.79,3.36,53,115,565
04/28/2017 04:21:08,118,11.0,1831.410,323.20,3.36,54,113,565
04/28/2017 04:21:18,117,11.0,1828.750,323.56,3.36,53,113,565
04/28/2017 04:21:28,116,11.0,1826.070,322.94,3.36,53,113,565
04/28/2017 04:21:38,120,11.0,1823.210,323.25,3.37,53,114,565
04/28/2017 04:21:48,125,11.0,1820.520,323.52,3.37,52,113,565
04/28/2017 04:21:58,118,11.0,1817.890,323.08,3.38,52,113,565
04/28/2017 04:22:08,125,11.0,1815.030,323.18,3.39,53,114,565
04/28/2017 04:22:18,115,11.0,1812.370,324.02,3.39,53,113,565
04/28/2017 04:22:28,108,11.0,1809.680,323.75,3.39,54,113,565
04/28/2017 04:22:38,111,11.0,1806.860,323.33,3.39,53,113,565
04/28/2017 04:22:48,115,11.0,1804.170,324.16,3.40,53,115,565
04/28/2017 04:22:58,115,11.0,1801.370,323.71,3.40,53,114,565
04/28/2017 04:23:08,114,11.0,1798.700,323.63,3.40,52,114,565
04/28/2017 04:23:18,106,11.0,1795.950,323.31,3.41,51,112,565
04/28/2017 04:23:28,137,11.0,1793.220,324.09,3.41,52,113,565
04/28/2017 04:23:38,118,11.0,1790.460,323.57,3.41,54,112,565
04/28/2017 04:23:48,97,11.0,1787.780,323.58,3.41,54,115,565
04/28/2017 04:23:58,116,11.0,1785.030,323.62,3.41,52,112,565
04/28/2017 04:24:08,112,11.0,1782.310,323.02,3.42,54,117,565
04/28/2017 04:24:18,124,11.0,1779.560,323.74,3.42,54,113,565
04/28/2017 04:24:28,120,11.0,1776.990,323.64,3.42,52,116,565
04/28/2017 04:24:38,115,11.0,1774.120,323.61,3.42,53,114,565
04/28/2017 04:24:48,135,11.0,1771.410,323.53,3.43,53,114,565
04/28/2017 04:24:58,137,11.0,1768.750,323.30,3.43,52,114,565
04/28/2017 04:25:08,107,11.0,1766.050,322.98,3.43,53,113,565
04/28/2017 04:25:18,107,11.0,1763.210,322.55,3.44,53,113,565
04/28/2017 04:25:28,123,11.0,1760.600,323.05,3.44,55,115,565
04/28/2017 04:25:38,122,11.0,1757.920,323.23,3.44,54,113,565
04/28/2017 04:25:48,106,11.0,1755.240,322.69,3.44,52,113,565
04/28/2017 04:25:58,108,11.0,1752.430,322.73,3.45,54,112,565
04/28/2017 04:26:08,117,11.0,1749.770,322.32,3.45,53,114,565
04/28/2017 04:26:18,93,11.0,1746.910,323.05,3.45,53,114,565
04/28/2017 04:26:28,142,11.0,1744.280,322.72,3.46,53,114,565
04/28/2017 04:26:38,117,11.0,1741.550,323.27,3.46,53,113,565
04/28/2017 04:26:48,103,11.0,1738.840,323.65,3.47,53,116,565
04/28/2017 04:26:58,107,11.0,1736.180,323.16,3.47,52,113,565
04/28/2017 04:27:08,103,11.0,1733.430,323.45,3.47,54,115,565
04/28/2017 04:27:18,121,11.0,1730.820,323.32,3.47,53,114,565
04/28/2017 04:27:28,110,11.0,1728.030,323.49,3.47,53,115,565
04/28/2017 04:27:38,109,11.0,1725.290,323.48,3.47,53,113,565
04/28/2017 04:27:48,117,11.0,1722.700,324.79,3.47,54,114,565
04/28/2017 04:27:58,130,11.0,1719.970,323.90,3.48,53,115,565
04/28/2017 04:28:08,118,11.0,1717.400,324.81,3.48,52,112,565
04/28/2017 04:28:18,133,11.0,1714.590,323.93,3.48,53,113,565
04/28/2017 04:28:28,127,11.0,1711.970,324.24,3.48,53,119,565
04/28/2017 04:28:38,104,11.0,1709.300,324.21,3.48,53,113,565
04/28/2017 04:28:48,95,11.0,1706.510,323.82,3.48,53,113,565
04/28/2017 04:28:58,131,11.0,1703.830,323.83,3.48,53,114,565
04/28/2017 04:29:08,127,11.0,1701.190,324.59,3.49,52,118,565
04/28/2017 04:29:18,129,11.0,1698.510,324.58,3.49,53,114,565
04/28/2017 04:29:28,120,11.0,1695.770,324.64,3.49,54,114,565
04/28/2017 04:29:38,110,11.0,1692.990,323.91,3.49,53,116,565
04/28/2017 04:29:48,107,11.0,1690.350,324.58,3.49,54,114,565
04/28/2017 04:29:58,124,11.0,1687.710,324.67,3.49,52,115,565
04/28/2017 04:30:08,118,11.0,1684.920,324.88,3.49,54,114,565
04/28/2017 04:30:18,103,11.0,1682.250,325.36,3.49,54,113,565
04/28/2017 04:30:28,112,11.0,1679.500,325.09,3.49,52,116,565
04/28/2017 04:30:38,102,11.0,1676.940,324.55,3.50,52,121,565
04/28/2017 04:30:48,104,11.1,1674.010,325.78,3.50,53,114,565
04/28/2017 04:30:58,118,11.0,1671.430,325.33,3.50,53,114,565
04/28/2017 04:31:08,96,11.0,1668.740,325.17,3.50,52,114,565
04/28/2017 04:31:18,109,11.0,1665.990,324.44,3.50,52,113,565
04/28/2017 04:31:28,110,11.0,1663.280,324.87,3.50,55,115,565
04/28/2017 04:31:38,134,11.0,1660.510,325.11,3.51,53,113,565
04/28/2017 04:31:48,128,11.0,1657.930,324.87,3.51,52,114,565
04/28/2017 04:31:58,106,11.0,1655.150,325.65,3.52,53,115,565
04/28/2017 04:32:08,133,11.0,1652.290,325.27,3.52,52,114,565
04/28/2017 04:32:18,111,11.0,1649.790,324.96,3.52,53,115,565
04/28/2017 04:32:28,107,11.0,1646.970,324.76,3.52,54,113,565
04/28/2017 04:32:38,121,11.0,1644.310,325.37,3.52,52,114,565
04/28/2017 04:32:48,121,11.0,1641.510,324.25,3.53,55,113,565
04/28/2017 04:32:58,121,11.0,1638.900,324.82,3.53,53,114,565
04/28/2017 04:33:08,110,11.0,1636.130,325.41,3.53,54,114,565
04/28/2017 04:33:18,120,11.0,1633.470,324.66,3.53,53,113,565
04/28/2017 04:33:28,112,11.0,1630.750,324.17,3.53,52,115,565
04/28/2017 04:33:38,140,11.0,1628.000,324.25,3.54,53,111,565
04/28/2017 04:33:48,115,11.0,1625.330,324.34,3.54,52,113,565
04/28/2017 04:33:58,117,11.0,1622.580,323.82,3.54,53,116,565
04/28/2017 04:34:08,130,11.0,1619.850,323.83,3.54,53,113,565
04/28/2017 04:34:18,118,11.0,1617.120,323.80,3.54,52,113,565
04/28/2017 04:34:28,155,11.0,1614.440,324.42,3.54,53,113,565
04/28/2017 04:34:38,143,11.0,1611.810,324.13,3.54,54,115,565
04/28/2017 04:34:48,138,11.0,1608.970,323.68,3.54,53,113,565
04/28/2017 04:34:58,147,11.0,1606.260,323.93,3.54,54,112,565
04/28/2017 04:35:08,139,11.0,1603.470,324.68,3.54,55,114,565
04/28/2017 04:35:18,151,11.0,1600.810,324.54,3.55,53,113,565
04/28/2017 04:35:28,120,11.0,1598.220,324.06,3.55,55,113,565
04/28/2017 04:35:38,121,11.0,1595.320,324.56,3.56,52,113,565
04/28/2017 04:35:48,132,11.0,1592.680,324.54,3.56,54,113,565
04/28/2017 04:35:58,151,11.0,1590.020,324.93,3.56,53,114,565
04/28/2017 04:36:08,104,11.0,1587.260,324.24,3.57,52,114,565
04/28/2017 04:36:18,108,11.0,1584.520,324.72,3.58,52,114,565
04/28/2017 04:36:28,118,11.0,1581.890,324.69,3.57,55,113,565
04/28/2017 04:36:38,126,11.0,1579.110,324.26,3.58,53,114,565
04/28/2017 04:36:48,142,11.0,1576.370,324.70,3.58,54,113,565
04/28/2017 04:36:58,130,11.0,1573.760,325.01,3.58,52,114,565
04/28/2017 04:37:08,129,11.0,1571.120,325.19,3.58,53,113,565
04/28/2017 04:37:18,146,11.0,1568.260,325.23,3.58,53,113,565
04/28/2017 04:37:28,122,11.0,1565.650,325.05,3.58,53,113,565
04/28/2017 04:37:38,133,11.0,1562.910,325.32,3.58,53,113,565
04/28/2017 04:37:48,123,11.0,1560.070,325.33,3.58,52,116,565
04/28/2017 04:37:58,142,11.0,1557.450,325.27,3.58,54,113,565
04/28/2017 04:38:08,142,11.0,1554.730,325.20,3.59,52,115,565
04/28/2017 04:38:18,107,11.0,1552.070,325.69,3.58,54,113,565
04/28/2017 04:38:28,122,11.0,1549.260,326.15,3.58,53,113,565
04/28/2017 04:38:38,127,11.0,1546.600,325.52,3.58,53,115,565
04/28/2017 04:38:48,120,11.0,1543.890,326.46,3.58,51,115,565
04/28/2017 04:38:58,150,11.0,1541.210,325.34,3.58,54,115,565
04/28/2017 04:39:08,145,11.0,1538.400,327.40,3.58,53,113,565
04/28/2017 04:39:18,121,11.0,1535.780,326.25,3.58,52,113,565
04/28/2017 04:39:28,126,11.0,1533.060,326.56,3.58,52,118,565
04/28/2017 04:39:38,126,11.0,1530.280,325.80,3.59,52,113,565
04/28/2017 04:39:48,105,11.0,1527.680,327.13,3.60,53,114,565
04/28/2017 04:39:58,128,11.0,1524.860,327.46,3.60,52,115,565
04/28/2017 04:40:08,112,11.0,1522.250,326.98,3.60,54,116,565
04/28/2017 04:40:18,118,11.0,1519.520,327.67,3.60,53,113,565
04/28/2017 04:40:28,121,11.0,1516.700,327.37,3.60,52,114,565
04/28/2017 04:40:38,153,11.0,1514.020,327.49,3.60,52,113,565
04/28/2017 04:40:48,129,11.0,1511.330,327.85,3.60,55,112,565
04/28/2017 04:40:58,140,11.0,1508.610,328.01,3.59,53,112,565
04/28/2017 04:41:08,143,11.0,1505.940,328.45,3.58,52,114,565
04/28/2017 04:41:18,155,11.0,1503.220,329.48,3.59,52,117,565
04/28/2017 04:41:28,130,11.0,1500.520,328.39,3.59,52,114,565
04/28/2017 04:41:38,134,11.0,1497.750,329.07,3.59,52,113,564
04/28/2017 04:41:48,129,11.0,1495.020,329.28,3.59,54,113,565
04/28/2017 04:41:58,133,11.0,1492.370,329.59,3.58,53,112,565
04/28/2017 04:42:08,118,11.0,1489.620,329.15,3.58,52,113,565
04/28/2017 04:42:18,143,11.0,1487.040,329.97,3.58,53,113,565
04/28/2017 04:42:28,133,11.0,1484.380,331.87,3.57,52,112,565
04/28/2017 04:42:38,134,11.0,1481.550,331.54,3.57,52,112,565
04/28/2017 04:42:48,151,11.0,1478.910,331.50,3.58,52,111,564
04/28/2017 04:42:58,109,11.0,1476.300,330.80,3.59,51,112,564
04/28/2017 04:43:08,124,11.0,1473.420,330.97,3.60,52,112,565
04/28/2017 04:43:18,139,11.0,1470.900,330.55,3.61,52,112,565
04/28/2017 04:43:28,128,11.0,1468.100,331.15,3.61,53,111,565
04/28/2017 04:43:38,128,11.0,1465.530,331.09,3.61,56,115,565
04/28/2017 04:43:48,137,11.0,1462.760,331.28,3.61,51,113,565
04/28/2017 04:43:58,144,11.0,1460.000,331.92,3.61,53,114,565
04/28/2017 04:44:08,140,11.0,1457.370,331.75,3.61,52,112,565
04/28/2017 04:44:18,127,11.0,1454.650,331.56,3.62,52,113,565
04/28/2017 04:44:28,110,11.0,1451.900,331.96,3.62,54,112,565
04/28/2017 04:44:38,108,11.0,1449.200,332.46,3.62,55,112,565
04/28/2017 04:44:48,126,11.0,1446.540,333.15,3.61,51,113,565
04/28/2017 04:44:58,114,11.0,1443.820,333.15,3.61,54,111,565
04/28/2017 04:45:08,130,11.0,1441.230,332.85,3.61,52,115,565
04/28/2017 04:45:18,127,11.0,1438.500,333.62,3.60,53,113,565
04/28/2017 04:45:28,123,11.0,1435.730,334.39,3.60,54,121,565
04/28/2017 04:45:38,115,11.0,1432.950,333.92,3.59,53,114,565
04/28/2017 04:45:48,124,11.0,1430.410,334.73,3.59,52,112,565
04/28/2017 04:45:58,128,11.0,1427.540,334.33,3.59,53,113,565
04/28/2017 04:46:08,118,11.0,1424.910,334.96,3.58,54,113,565
04/28/2017 04:46:18,122,11.0,1422.240,334.89,3.57,52,114,564
04/28/2017 04:46:28,134,11.0,1419.480,335.08,3.57,52,113,565
04/28/2017 04:46:38,136,11.0,1416.870,336.11,3.57,51,116,565
04/28/2017 04:46:48,102,11.0,1414.150,335.74,3.57,53,112,565
04/28/2017 04:46:58,154,11.0,1411.340,335.57,3.57,53,112,565
04/28/2017 04:47:08,113,11.0,1408.720,335.71,3.57,52,112,565
04/28/2017 04:47:18,135,11.0,1405.960,335.93,3.57,52,113,565
04/28/2017 04:47:28,135,11.0,1403.290,337.16,3.57,54,112,565
04/28/2017 04:47:38,137,11.0,1400.640,338.31,3.56,53,115,565
04/28/2017 04:47:48,158,11.0,1397.910,337.45,3.56,53,113,564
04/28/2017 04:47:58,118,11.0,1395.280,337.40,3.56,53,112,564
04/28/2017 04:48:08,129,11.0,1392.580,338.21,3.56,53,112,565
04/28/2017 04:48:18,128,11.0,1389.920,338.36,3.56,53,113,565
04/28/2017 04:48:28,134,11.0,1387.120,337.86,3.56,51,126,565
04/28/2017 04:48:38,130,11.0,1384.450,338.92,3.55,53,114,565
04/28/2017 04:48:48,115,11.0,1381.820,339.92,3.54,53,111,565
04/28/2017 04:48:58,129,11.0,1379.020,340.60,3.53,52,112,565
04/28/2017 04:49:08,130,11.0,1376.310,340.34,3.53,52,113,565
04/28/2017 04:49:18,140,11.0,1373.720,341.31,3.52,53,111,564
04/28/2017 04:49:28,136,11.0,1370.920,341.11,3.52,52,114,565
04/28/2017 04:49:38,122,11.0,1368.180,342.23,3.51,53,118,565
04/28/2017 04:49:48,125,11.0,1365.520,343.18,3.51,53,112,565
04/28/2017 04:49:58,110,11.0,1362.920,342.15,3.50,52,113,565
04/28/2017 04:50:08,136,11.0,1360.200,342.80,3.50,52,113,565
04/28/2017 04:50:18,131,11.0,1357.380,343.48,3.49,53,114,565
04/28/2017 04:50:28,106,11.0,1354.840,344.45,3.48,52,113,565
04/28/2017 04:50:38,136,11.0,1352.070,344.96,3.48,52,112,565
04/28/2017 04:50:48,141,11.0,1349.370,345.28,3.47,53,112,564
04/28/2017 04:50:58,138,11.0,1346.740,346.17,3.45,53,113,565
04/28/2017 04:51:08,116,11.0,1343.920,346.28,3.44,51,113,565
04/28/2017 04:51:18,133,11.0,1341.290,346.94,3.44,53,113,565
04/28/2017 04:51:28,131,11.0,1338.620,347.21,3.44,53,114,565
04/28/2017 04:51:38,114,11.0,1335.800,348.01,3.44,53,114,565
04/28/2017 04:51:48,138,11.0,1333.070,348.14,3.43,52,113,565
04/28/2017 04:51:58,137,11.0,1330.500,348.55,3.43,54,112,565
04/28/2017 04:52:08,137,11.0,1327.890,348.50,3.42,53,113,565
04/28/2017 04:52:18,129,11.0,1325.170,349.99,3.40,50,114,565
04/28/2017 04:52:28,100,11.0,1322.320,349.27,3.40,52,112,565
04/28/2017 04:52:38,102,11.0,1319.760,351.40,3.39,53,112,565
04/28/2017 04:52:48,120,11.0,1317.060,350.83,3.39,53,113,564
04/28/2017 04:52:58,123,11.0,1314.220,351.57,3.39,53,112,565
04/28/2017 04:53:08,136,11.0,1311.610,351.18,3.39,52,112,565
04/28/2017 04:53:18,129,11.0,1308.980,351.94,3.39,53,113,565
04/28/2017 04:53:28,112,11.0,1306.270,351.83,3.41,52,112,565
04/28/2017 04:53:38,125,11.0,1303.580,350.57,3.41,52,112,565
04/28/2017 04:53:48,128,11.0,1301.000,351.03,3.41,52,112,565
04/28/2017 04:53:58,141,11.0,1298.230,351.22,3.39,52,112,565
04/28/2017 04:54:08,139,11.0,1295.450,351.55,3.39,53,112,565
04/28/2017 04:54:18,122,11.0,1292.810,352.51,3.39,53,112,565
04/28/2017 04:54:28,101,11.0,1290.250,351.97,3.38,53,112,565
04/28/2017 04:54:38,131,11.0,1287.530,352.68,3.38,53,112,565
04/28/2017 04:54:48,91,11.0,1284.680,352.07,3.38,52,112,565
04/28/2017 04:54:58,117,11.0,1282.130,352.07,3.38,52,111,565
04/28/2017 04:55:08,136,11.0,1279.320,352.23,3.38,51,112,565
04/28/2017 04:55:18,133,11.0,1276.770,352.70,3.38,53,112,565
04/28/2017 04:55:28,135,11.0,1274.100,352.80,3.38,52,113,565
04/28/2017 04:55:38,110,11.0,1271.330,352.01,3.38,53,164,565
04/28/2017 04:55:48,111,11.0,1268.770,352.89,3.38,52,114,565
04/28/2017 04:55:58,126,11.0,1266.130,353.19,3.38,52,112,565
04/28/2017 04:56:08,139,11.0,1263.280,353.12,3.38,53,112,565
04/28/2017 04:56:18,142,11.0,1260.610,352.67,3.38,52,114,565
04/28/2017 04:56:28,131,11.0,1258.050,352.75,3.38,52,110,565
04/28/2017 04:56:38,133,11.0,1255.220,353.35,3.38,52,112,565
04/28/2017 04:56:48,124,11.0,1252.520,353.03,3.38,52,112,565
04/28/2017 04:56:58,140,11.0,1249.980,352.78,3.38,52,113,565
04/28/2017 04:57:08,123,11.0,1247.150,353.52,3.38,52,113,565
04/28/2017 04:57:18,143,11.0,1244.530,353.84,3.37,53,113,565
04/28/2017 04:57:28,132,11.0,1241.870,353.78,3.38,52,115,565
04/28/2017 04:57:38,119,11.0,1239.100,353.34,3.36,52,114,565
04/28/2017 04:57:48,132,11.0,1236.410,354.64,3.36,53,114,565
04/28/2017 04:57:58,121,11.0,1233.700,354.23,3.37,52,114,565
04/28/2017 04:58:08,146,11.0,1231.120,354.00,3.37,51,113,565
04/28/2017 04:58:18,120,11.0,1228.320,354.06,3.37,51,113,565
04/28/2017 04:58:28,117,11.0,1225.640,353.56,3.38,51,113,565
04/28/2017 04:58:38,135,11.0,1223.070,353.70,3.38,52,113,565
04/28/2017 04:58:48,124,11.0,1220.390,353.91,3.37,51,114,565
04/28/2017 04:58:58,135,10.9,1217.580,354.45,3.37,52,113,565
04/28/2017 04:59:08,109,11.0,1214.860,353.82,3.37,52,115,565
04/28/2017 04:59:18,137,11.0,1211.990,353.78,3.37,52,114,565
04/28/2017 04:59:28,124,10.9,1209.610,354.21,3.37,52,114,565
04/28/2017 04:59:38,134,11.0,1207.000,355.24,3.36,52,115,565
04/28/2017 04:59:48,113,11.0,1204.280,354.99,3.36,53,114,565
04/28/2017 04:59:58,142,11.0,1201.220,354.69,3.37,52,113,565
04/28/2017 05:00:08,131,10.9,1198.700,354.53,3.37,51,114,565
04/28/2017 05:00:18,133,11.0,1196.260,354.69,3.38,52,114,565
04/28/2017 05:00:28,123,11.0,1193.550,354.69,3.38,53,115,565
04/28/2017 05:00:38,121,10.9,1190.800,354.04,3.38,51,114,565
04/28/2017 05:00:48,120,10.9,1188.050,354.71,3.39,52,114,565
04/28/2017 05:00:58,131,11.0,1185.480,353.73,3.39,52,113,565
04/28/2017 05:01:08,136,11.0,1182.810,354.85,3.39,50,112,565
04/28/2017 05:01:18,130,11.0,1180.030,354.80,3.39,52,118,565
04/28/2017 05:01:28,132,11.0,1177.130,354.34,3.39,52,114,565
04/28/2017 05:01:38,136,11.0,1174.660,354.78,3.39,54,112,565
04/28/2017 05:01:48,125,11.0,1171.810,355.01,3.39,52,114,565
04/28/2017 05:01:58,140,10.9,1169.350,355.00,3.39,51,114,565
04/28/2017 05:02:08,109,10.9,1166.390,354.97,3.39,52,115,565
04/28/2017 05:02:18,118,11.0,1164.100,356.46,3.39,52,112,565
04/28/2017 05:02:28,121,11.0,1161.000,354.93,3.39,52,113,565
04/28/2017 05:02:38,151,10.9,1158.380,355.10,3.41,51,113,565
04/28/2017 05:02:48,124,11.0,1155.780,354.49,3.42,52,114,565
04/28/2017 05:02:58,130,11.0,1153.060,354.62,3.41,52,112,565
04/28/2017 05:03:08,133,11.0,1150.350,354.14,3.42,52,113,565
04/28/2017 05:03:18,135,11.0,1147.750,355.04,3.41,51,116,565
04/28/2017 05:03:28,150,10.9,1145.280,354.75,3.42,52,114,565
04/28/2017 05:03:38,127,11.0,1142.270,354.38,3.42,52,112,565
04/28/2017 05:03:48,153,11.0,1139.750,353.98,3.42,51,114,565
04/28/2017 05:03:58,149,10.9,1137.090,355.37,3.41,52,114,565
04/28/2017 05:04:08,134,11.0,1134.440,354.70,3.41,52,111,565
04/28/2017 05:04:18,116,10.9,1131.680,355.19,3.42,51,114,565
04/28/2017 05:04:28,140,11.0,1129.110,355.37,3.42,52,113,565
04/28/2017 05:04:38,109,11.0,1126.440,354.26,3.43,54,113,565
04/28/2017 05:04:48,133,10.9,1123.700,354.79,3.43,52,113,565
04/28/2017 05:04:58,151,11.0,1120.980,355.21,3.44,52,116,565
04/28/2017 05:05:08,145,11.0,1118.310,354.27,3.44,51,112,565
04/28/2017 05:05:18,166,10.9,1115.650,354.28,3.45,51,113,565
04/28/2017 05:05:28,139,10.9,1113.000,355.27,3.45,53,114,565
04/28/2017 05:05:38,142,11.0,1110.590,355.03,3.45,54,113,565
04/28/2017 05:05:48,128,11.0,1107.800,354.91,3.44,54,114,565
04/28/2017 05:05:58,141,11.0,1105.180,355.44,3.44,54,113,565
04/28/2017 05:06:08,146,10.9,1102.540,355.71,3.45,52,113,565
04/28/2017 05:06:18,150,10.9,1099.800,354.65,3.45,52,114,565
04/28/2017 05:06:28,128,11.0,1097.110,355.64,3.46,52,112,565
04/28/2017 05:06:38,158,10.9,1094.420,354.64,3.46,53,113,565
04/28/2017 05:06:48,121,11.0,1091.750,355.23,3.46,52,113,565
04/28/2017 05:06:58,136,11.0,1089.090,355.46,3.46,52,112,565
04/28/2017 05:07:08,156,10.9,1086.520,355.43,3.46,52,113,565
04/28/2017 05:07:18,141,11.0,1083.920,354.96,3.46,52,112,565
04/28/2017 05:07:28,144,10.9,1081.100,354.13,3.46,53,111,565
04/28/2017 05:07:38,149,10.9,1078.450,355.09,3.46,51,115,565
04/28/2017 05:07:48,136,11.0,1076.150,355.22,3.46,52,114,565
04/28/2017 05:07:58,126,10.9,1073.400,356.03,3.46,51,113,565
04/28/2017 05:08:08,135,11.0,1070.840,355.55,3.46,52,113,565
04/28/2017 05:08:18,125,10.9,1067.800,355.07,3.46,52,113,565
04/28/2017 05:08:28,151,10.9,1065.490,355.44,3.47,51,112,565
04/28/2017 05:08:38,144,10.9,1062.760,355.99,3.47,53,113,565
04/28/2017 05:08:48,144,10.9,1059.960,355.06,3.47,52,113,565
04/28/2017 05:08:58,141,10.9,1057.200,355.36,3.47,52,114,565
04/28/2017 05:09:08,148,10.9,1054.540,355.75,3.47,51,117,565
04/28/2017 05:09:18,134,10.9,1051.860,355.39,3.46,51,114,565
04/28/2017 05:09:28,105,10.9,1049.110,355.90,3.46,53,114,565
04/28/2017 05:09:38,173,10.9,1046.550,355.96,3.46,53,114,565
04/28/2017 05:09:48,172,10.9,1043.930,355.90,3.47,51,113,565
04/28/2017 05:09:58,137,10.9,1041.460,356.24,3.47,52,113,565
04/28/2017 05:10:08,143,10.9,1038.600,356.33,3.47,52,113,565
04/28/2017 05:10:18,137,10.9,1035.950,355.88,3.47,53,113,565
04/28/2017 05:10:28,144,10.9,1033.280,356.17,3.48,51,113,565
04/28/2017 05:10:38,149,10.9,1030.770,355.97,3.48,52,113,565
04/28/2017 05:10:48,133,11.0,1028.000,356.82,3.48,53,114,565
04/28/2017 05:10:58,153,10.9,1025.260,356.27,3.49,52,112,565
04/28/2017 05:11:08,148,10.9,1022.710,355.52,3.48,52,112,565
04/28/2017 05:11:18,155,10.9,1020.030,354.78,3.48,53,113,565
04/28/2017 05:11:28,161,10.9,1017.380,355.82,3.49,52,113,565
04/28/2017 05:11:38,133,10.9,1014.640,355.54,3.49,53,113,565
04/28/2017 05:11:48,156,10.9,1012.050,356.19,3.49,51,112,565
04/28/2017 05:11:58,142,10.9,1009.360,355.62,3.50,52,114,565
04/28/2017 05:12:08,128,10.9,1006.700,355.95,3.50,52,111,565
04/28/2017 05:12:18,149,10.9,1004.030,356.62,3.49,52,113,565
04/28/2017 05:12:28,151,10.9,1001.440,356.12,3.49,52,112,565
04/28/2017 05:12:38,153,10.9,998.710,356.02,3.49,53,112,565
04/28/2017 05:12:48,143,10.9,996.130,356.37,3.49,51,115,565
04/28/2017 05:12:58,111,10.9,993.470,357.03,3.49,52,114,565
04/28/2017 05:13:08,143,10.9,990.810,355.51,3.49,53,112,565
04/28/2017 05:13:18,166,10.9,988.210,356.65,3.50,53,113,565
04/28/2017 05:13:28,151,10.9,985.500,356.22,3.49,52,115,565
04/28/2017 05:13:38,153,10.9,982.940,356.54,3.49,52,112,565
04/28/2017 05:13:48,122,10.9,980.250,356.91,3.48,51,114,565
04/28/2017 05:13:58,166,10.9,977.570,356.99,3.49,53,113,565
04/28/2017 05:14:08,139,10.9,974.910,356.40,3.50,51,113,565
04/28/2017 05:14:18,156,10.9,972.340,357.04,3.50,52,115,565
04/28/2017 05:14:28,146,10.9,969.580,356.86,3.50,51,114,565
04/28/2017 05:14:38,162,10.9,967.050,356.62,3.49,53,113,565
04/28/2017 05:14:48,137,10.9,964.390,357.43,3.49,52,114,565
04/28/2017 05:14:58,142,10.9,961.790,357.68,3.49,52,114,565
04/28/2017 05:15:08,139,10.9,959.050,357.26,3.49,53,114,565
04/28/2017 05:15:18,148,10.9,956.580,357.84,3.50,53,113,565
04/28/2017 05:15:28,153,10.9,953.720,356.67,3.50,52,112,565
04/28/2017 05:15:38,155,10.9,951.260,356.98,3.50,52,113,565
04/28/2017 05:15:48,149,10.9,948.660,356.23,3.50,52,114,565
04/28/2017 05:15:58,145,10.9,945.880,357.53,3.51,52,112,565
04/28/2017 05:16:08,159,10.9,943.330,357.68,3.51,52,114,565
04/28/2017 05:16:18,158,10.9,940.710,357.53,3.51,52,113,565
04/28/2017 05:16:28,166,10.9,937.940,357.13,3.51,52,114,565
04/28/2017 05:16:38,185,10.9,935.420,357.61,3.51,52,113,565
04/28/2017 05:16:48,141,10.9,932.620,356.69,3.51,53,113,565
04/28/2017 05:16:58,144,10.9,930.030,357.52,3.51,52,113,565
04/28/2017 05:17:08,139,10.9,927.420,357.90,3.51,53,114,565
04/28/2017 05:17:18,163,10.9,924.870,357.51,3.51,52,120,565
04/28/2017 05:17:28,134,10.9,922.120,357.59,3.51,54,111,565
04/28/2017 05:17:38,137,10.9,919.580,357.84,3.52,52,114,565
04/28/2017 05:17:48,127,10.9,916.830,358.11,3.52,53,111,565
04/28/2017 05:17:58,140,10.9,914.380,357.51,3.52,52,113,565
04/28/2017 05:18:08,138,10.9,911.730,357.81,3.52,52,112,565
04/28/2017 05:18:18,143,10.9,909.070,358.31,3.52,53,113,565
04/28/2017 05:18:28,155,10.9,906.310,358.29,3.52,53,113,565
04/28/2017 05:18:38,150,10.9,903.700,358.33,3.53,52,112,565
04/28/2017 05:18:48,164,10.9,901.050,358.14,3.53,53,117,565
04/28/2017 05:18:58,146,10.9,898.470,358.14,3.53,51,114,565
04/28/2017 05:19:08,159,10.9,895.700,358.15,3.52,52,113,565
04/28/2017 05:19:18,148,10.9,893.120,359.14,3.52,51,113,565
04/28/2017 05:19:28,133,10.9,890.450,357.47,3.52,53,114,565
04/28/2017 05:19:38,153,10.9,887.770,358.44,3.52,51,113,565
04/28/2017 05:19:48,147,10.9,885.280,358.24,3.53,52,111,565
04/28/2017 05:19:58,152,10.9,882.590,358.91,3.53,53,113,564
04/28/2017 05:20:08,139,10.9,879.860,358.49,3.53,53,113,565
04/28/2017 05:20:18,177,10.9,877.210,358.50,3.53,52,113,565
04/28/2017 05:20:28,136,10.9,874.680,358.61,3.53,54,113,565
04/28/2017 05:20:38,125,10.9,871.950,358.20,3.54,53,114,565
04/28/2017 05:20:48,141,10.9,869.350,358.29,3.54,53,113,565
04/28/2017 05:20:58,148,10.9,866.750,358.97,3.54,52,114,565
04/28/2017 05:21:08,160,10.9,864.020,358.76,3.55,51,113,565
04/28/2017 05:21:18,146,10.9,861.500,358.58,3.55,52,115,565
04/28/2017 05:21:28,157,10.9,858.740,358.29,3.55,52,113,565
04/28/2017 05:21:38,142,10.9,856.210,359.27,3.55,53,115,565
04/28/2017 05:21:48,167,10.9,853.550,359.25,3.55,52,117,565
04/28/2017 05:21:58,126,10.9,850.860,359.00,3.55,52,112,565
04/28/2017 05:22:08,164,10.9,848.120,359.09,3.55,53,115,565
04/28/2017 05:22:18,160,10.9,845.580,359.62,3.55,53,113,565
04/28/2017 05:22:28,172,10.9,843.000,360.14,3.56,53,121,565
04/28/2017 05:22:38,141,10.9,840.270,360.78,3.56,53,115,565
04/28/2017 05:22:48,139,10.9,837.660,361.55,3.55,54,115,565
04/28/2017 05:22:58,158,10.9,835.030,361.74,3.55,53,115,565
04/28/2017 05:23:08,159,10.9,832.360,361.72,3.55,54,114,565
04/28/2017 05:23:18,156,10.9,829.810,362.21,3.56,53,116,565
04/28/2017 05:23:28,139,10.9,827.070,361.81,3.56,52,115,565
04/28/2017 05:23:38,145,10.9,824.410,362.13,3.56,55,116,565
04/28/2017 05:23:48,134,10.9,821.780,361.35,3.56,52,114,565
04/28/2017 05:23:58,137,10.9,819.120,361.41,3.56,53,117,565
04/28/2017 05:24:08,183,10.9,816.620,361.45,3.56,53,115,565
04/28/2017 05:24:18,130,10.9,813.970,361.27,3.57,53,117,565
04/28/2017 05:24:28,157,10.9,811.150,361.58,3.57,53,114,565
04/28/2017 05:24:38,150,10.9,808.530,362.30,3.57,54,114,565
04/28/2017 05:24:48,137,10.9,805.980,362.20,3.57,52,117,565
04/28/2017 05:24:58,143,10.9,803.380,362.11,3.57,52,114,565
04/28/2017 05:25:08,144,10.9,800.660,362.71,3.57,53,116,565
04/28/2017 05:25:18,169,10.9,797.990,362.46,3.57,53,116,565
04/28/2017 05:25:28,149,10.8,795.490,362.61,3.57,54,114,565
04/28/2017 05:25:38,141,10.8,792.750,363.33,3.58,53,115,565
04/28/2017 05:25:48,165,10.9,790.160,362.77,3.58,53,114,565
04/28/2017 05:25:58,152,10.9,787.480,363.47,3.58,53,114,565
04/28/2017 05:26:08,147,10.9,784.980,363.51,3.58,53,115,565
04/28/2017 05:26:18,148,10.9,782.120,363.59,3.58,55,117,565
04/28/2017 05:26:28,129,10.9,779.690,364.11,3.58,53,115,565
04/28/2017 05:26:38,159,10.9,776.920,363.89,3.58,53,116,565
04/28/2017 05:26:48,124,10.9,774.390,364.36,3.58,53,116,565
04/28/2017 05:26:58,168,10.8,771.660,363.90,3.58,53,117,565
04/28/2017 05:27:08,147,10.8,769.000,364.35,3.59,53,116,565
04/28/2017 05:27:18,150,10.9,766.370,364.53,3.59,54,117,565
04/28/2017 05:27:28,158,10.9,763.740,364.32,3.59,54,119,565
04/28/2017 05:27:38,128,10.8,761.110,364.64,3.59,54,116,565
04/28/2017 05:27:48,189,10.8,758.470,365.23,3.59,53,116,565
04/28/2017 05:27:58,158,10.8,755.960,364.90,3.59,53,116,564
04/28/2017 05:28:08,165,10.8,753.330,365.35,3.59,53,115,565
04/28/2017 05:28:18,134,10.9,750.700,364.59,3.59,53,117,565
04/28/2017 05:28:28,170,10.8,748.000,365.14,3.59,53,116,564
04/28/2017 05:28:38,143,10.9,745.340,364.79,3.59,55,116,565
04/28/2017 05:28:48,133,10.8,742.640,365.12,3.59,53,114,565
04/28/2017 05:28:58,155,10.9,740.060,365.09,3.59,54,116,565
04/28/2017 05:29:08,155,10.9,737.430,364.39,3.59,53,115,565
04/28/2017 05:29:18,171,10.9,734.860,365.23,3.59,54,118,565
04/28/2017 05:29:28,153,10.9,732.240,367.33,3.59,54,119,565
04/28/2017 05:29:38,135,10.9,729.540,367.50,3.59,56,117,565
04/28/2017 05:29:48,143,10.9,726.880,368.90,3.59,56,120,565
04/28/2017 05:29:58,173,10.9,724.230,369.15,3.59,55,119,565
04/28/2017 05:30:08,139,10.9,721.530,370.23,3.59,56,120,565
04/28/2017 05:30:18,124,10.8,718.980,370.49,3.59,56,122,565
04/28/2017 05:30:28,175,10.8,716.290,370.37,3.59,56,119,565
04/28/2017 05:30:38,165,10.9,713.610,371.02,3.59,58,119,565
04/28/2017 05:30:48,138,10.9,711.090,370.02,3.59,56,121,565
04/28/2017 05:30:58,151,10.8,708.480,370.90,3.59,56,120,565
04/28/2017 05:31:08,159,10.9,705.870,371.42,3.59,57,120,565
04/28/2017 05:31:18,145,10.8,703.270,371.25,3.59,55,120,564
04/28/2017 05:31:28,146,10.8,700.500,371.47,3.59,57,121,565
04/28/2017 05:31:38,152,10.9,697.970,372.02,3.59,55,120,565
04/28/2017 05:31:48,144,10.9,695.340,371.45,3.59,58,122,565
04/28/2017 05:31:58,144,10.8,692.570,371.53,3.60,55,142,564
04/28/2017 05:32:08,159,10.8,690.000,370.97,3.60,57,125,564
04/28/2017 05:32:18,143,10.8,687.340,371.59,3.60,57,120,565
04/28/2017 05:32:28,147,10.9,684.840,372.27,3.60,57,120,565
04/28/2017 05:32:38,160,10.8,682.100,372.54,3.60,57,119,565
04/28/2017 05:32:48,147,10.8,679.580,371.26,3.60,56,121,565
04/28/2017 05:32:58,138,10.9,676.820,371.54,3.59,55,121,565
04/28/2017 05:33:08,142,10.8,674.330,371.64,3.59,57,134,565
04/28/2017 05:33:18,164,10.8,671.620,371.88,3.60,56,119,565
04/28/2017 05:33:28,146,10.9,668.990,370.54,3.60,56,123,565
04/28/2017 05:33:38,146,10.8,666.360,371.38,3.60,56,119,564
04/28/2017 05:33:48,138,10.8,663.830,371.80,3.60,56,119,565
04/28/2017 05:33:58,162,10.8,661.120,371.28,3.60,55,118,565
04/28/2017 05:34:08,127,10.8,658.640,370.89,3.60,56,121,565
04/28/2017 05:34:18,139,10.8,655.960,369.51,3.60,54,118,565
04/28/2017 05:34:28,162,10.8,653.250,367.93,3.61,56,117,565
04/28/2017 05:34:38,174,10.8,650.660,367.51,3.61,53,119,565
04/28/2017 05:34:48,156,10.8,648.030,367.85,3.61,55,117,564
04/28/2017 05:34:58,152,10.8,645.450,367.22,3.61,54,116,564
04/28/2017 05:35:08,158,10.8,642.890,368.03,3.61,56,118,565
04/28/2017 05:35:18,144,10.8,640.300,367.84,3.61,54,118,564
04/28/2017 05:35:28,151,10.8,637.620,368.65,3.61,55,117,565
04/28/2017 05:35:38,157,10.8,635.040,368.38,3.61,54,117,565
04/28/2017 05:35:48,140,10.8,632.330,367.68,3.61,54,117,565
04/28/2017 05:35:58,160,10.8,629.720,367.93,3.61,55,117,565
04/28/2017 05:36:08,158,10.8,627.080,368.50,3.61,55,116,565
04/28/2017 05:36:18,185,10.8,624.430,367.63,3.61,55,120,564
04/28/2017 05:36:28,165,10.8,621.830,368.67,3.61,56,118,565
04/28/2017 05:36:38,153,10.8,619.220,368.62,3.61,55,118,565
04/28/2017 05:36:48,153,10.8,616.680,366.76,3.62,52,117,564
04/28/2017 05:36:58,159,10.8,614.010,365.13,3.62,54,119,565
04/28/2017 05:37:08,149,10.8,611.470,364.90,3.63,53,117,565
04/28/2017 05:37:18,142,10.8,608.700,363.74,3.63,55,118,565
04/28/2017 05:37:28,168,10.8,606.220,365.21,3.63,54,116,565
04/28/2017 05:37:38,166,10.8,603.590,365.31,3.63,54,123,565
04/28/2017 05:37:48,146,10.8,600.880,366.76,3.63,55,119,565
04/28/2017 05:37:58,147,10.8,598.290,367.31,3.63,54,116,565
04/28/2017 05:38:08,114,10.8,595.740,368.03,3.63,55,119,565
04/28/2017 05:38:18,172,10.8,593.060,368.09,3.62,56,118,565
04/28/2017 05:38:28,165,10.8,590.450,368.37,3.62,57,117,565
04/28/2017 05:38:38,148,10.8,587.890,368.98,3.62,57,119,565
04/28/2017 05:38:48,149,10.8,585.310,369.13,3.62,56,120,565
04/28/2017 05:38:58,141,10.8,582.600,369.99,3.62,56,118,565
04/28/2017 05:39:08,170,10.8,579.900,370.61,3.62,57,120,565
04/28/2017 05:39:18,164,10.8,577.340,370.73,3.62,56,121,564
04/28/2017 05:39:28,153,10.8,574.700,371.10,3.62,56,120,565
04/28/2017 05:39:38,143,10.8,572.100,370.62,3.62,57,122,564
04/28/2017 05:39:48,148,10.8,569.620,371.14,3.63,56,119,565
04/28/2017 05:39:58,157,10.8,567.000,369.56,3.63,56,117,565
04/28/2017 05:40:08,169,10.8,564.350,369.44,3.63,57,119,565
04/28/2017 05:40:18,156,10.8,561.570,370.69,3.63,54,131,564
04/28/2017 05:40:28,146,10.8,559.120,370.14,3.63,56,118,565
04/28/2017 05:40:38,148,10.8,556.410,370.53,3.63,55,118,565
04/28/2017 05:40:48,148,10.8,553.880,370.27,3.63,55,118,564
04/28/2017 05:40:58,155,10.8,551.190,370.27,3.64,55,118,565
04/28/2017 05:41:08,153,10.8,548.570,370.02,3.64,56,120,565
04/28/2017 05:41:18,156,10.8,546.080,369.50,3.64,56,120,565
04/28/2017 05:41:28,152,10.8,543.410,370.21,3.64,57,119,565
04/28/2017 05:41:38,151,10.8,540.800,370.36,3.64,56,119,565
04/28/2017 05:41:48,124,10.8,538.190,370.82,3.64,55,122,564
04/28/2017 05:41:58,164,10.8,535.600,370.38,3.64,55,119,565
04/28/2017 05:42:08,163,10.8,532.940,370.56,3.64,55,120,564
04/28/2017 05:42:18,135,10.8,530.310,369.60,3.64,54,116,564
04/28/2017 05:42:28,138,10.8,527.800,369.94,3.64,55,118,564
04/28/2017 05:42:38,169,10.8,525.220,369.27,3.64,54,118,564
04/28/2017 05:42:48,137,10.8,522.550,368.91,3.64,56,116,564
04/28/2017 05:42:58,143,10.8,519.870,368.12,3.64,55,117,565
04/28/2017 05:43:08,160,10.8,517.390,368.95,3.64,55,119,565
04/28/2017 05:43:18,152,10.8,514.660,368.76,3.64,55,117,565
04/28/2017 05:43:28,167,10.8,512.140,368.04,3.64,55,119,565
04/28/2017 05:43:38,154,10.8,509.440,367.16,3.65,55,133,565
04/28/2017 05:43:48,155,10.8,506.930,367.28,3.65,57,119,565
04/28/2017 05:43:58,172,10.8,504.260,368.64,3.65,56,119,565
04/28/2017 05:44:08,164,10.8,501.630,368.85,3.65,56,120,565
04/28/2017 05:44:18,147,10.8,499.120,369.76,3.66,58,121,565
04/28/2017 05:44:28,159,10.8,496.530,369.79,3.66,58,120,564
04/28/2017 05:44:38,155,10.8,493.850,369.68,3.66,58,119,565
04/28/2017 05:44:48,156,10.8,491.170,369.93,3.66,57,121,564
04/28/2017 05:44:58,172,10.8,488.710,369.75,3.66,58,117,565
04/28/2017 05:45:08,177,10.8,486.000,371.29,3.66,56,120,564
04/28/2017 05:45:18,139,10.8,483.470,369.99,3.66,57,119,565
04/28/2017 05:45:28,168,10.8,480.880,369.44,3.66,55,119,564
04/28/2017 05:45:38,146,10.8,478.240,370.01,3.65,57,119,565
04/28/2017 05:45:48,187,10.8,475.680,369.35,3.65,56,121,565
04/28/2017 05:45:58,179,10.8,473.040,369.38,3.65,55,118,565
04/28/2017 05:46:08,167,10.8,470.480,370.35,3.66,55,123,565
04/28/2017 05:46:18,149,10.8,467.850,369.49,3.66,56,117,565
04/28/2017 05:46:28,166,10.8,465.320,369.05,3.67,55,123,564
04/28/2017 05:46:38,178,10.8,462.640,368.39,3.67,54,121,565
04/28/2017 05:46:48,170,10.8,460.050,369.23,3.67,56,117,565
04/28/2017 05:46:58,160,10.8,457.430,368.58,3.67,56,121,565
04/28/2017 05:47:08,153,10.8,454.830,369.15,3.67,56,118,564
04/28/2017 05:47:18,178,10.8,452.260,369.26,3.68,57,121,565
04/28/2017 05:47:28,167,10.7,449.660,369.24,3.67,57,119,564
04/28/2017 05:47:38,165,10.8,447.140,370.62,3.66,57,124,564
04/28/2017 05:47:48,139,10.8,444.550,370.56,3.66,56,121,565
04/28/2017 05:47:58,149,10.8,441.960,370.90,3.66,55,121,564
04/28/2017 05:48:08,163,10.8,439.410,370.88,3.66,55,120,564
04/28/2017 05:48:18,161,10.8,436.700,370.38,3.66,56,138,564
04/28/2017 05:48:28,166,10.8,434.090,371.17,3.66,56,120,565
04/28/2017 05:48:38,180,10.8,431.500,371.01,3.67,56,119,565
04/28/2017 05:48:48,163,10.8,429.050,370.87,3.67,58,119,564
04/28/2017 05:48:58,143,10.8,426.450,371.60,3.68,56,122,565
04/28/2017 05:49:08,145,10.8,423.720,371.46,3.69,57,120,565
04/28/2017 05:49:18,159,10.8,421.220,371.03,3.70,57,119,565
04/28/2017 05:49:28,154,10.7,418.640,370.33,3.70,57,118,564
04/28/2017 05:49:38,153,10.8,415.990,371.28,3.70,57,120,564
04/28/2017 05:49:48,184,10.8,413.380,370.10,3.70,56,120,564
04/28/2017 05:49:58,186,10.8,410.890,370.57,3.70,56,120,565
04/28/2017 05:50:08,137,10.8,408.300,370.83,3.70,56,119,564
04/28/2017 05:50:18,155,10.8,405.630,370.35,3.70,56,119,565
04/28/2017 05:50:28,177,10.8,402.990,370.57,3.71,58,121,565
04/28/2017 05:50:38,159,10.8,400.410,369.81,3.71,56,120,565
04/28/2017 05:50:48,167,10.8,397.950,370.35,3.71,57,119,564
04/28/2017 05:50:58,166,10.8,395.210,369.67,3.71,59,121,564
04/28/2017 05:51:08,168,10.7,392.690,370.11,3.71,58,128,565
04/28/2017 05:51:18,159,10.8,390.200,370.29,3.71,58,121,564
04/28/2017 05:51:28,157,10.8,387.550,371.36,3.72,59,121,565
04/28/2017 05:51:38,151,10.8,384.850,371.53,3.72,59,120,565
04/28/2017 05:51:48,162,10.8,382.240,371.72,3.72,58,121,564
04/28/2017 05:51:58,143,10.8,379.730,371.19,3.73,58,121,564
04/28/2017 05:52:08,152,10.8,377.200,371.58,3.73,57,120,564
04/28/2017 05:52:18,175,10.8,374.470,371.67,3.73,57,122,565
04/28/2017 05:52:28,173,10.8,371.950,370.89,3.74,57,120,564
04/28/2017 05:52:38,172,10.8,369.320,370.46,3.74,56,122,565
04/28/2017 05:52:48,143,10.8,366.840,370.95,3.74,56,120,564
04/28/2017 05:52:58,179,10.8,364.310,371.32,3.74,57,120,564
04/28/2017 05:53:08,155,10.7,361.560,370.67,3.74,57,120,564
04/28/2017 05:53:18,173,10.7,359.130,370.18,3.75,56,122,565
04/28/2017 05:53:28,156,10.7,356.390,370.24,3.75,57,123,564
04/28/2017 05:53:38,149,10.7,353.840,371.72,3.75,59,125,564
04/28/2017 05:53:48,177,10.7,351.230,371.50,3.75,58,121,564
04/28/2017 05:53:58,166,10.8,348.730,370.32,3.75,57,122,564
04/28/2017 05:54:08,159,10.8,346.190,371.08,3.75,58,122,564
04/28/2017 05:54:18,169,10.8,343.630,371.30,3.75,59,120,564
04/28/2017 05:54:28,150,10.7,340.960,370.55,3.75,59,120,564
04/28/2017 05:54:38,156,10.7,338.340,370.76,3.75,57,120,564
04/28/2017 05:54:48,177,10.7,335.880,371.53,3.75,58,123,564
04/28/2017 05:54:58,161,10.8,333.220,371.40,3.76,60,121,564
04/28/2017 05:55:08,151,10.7,330.690,371.33,3.76,60,123,564
04/28/2017 05:55:18,159,10.7,328.120,371.46,3.76,60,122,564
04/28/2017 05:55:28,158,10.7,325.470,372.16,3.76,60,123,564
04/28/2017 05:55:38,171,10.7,322.950,371.83,3.76,60,121,564
04/28/2017 05:55:48,153,10.7,320.360,371.76,3.77,61,122,564
04/28/2017 05:55:58,168,10.7,317.820,372.14,3.78,57,121,565
04/28/2017 05:56:08,185,10.7,315.140,371.83,3.78,60,127,565
04/28/2017 05:56:18,156,10.7,312.710,371.45,3.78,60,125,564
04/28/2017 05:56:28,156,10.7,309.950,371.26,3.79,59,125,564
04/28/2017 05:56:38,161,10.7,307.540,372.40,3.79,60,122,564
04/28/2017 05:56:48,166,10.7,304.930,371.41,3.80,58,121,564
04/28/2017 05:56:58,178,10.7,302.220,371.24,3.80,59,122,565
04/28/2017 05:57:08,164,10.7,299.860,370.63,3.80,60,122,564
04/28/2017 05:57:18,183,10.7,297.200,371.29,3.81,62,123,564
04/28/2017 05:57:28,193,10.7,294.620,370.84,3.82,62,124,565
04/28/2017 05:57:38,154,10.7,292.010,370.91,3.82,61,125,564
04/28/2017 05:57:48,169,10.7,289.470,370.70,3.83,61,126,564
04/28/2017 05:57:58,163,10.7,286.930,371.18,3.83,60,126,564
04/28/2017 05:58:08,159,10.8,284.250,370.88,3.83,60,124,565
04/28/2017 05:58:18,173,10.7,281.720,370.64,3.84,61,124,564
04/28/2017 05:58:28,174,10.7,279.130,370.13,3.84,61,135,564
04/28/2017 05:58:38,144,10.7,276.600,370.77,3.84,62,126,564
04/28/2017 05:58:48,162,10.7,274.040,370.97,3.85,64,127,564
04/28/2017 05:58:58,168,10.7,271.440,370.69,3.86,65,126,564
04/28/2017 05:59:08,159,10.7,268.820,371.60,3.87,65,126,564
04/28/2017 05:59:18,159,10.7,266.160,372.19,3.88,65,128,564
04/28/2017 05:59:28,180,10.7,263.690,371.80,3.88,67,128,565
04/28/2017 05:59:38,154,10.7,261.180,372.80,3.90,69,130,564
04/28/2017 05:59:48,172,10.7,258.520,373.45,3.90,69,128,564
04/28/2017 05:59:58,187,10.7,255.930,374.49,3.90,70,128,564
04/28/2017 06:00:08,180,10.7,253.460,373.87,3.91,74,129,564
04/28/2017 06:00:18,171,10.7,250.750,375.12,3.91,76,131,564
04/28/2017 06:00:28,143,10.8,248.240,375.35,3.91,78,135,564
04/28/2017 06:00:38,153,10.7,245.650,377.35,3.92,81,132,564
04/28/2017 06:00:48,177,10.7,243.120,377.74,3.93,85,136,564
04/28/2017 06:00:58,188,10.7,240.570,379.86,3.94,86,135,564
04/28/2017 06:01:08,182,10.7,237.880,380.71,3.95,88,139,564
04/28/2017 06:01:18,155,10.7,235.340,380.86,3.95,87,142,564
04/28/2017 06:01:28,162,10.7,232.900,380.89,3.96,88,136,564
04/28/2017 06:01:38,155,10.7,230.370,381.56,3.96,92,138,564
04/28/2017 06:01:48,184,10.7,227.630,382.12,3.97,90,137,564
04/28/2017 06:01:58,200,10.7,225.220,381.72,3.97,90,138,564
04/28/2017 06:02:08,157,10.7,222.630,381.41,3.97,90,139,564
04/28/2017 06:02:18,178,10.7,220.070,381.32,3.97,91,138,564
04/28/2017 06:02:28,160,10.7,217.440,381.47,3.98,90,141,564
04/28/2017 06:02:38,170,10.7,214.830,381.96,3.98,90,137,564
04/28/2017 06:02:48,172,10.7,212.440,382.45,3.98,94,141,564
04/28/2017 06:02:58,181,10.7,209.780,383.27,3.98,93,139,564
04/28/2017 06:03:08,164,10.7,207.310,382.25,3.98,91,139,564
04/28/2017 06:03:18,186,10.7,204.700,382.71,3.99,93,140,564
04/28/2017 06:03:28,164,10.7,202.120,382.65,3.99,90,138,564
04/28/2017 06:03:38,183,10.7,199.530,382.32,3.99,89,138,564
04/28/2017 06:03:48,168,10.7,197.080,380.52,3.99,87,139,564
04/28/2017 06:03:58,195,10.7,194.400,380.53,3.99,86,138,564
04/28/2017 06:04:08,187,10.7,191.850,380.81,3.99,87,138,564
04/28/2017 06:04:18,188,10.7,189.250,381.08,3.99,86,137,564
04/28/2017 06:04:28,240,10.7,186.860,379.39,3.99,84,137,564
04/28/2017 06:04:38,152,10.7,184.780,380.03,3.99,89,145,564
04/28/2017 06:04:48,421,10.4,184.730,379.41,3.99,88,139,564
04/28/2017 06:04:58,405,10.4,184.680,379.54,3.99,86,140,564
04/28/2017 06:05:08,345,10.5,184.830,379.58,3.99,94,142,564
04/28/2017 06:05:18,401,10.4,184.760,378.96,3.99,88,139,564
04/28/2017 06:05:28,337,10.5,184.840,380.21,4.00,89,139,564
04/28/2017 06:05:38,362,10.5,184.740,379.06,3.99,85,138,564

 Ramp exit:    SMOOTH RUNNING
 Profile exit: TOP PRESSURE

 Vehicle motion stopped at 04/28/2017 06:05:43
 Sensor logging stopped at 04/28/2017 06:07:52
