
 Profile 346

 Sensors were turned on at  04/25/2017 16:00:02
 Vehicle began profiling at 04/25/2017 16:02:05

Date,[mA],[V],[dbar],Oxygen[uM],Optode Temp[C],Chl,NTU,Therm
04/25/2017 16:02:05,0,11.1,0.000,0.00,0.00,104,146,567
04/25/2017 16:02:15,210,10.7,0.000,0.00,0.00,101,149,567
04/25/2017 16:02:25,183,10.8,0.000,0.00,0.00,99,146,567
04/25/2017 16:02:38,294,10.7,182.890,386.06,3.80,98,144,567
04/25/2017 16:02:49,151,10.9,185.850,385.61,3.80,97,158,567
04/25/2017 16:02:59,158,10.9,188.430,387.18,3.80,97,147,567
04/25/2017 16:03:09,158,10.9,191.230,385.31,3.80,95,149,566
04/25/2017 16:03:19,161,10.9,193.820,386.54,3.80,97,145,566
04/25/2017 16:03:29,166,10.9,196.530,385.48,3.80,97,148,566
04/25/2017 16:03:39,150,10.9,199.290,385.51,3.80,97,145,566
04/25/2017 16:03:49,161,10.9,201.960,384.85,3.79,96,146,566
04/25/2017 16:03:59,158,10.9,204.480,385.34,3.79,96,145,566
04/25/2017 16:04:09,149,10.9,207.230,385.72,3.78,93,147,566
04/25/2017 16:04:19,148,10.9,209.940,385.03,3.78,93,146,566
04/25/2017 16:04:29,151,10.9,212.550,386.58,3.78,94,151,566
04/25/2017 16:04:39,142,10.9,215.140,385.13,3.78,94,153,566
04/25/2017 16:04:49,154,10.9,217.840,385.93,3.77,93,144,566
04/25/2017 16:04:59,156,10.8,220.620,386.30,3.77,93,155,566
04/25/2017 16:05:09,144,10.9,223.260,385.15,3.77,92,144,566
04/25/2017 16:05:19,141,10.8,225.860,385.73,3.77,91,142,566
04/25/2017 16:05:29,161,10.8,228.560,385.77,3.77,91,146,566
04/25/2017 16:05:39,146,10.8,231.240,384.80,3.77,91,145,566
04/25/2017 16:05:49,161,10.8,233.880,384.44,3.77,90,144,566
04/25/2017 16:05:59,168,10.8,236.560,384.60,3.77,88,144,565
04/25/2017 16:06:09,126,10.8,239.040,385.36,3.77,78,134,565
04/25/2017 16:06:19,141,10.8,241.910,382.15,3.75,72,129,566
04/25/2017 16:06:29,140,10.8,244.500,380.78,3.74,63,126,565
04/25/2017 16:06:39,154,10.8,247.080,378.46,3.74,60,121,565
04/25/2017 16:06:49,141,10.8,249.830,377.59,3.74,60,122,565
04/25/2017 16:06:59,162,10.8,252.470,376.55,3.74,59,122,565
04/25/2017 16:07:09,157,10.8,255.120,376.74,3.74,60,124,565
04/25/2017 16:07:19,155,10.8,257.760,377.68,3.74,60,123,565
04/25/2017 16:07:29,136,10.8,260.480,376.40,3.73,57,122,565
04/25/2017 16:07:39,152,10.8,263.200,375.90,3.73,60,122,565
04/25/2017 16:07:49,159,10.8,265.880,375.33,3.72,59,121,565
04/25/2017 16:07:59,153,10.8,268.520,376.02,3.72,60,122,565
04/25/2017 16:08:09,153,10.8,271.160,375.84,3.72,58,123,565
04/25/2017 16:08:19,136,10.8,273.740,375.79,3.71,58,124,565
04/25/2017 16:08:29,144,10.8,276.420,374.95,3.72,59,124,565
04/25/2017 16:08:39,166,10.8,279.050,375.00,3.71,60,122,565
04/25/2017 16:08:49,153,10.8,281.890,375.36,3.71,58,121,565
04/25/2017 16:08:59,155,10.8,284.460,375.56,3.71,58,121,565
04/25/2017 16:09:09,157,10.8,287.020,375.98,3.70,59,123,565
04/25/2017 16:09:19,154,10.8,289.800,376.28,3.70,60,141,565
04/25/2017 16:09:29,146,10.8,292.430,375.11,3.69,58,122,565
04/25/2017 16:09:39,162,10.8,295.050,375.14,3.69,57,122,565
04/25/2017 16:09:49,155,10.8,297.670,375.01,3.69,59,122,565
04/25/2017 16:09:59,154,10.8,300.250,375.13,3.67,57,121,565
04/25/2017 16:10:09,157,10.8,302.990,374.82,3.67,58,122,565
04/25/2017 16:10:19,142,10.8,305.580,374.64,3.66,59,120,565
04/25/2017 16:10:29,154,10.8,308.320,374.52,3.64,56,120,565
04/25/2017 16:10:39,166,10.8,310.950,375.80,3.63,56,121,565
04/25/2017 16:10:49,156,10.8,313.560,374.97,3.62,57,125,565
04/25/2017 16:10:59,154,10.8,316.180,375.96,3.62,57,122,565
04/25/2017 16:11:09,159,10.8,318.850,375.05,3.62,56,121,565
04/25/2017 16:11:19,153,10.8,321.540,375.61,3.62,58,119,565
04/25/2017 16:11:29,152,10.8,324.190,374.92,3.62,58,120,565
04/25/2017 16:11:39,156,10.8,326.850,374.21,3.62,59,120,565
04/25/2017 16:11:49,140,10.8,329.470,375.79,3.62,58,120,565
04/25/2017 16:11:59,142,10.8,332.130,374.90,3.63,58,121,565
04/25/2017 16:12:09,154,10.8,334.800,375.22,3.63,58,121,565
04/25/2017 16:12:19,163,10.8,337.310,375.45,3.63,59,123,565
04/25/2017 16:12:29,143,10.8,340.010,374.51,3.63,57,122,565
04/25/2017 16:12:39,151,10.8,342.600,375.23,3.63,59,130,565
04/25/2017 16:12:49,149,10.8,345.290,375.24,3.63,59,120,565
04/25/2017 16:12:59,147,10.8,347.940,375.74,3.63,59,124,565
04/25/2017 16:13:09,141,10.8,350.640,375.26,3.63,59,122,565
04/25/2017 16:13:19,140,10.8,353.270,375.72,3.63,59,119,565
04/25/2017 16:13:29,138,10.8,355.970,375.64,3.63,61,120,565
04/25/2017 16:13:39,127,10.8,358.560,374.60,3.63,59,120,565
04/25/2017 16:13:49,148,10.8,361.280,374.82,3.63,58,119,565
04/25/2017 16:13:59,149,10.8,363.990,375.58,3.63,59,122,565
04/25/2017 16:14:09,143,10.8,366.660,375.18,3.62,59,118,565
04/25/2017 16:14:19,148,10.8,369.240,374.67,3.62,59,119,565
04/25/2017 16:14:29,144,10.8,371.850,374.63,3.62,59,120,565
04/25/2017 16:14:39,168,10.8,374.530,374.52,3.62,57,120,565
04/25/2017 16:14:49,146,10.8,377.260,375.26,3.62,59,119,565
04/25/2017 16:14:59,139,10.8,379.790,375.50,3.62,58,121,565
04/25/2017 16:15:09,159,10.8,382.540,375.05,3.62,58,121,565
04/25/2017 16:15:19,143,10.8,385.250,375.51,3.61,58,119,565
04/25/2017 16:15:29,161,10.8,387.910,375.31,3.61,59,120,565
04/25/2017 16:15:39,130,10.8,390.520,374.18,3.61,57,118,565
04/25/2017 16:15:49,151,10.8,393.100,374.70,3.61,57,119,565
04/25/2017 16:15:59,131,10.8,395.790,375.28,3.61,59,119,565
04/25/2017 16:16:09,154,10.8,398.410,375.03,3.61,59,119,564
04/25/2017 16:16:19,144,10.8,401.140,374.54,3.60,59,119,565
04/25/2017 16:16:29,132,10.8,403.730,374.88,3.60,56,119,565
04/25/2017 16:16:39,142,10.8,406.330,374.55,3.60,57,121,565
04/25/2017 16:16:49,142,10.8,408.970,375.04,3.60,58,121,565
04/25/2017 16:16:59,146,10.8,411.630,376.31,3.60,58,120,565
04/25/2017 16:17:09,140,10.8,414.360,375.81,3.59,58,122,565
04/25/2017 16:17:19,156,10.8,417.080,375.72,3.59,58,124,565
04/25/2017 16:17:29,153,10.8,419.700,377.00,3.59,58,120,565
04/25/2017 16:17:39,153,10.8,422.330,376.02,3.59,57,122,565
04/25/2017 16:17:49,154,10.8,424.950,375.88,3.59,58,122,565
04/25/2017 16:17:59,139,10.8,427.650,376.85,3.59,58,119,565
04/25/2017 16:18:09,136,10.8,430.250,376.64,3.59,58,121,565
04/25/2017 16:18:19,136,10.8,432.770,376.31,3.59,57,121,564
04/25/2017 16:18:29,134,10.8,435.480,377.09,3.59,57,119,565
04/25/2017 16:18:39,145,10.8,438.140,376.54,3.59,58,122,565
04/25/2017 16:18:49,143,10.8,440.830,376.42,3.59,57,122,565
04/25/2017 16:18:59,139,10.8,443.510,375.97,3.59,58,121,565
04/25/2017 16:19:09,148,10.8,446.140,375.94,3.59,59,122,565
04/25/2017 16:19:19,147,10.8,448.710,376.14,3.59,58,120,565
04/25/2017 16:19:29,143,10.8,451.460,375.90,3.58,58,120,565
04/25/2017 16:19:39,157,10.8,454.080,376.69,3.59,57,119,564
04/25/2017 16:19:49,138,10.8,456.720,376.27,3.59,57,120,565
04/25/2017 16:19:59,145,10.8,459.340,376.49,3.59,58,120,565
04/25/2017 16:20:09,131,10.8,462.040,376.24,3.59,58,121,565
04/25/2017 16:20:19,151,10.8,464.720,375.79,3.59,59,120,565
04/25/2017 16:20:29,150,10.8,467.250,375.57,3.60,57,120,565
04/25/2017 16:20:39,141,10.8,469.950,376.77,3.60,58,119,564
04/25/2017 16:20:49,147,10.8,472.680,378.08,3.60,57,125,565
04/25/2017 16:20:59,133,10.8,475.370,376.51,3.60,59,119,565
04/25/2017 16:21:09,139,10.8,477.870,375.97,3.60,58,120,565
04/25/2017 16:21:19,150,10.8,480.570,376.23,3.60,59,121,565
04/25/2017 16:21:29,143,10.8,483.190,375.49,3.60,58,121,565
04/25/2017 16:21:39,143,10.8,485.890,376.30,3.60,59,121,565
04/25/2017 16:21:49,140,10.8,488.430,375.96,3.61,59,122,565
04/25/2017 16:21:59,149,10.8,491.200,375.98,3.61,59,122,565
04/25/2017 16:22:09,146,10.8,493.840,376.92,3.61,58,122,565
04/25/2017 16:22:19,150,10.8,496.580,376.61,3.61,59,120,565
04/25/2017 16:22:29,137,10.8,499.170,376.05,3.61,57,121,565
04/25/2017 16:22:39,141,10.8,501.730,375.90,3.61,58,119,565
04/25/2017 16:22:49,128,10.8,504.330,376.69,3.61,60,120,565
04/25/2017 16:22:59,139,10.8,507.040,376.85,3.61,60,123,565
04/25/2017 16:23:09,152,10.8,509.600,375.81,3.61,58,122,565
04/25/2017 16:23:19,156,10.8,512.380,375.53,3.61,60,121,565
04/25/2017 16:23:29,150,10.8,515.000,375.24,3.61,59,121,565
04/25/2017 16:23:39,139,10.8,517.640,376.34,3.61,59,120,565
04/25/2017 16:23:49,149,10.8,520.230,376.08,3.61,58,122,565
04/25/2017 16:23:59,133,10.8,522.860,375.99,3.61,59,121,565
04/25/2017 16:24:09,152,10.8,525.560,375.39,3.60,59,121,565
04/25/2017 16:24:19,153,10.8,528.200,376.00,3.60,59,119,565
04/25/2017 16:24:29,143,10.8,530.840,375.28,3.60,56,121,565
04/25/2017 16:24:39,138,10.8,533.380,375.76,3.60,59,121,565
04/25/2017 16:24:49,155,10.8,536.140,375.56,3.60,59,120,565
04/25/2017 16:24:59,144,10.8,538.690,376.22,3.60,58,118,564
04/25/2017 16:25:09,166,10.8,541.420,375.41,3.60,57,121,565
04/25/2017 16:25:19,149,10.8,544.080,375.90,3.60,58,121,565
04/25/2017 16:25:29,152,10.8,546.610,375.51,3.60,58,121,565
04/25/2017 16:25:39,144,10.8,549.320,375.53,3.60,58,122,565
04/25/2017 16:25:49,152,10.8,551.900,375.09,3.60,58,120,565
04/25/2017 16:25:59,146,10.8,554.600,374.85,3.59,57,121,565
04/25/2017 16:26:09,150,10.8,557.230,375.15,3.59,58,124,565
04/25/2017 16:26:19,153,10.8,559.940,375.43,3.59,58,119,565
04/25/2017 16:26:29,137,10.8,562.550,374.97,3.59,58,120,565
04/25/2017 16:26:39,147,10.8,565.140,374.83,3.59,58,123,565
04/25/2017 16:26:49,130,10.8,567.910,375.04,3.59,58,121,565
04/25/2017 16:26:59,168,10.8,570.380,374.85,3.59,56,120,565
04/25/2017 16:27:09,141,10.8,573.100,375.41,3.59,58,119,565
04/25/2017 16:27:19,146,10.8,575.810,375.28,3.58,56,120,565
04/25/2017 16:27:29,137,10.8,578.310,376.18,3.58,58,120,565
04/25/2017 16:27:39,137,10.8,581.110,374.41,3.58,57,119,565
04/25/2017 16:27:49,154,10.8,583.570,374.09,3.58,59,120,565
04/25/2017 16:27:59,148,10.8,586.350,373.68,3.57,57,120,565
04/25/2017 16:28:09,142,10.8,588.840,373.85,3.57,57,117,565
04/25/2017 16:28:19,146,10.8,591.630,374.96,3.57,56,118,565
04/25/2017 16:28:29,140,10.8,594.260,374.76,3.56,56,119,564
04/25/2017 16:28:39,152,10.8,596.870,374.08,3.56,57,119,565
04/25/2017 16:28:49,141,10.8,599.510,374.02,3.56,57,120,565
04/25/2017 16:28:59,141,10.8,602.070,374.22,3.56,56,120,564
04/25/2017 16:29:09,160,10.8,604.660,374.78,3.56,55,119,565
04/25/2017 16:29:19,151,10.8,607.280,373.79,3.56,57,120,565
04/25/2017 16:29:29,146,10.8,609.940,374.31,3.56,56,118,565
04/25/2017 16:29:39,146,10.8,612.700,373.13,3.55,56,121,564
04/25/2017 16:29:49,147,10.8,615.280,373.15,3.55,56,121,565
04/25/2017 16:29:59,126,10.8,617.890,373.89,3.55,56,119,565
04/25/2017 16:30:09,148,10.8,620.610,373.24,3.55,56,120,565
04/25/2017 16:30:19,140,10.8,623.180,373.91,3.55,57,119,565
04/25/2017 16:30:29,149,10.8,625.730,373.47,3.55,56,120,565
04/25/2017 16:30:39,140,10.8,628.530,373.66,3.55,57,121,565
04/25/2017 16:30:49,161,10.8,631.140,374.96,3.54,56,120,565
04/25/2017 16:30:59,132,10.8,633.820,373.78,3.54,56,118,565
04/25/2017 16:31:09,142,10.8,636.420,373.23,3.54,56,119,565
04/25/2017 16:31:19,163,10.8,639.050,374.15,3.54,55,120,565
04/25/2017 16:31:29,157,10.8,641.590,373.30,3.54,58,121,565
04/25/2017 16:31:39,156,10.8,644.200,373.40,3.54,56,118,565
04/25/2017 16:31:49,150,10.8,646.980,373.62,3.54,55,122,565
04/25/2017 16:31:59,162,10.8,649.450,372.88,3.54,56,118,564
04/25/2017 16:32:09,137,10.8,652.210,373.35,3.54,56,122,565
04/25/2017 16:32:19,142,10.8,654.760,372.59,3.53,57,121,565
04/25/2017 16:32:29,146,10.8,657.440,374.26,3.53,57,120,565
04/25/2017 16:32:39,151,10.8,660.090,372.85,3.53,56,120,565
04/25/2017 16:32:49,145,10.8,662.650,372.55,3.53,56,127,565
04/25/2017 16:32:59,142,10.8,665.390,372.87,3.53,56,119,565
04/25/2017 16:33:09,154,10.8,667.870,372.70,3.53,56,118,565
04/25/2017 16:33:19,158,10.8,670.590,373.47,3.53,54,120,565
04/25/2017 16:33:29,140,10.8,673.140,372.50,3.53,55,119,565
04/25/2017 16:33:39,149,10.8,675.830,372.23,3.53,55,119,565
04/25/2017 16:33:49,146,10.8,678.460,372.42,3.53,55,118,565
04/25/2017 16:33:59,134,10.8,681.030,372.36,3.53,55,121,565
04/25/2017 16:34:09,143,10.8,683.720,372.48,3.53,55,120,565
04/25/2017 16:34:19,158,10.8,686.410,371.38,3.53,55,119,565
04/25/2017 16:34:29,140,10.8,688.910,371.62,3.52,56,120,565
04/25/2017 16:34:39,165,10.8,691.580,372.02,3.52,55,120,565
04/25/2017 16:34:49,159,10.8,694.260,371.41,3.52,55,119,564
04/25/2017 16:34:59,152,10.8,696.890,372.21,3.52,56,118,564
04/25/2017 16:35:09,154,10.8,699.530,371.43,3.52,56,120,565
04/25/2017 16:35:19,152,10.8,702.040,372.30,3.52,56,127,565
04/25/2017 16:35:29,125,10.8,704.680,372.25,3.52,55,119,565
04/25/2017 16:35:39,144,10.8,707.410,372.62,3.52,55,121,565
04/25/2017 16:35:49,175,10.8,710.040,372.96,3.52,54,119,565
04/25/2017 16:35:59,161,10.8,712.640,372.07,3.52,55,120,565
04/25/2017 16:36:09,159,10.8,715.240,372.37,3.52,56,120,565
04/25/2017 16:36:19,165,10.8,717.830,372.09,3.52,55,118,565
04/25/2017 16:36:29,140,10.8,720.470,371.68,3.51,56,121,565
04/25/2017 16:36:39,127,10.8,723.040,371.63,3.51,56,119,565
04/25/2017 16:36:49,148,10.8,725.690,371.94,3.51,56,118,565
04/25/2017 16:36:59,135,10.8,728.260,371.79,3.51,54,118,565
04/25/2017 16:37:09,154,10.8,730.960,371.75,3.51,56,118,565
04/25/2017 16:37:19,140,10.8,733.660,372.10,3.51,55,118,565
04/25/2017 16:37:29,156,10.8,736.180,370.84,3.51,55,117,565
04/25/2017 16:37:39,147,10.8,738.900,371.38,3.51,55,117,565
04/25/2017 16:37:49,145,10.8,741.500,372.08,3.51,55,118,565
04/25/2017 16:37:59,143,10.8,744.070,370.55,3.51,54,118,565
04/25/2017 16:38:09,142,10.8,746.830,369.78,3.51,55,125,565
04/25/2017 16:38:19,153,10.8,749.280,370.74,3.51,55,118,565
04/25/2017 16:38:29,143,10.8,752.030,370.59,3.51,56,119,565
04/25/2017 16:38:39,154,10.8,754.600,371.31,3.51,56,119,565
04/25/2017 16:38:49,156,10.8,757.260,370.62,3.51,55,119,565
04/25/2017 16:38:59,156,10.8,759.880,369.60,3.51,54,118,565
04/25/2017 16:39:09,153,10.8,762.470,369.51,3.50,54,118,565
04/25/2017 16:39:19,139,10.8,765.160,370.10,3.50,55,118,565
04/25/2017 16:39:29,146,10.8,767.640,368.81,3.50,54,118,565
04/25/2017 16:39:39,155,10.8,770.410,368.32,3.50,56,117,565
04/25/2017 16:39:49,158,10.8,772.900,368.50,3.50,53,116,565
04/25/2017 16:39:59,148,10.8,775.630,368.24,3.49,54,117,565
04/25/2017 16:40:09,158,10.8,778.220,368.37,3.49,53,118,565
04/25/2017 16:40:19,155,10.8,780.820,368.69,3.48,53,120,565
04/25/2017 16:40:29,162,10.8,783.490,367.76,3.48,53,125,565
04/25/2017 16:40:39,168,10.8,786.080,368.06,3.48,53,117,565
04/25/2017 16:40:49,150,10.8,788.570,367.28,3.48,53,118,564
04/25/2017 16:40:59,186,10.8,791.180,366.12,3.47,53,119,564
04/25/2017 16:41:09,152,10.8,793.790,366.46,3.47,55,117,565
04/25/2017 16:41:19,157,10.8,796.500,366.75,3.47,54,117,564
04/25/2017 16:41:29,180,10.8,799.070,365.39,3.47,53,117,565
04/25/2017 16:41:39,176,10.8,801.640,366.23,3.47,53,117,565
04/25/2017 16:41:49,154,10.8,804.240,366.24,3.47,54,117,565
04/25/2017 16:41:59,165,10.8,806.850,365.61,3.47,53,117,565
04/25/2017 16:42:09,158,10.8,809.500,366.15,3.47,54,118,565
04/25/2017 16:42:19,161,10.8,812.090,365.30,3.46,53,116,565
04/25/2017 16:42:29,153,10.8,814.740,366.26,3.45,54,118,565
04/25/2017 16:42:39,162,10.8,817.370,364.97,3.45,54,117,565
04/25/2017 16:42:49,144,10.7,819.890,364.73,3.45,53,118,565
04/25/2017 16:42:59,172,10.8,822.430,363.92,3.45,52,116,564
04/25/2017 16:43:09,163,10.8,825.170,363.84,3.44,53,116,565
04/25/2017 16:43:19,172,10.8,827.710,363.92,3.44,52,116,565
04/25/2017 16:43:29,169,10.8,830.240,363.49,3.43,52,123,565
04/25/2017 16:43:39,164,10.8,832.960,363.19,3.43,52,116,565
04/25/2017 16:43:49,162,10.8,835.570,363.17,3.43,53,116,565
04/25/2017 16:43:59,166,10.8,838.190,362.98,3.43,53,116,565
04/25/2017 16:44:09,168,10.8,840.710,363.26,3.43,51,116,565
04/25/2017 16:44:19,166,10.8,843.420,362.38,3.44,52,115,565
04/25/2017 16:44:29,164,10.8,845.920,362.33,3.44,52,116,565
04/25/2017 16:44:39,168,10.8,848.500,362.81,3.44,53,115,565
04/25/2017 16:44:49,163,10.8,851.120,361.62,3.43,53,115,565
04/25/2017 16:44:59,164,10.8,853.670,363.05,3.43,53,115,565
04/25/2017 16:45:09,181,10.8,856.410,362.10,3.42,53,116,565
04/25/2017 16:45:19,162,10.8,858.980,362.24,3.43,53,116,565
04/25/2017 16:45:29,155,10.8,861.480,361.57,3.42,54,114,565
04/25/2017 16:45:39,150,10.8,864.050,361.21,3.43,53,114,565
04/25/2017 16:45:49,164,10.8,866.700,361.71,3.43,52,115,565
04/25/2017 16:45:59,158,10.8,869.230,361.49,3.43,52,116,565
04/25/2017 16:46:09,156,10.8,871.850,360.95,3.43,51,115,565
04/25/2017 16:46:19,178,10.7,874.440,360.85,3.43,52,114,565
04/25/2017 16:46:29,183,10.8,877.040,361.12,3.43,52,116,565
04/25/2017 16:46:39,151,10.8,879.620,361.27,3.43,51,115,565
04/25/2017 16:46:49,162,10.8,882.150,360.68,3.42,52,114,565
04/25/2017 16:46:59,169,10.8,884.830,361.90,3.42,51,115,565
04/25/2017 16:47:09,157,10.8,887.420,361.05,3.43,54,114,565
04/25/2017 16:47:19,166,10.8,889.930,360.87,3.43,54,115,565
04/25/2017 16:47:29,171,10.8,892.480,360.85,3.43,53,113,565
04/25/2017 16:47:39,157,10.8,895.160,359.97,3.43,53,114,565
04/25/2017 16:47:49,177,10.7,897.710,360.21,3.42,52,115,565
04/25/2017 16:47:59,185,10.8,900.270,360.62,3.42,51,114,565
04/25/2017 16:48:09,157,10.8,902.840,359.88,3.42,53,114,565
04/25/2017 16:48:19,176,10.8,905.440,360.67,3.42,51,114,565
04/25/2017 16:48:29,169,10.8,908.100,361.52,3.42,54,114,565
04/25/2017 16:48:39,190,10.7,910.680,360.64,3.42,51,114,565
04/25/2017 16:48:49,153,10.8,913.170,360.99,3.42,52,114,565
04/25/2017 16:48:59,181,10.8,915.720,360.27,3.42,52,115,565
04/25/2017 16:49:09,181,10.8,918.250,360.53,3.42,52,116,565
04/25/2017 16:49:19,184,10.8,920.860,360.00,3.43,52,114,565
04/25/2017 16:49:29,174,10.8,923.510,360.13,3.43,51,114,565
04/25/2017 16:49:39,160,10.8,926.110,359.00,3.42,52,115,565
04/25/2017 16:49:49,172,10.8,928.600,359.54,3.42,51,116,565
04/25/2017 16:49:59,185,10.8,931.160,359.79,3.42,51,115,565
04/25/2017 16:50:09,165,10.7,933.780,359.99,3.42,53,113,565
04/25/2017 16:50:19,177,10.8,936.390,358.55,3.42,52,113,565
04/25/2017 16:50:29,180,10.7,939.000,359.95,3.42,52,114,565
04/25/2017 16:50:39,178,10.8,941.560,360.01,3.42,52,116,565
04/25/2017 16:50:49,161,10.8,944.190,359.21,3.42,50,114,565
04/25/2017 16:50:59,176,10.8,946.780,359.38,3.42,51,115,565
04/25/2017 16:51:09,191,10.8,949.340,359.06,3.42,53,114,565
04/25/2017 16:51:19,190,10.7,951.910,359.37,3.41,52,113,565
04/25/2017 16:51:29,167,10.8,954.420,359.98,3.41,53,115,565
04/25/2017 16:51:39,165,10.7,956.990,359.28,3.41,51,115,565
04/25/2017 16:51:49,193,10.7,959.550,358.87,3.41,52,115,565
04/25/2017 16:51:59,175,10.8,962.120,359.05,3.41,52,114,565
04/25/2017 16:52:09,174,10.7,964.810,359.68,3.41,53,113,565
04/25/2017 16:52:19,177,10.8,967.340,359.18,3.41,52,114,565
04/25/2017 16:52:29,168,10.8,969.990,358.98,3.41,51,115,565
04/25/2017 16:52:39,183,10.8,972.470,359.22,3.41,53,115,565
04/25/2017 16:52:49,173,10.8,975.060,359.06,3.40,53,116,565
04/25/2017 16:52:59,167,10.8,977.620,359.09,3.40,52,114,565
04/25/2017 16:53:09,172,10.8,980.320,359.44,3.40,53,115,565
04/25/2017 16:53:19,172,10.8,982.870,359.73,3.39,51,114,565
04/25/2017 16:53:29,175,10.8,985.400,359.92,3.39,52,115,565
04/25/2017 16:53:39,167,10.8,988.040,359.01,3.39,53,115,565
04/25/2017 16:53:49,163,10.8,990.530,358.70,3.39,52,112,565
04/25/2017 16:53:59,162,10.8,993.210,359.27,3.39,53,114,565
04/25/2017 16:54:09,176,10.8,995.740,359.22,3.39,53,114,565
04/25/2017 16:54:19,168,10.8,998.320,359.55,3.39,52,114,565
04/25/2017 16:54:29,189,10.8,1000.970,359.13,3.39,53,114,565
04/25/2017 16:54:39,175,10.7,1003.400,359.65,3.39,54,115,565
04/25/2017 16:54:49,162,10.8,1006.040,358.67,3.39,53,113,565
04/25/2017 16:54:59,188,10.8,1008.510,359.14,3.39,53,117,565
04/25/2017 16:55:09,169,10.8,1011.170,359.28,3.38,52,115,565
04/25/2017 16:55:19,184,10.8,1013.860,359.31,3.37,52,115,565
04/25/2017 16:55:29,173,10.7,1016.310,359.58,3.37,52,115,565
04/25/2017 16:55:39,157,10.8,1018.840,359.52,3.37,52,114,565
04/25/2017 16:55:49,171,10.7,1021.490,358.78,3.37,53,113,565
04/25/2017 16:55:59,147,10.7,1024.010,359.83,3.37,53,114,565
04/25/2017 16:56:09,193,10.8,1026.570,359.61,3.37,52,113,565
04/25/2017 16:56:19,153,10.7,1029.200,359.42,3.37,52,114,565
04/25/2017 16:56:29,173,10.7,1031.790,360.43,3.37,53,115,565
04/25/2017 16:56:39,189,10.7,1034.320,359.16,3.37,53,114,565
04/25/2017 16:56:49,178,10.8,1036.860,358.42,3.37,52,116,565
04/25/2017 16:56:59,173,10.7,1039.480,358.38,3.37,52,113,565
04/25/2017 16:57:09,174,10.8,1042.120,358.95,3.37,52,114,565
04/25/2017 16:57:19,189,10.7,1044.560,358.33,3.36,54,113,565
04/25/2017 16:57:29,174,10.8,1047.230,358.68,3.36,52,113,565
04/25/2017 16:57:39,172,10.7,1049.730,360.40,3.36,52,113,565
04/25/2017 16:57:49,177,10.7,1052.300,359.35,3.36,52,113,565
04/25/2017 16:57:59,166,10.7,1054.950,359.32,3.36,52,113,565
04/25/2017 16:58:09,157,10.8,1057.400,359.72,3.36,53,114,565
04/25/2017 16:58:19,203,10.7,1059.940,357.91,3.36,52,116,565
04/25/2017 16:58:29,176,10.7,1062.640,358.90,3.36,52,113,565
04/25/2017 16:58:39,177,10.7,1065.140,359.20,3.36,53,115,565
04/25/2017 16:58:49,168,10.8,1067.710,359.76,3.36,53,114,565
04/25/2017 16:58:59,153,10.8,1070.250,359.14,3.36,53,114,565
04/25/2017 16:59:09,191,10.7,1072.780,359.42,3.36,53,113,565
04/25/2017 16:59:19,198,10.7,1075.210,358.91,3.36,52,114,565
04/25/2017 16:59:29,177,10.7,1077.910,358.79,3.36,53,114,565
04/25/2017 16:59:39,169,10.7,1080.410,357.79,3.36,52,114,565
04/25/2017 16:59:49,184,10.7,1083.020,358.35,3.36,53,115,565
04/25/2017 16:59:59,199,10.7,1085.580,358.28,3.36,52,112,565
04/25/2017 17:00:09,174,10.7,1088.140,358.23,3.36,51,113,565
04/25/2017 17:00:19,185,10.7,1090.520,357.94,3.36,54,113,565
04/25/2017 17:00:29,195,10.7,1093.150,358.02,3.36,52,113,565
04/25/2017 17:00:39,175,10.7,1095.760,358.15,3.36,51,114,565
04/25/2017 17:00:49,186,10.7,1098.270,358.19,3.36,53,112,565
04/25/2017 17:00:59,186,10.8,1100.740,358.94,3.36,53,113,565
04/25/2017 17:01:09,193,10.7,1103.410,358.01,3.36,52,114,565
04/25/2017 17:01:19,204,10.7,1105.940,358.26,3.36,53,113,565
04/25/2017 17:01:29,170,10.7,1108.330,357.81,3.36,53,112,565
04/25/2017 17:01:39,167,10.7,1111.040,358.12,3.36,52,114,565
04/25/2017 17:01:49,158,10.7,1113.420,358.08,3.36,52,114,565
04/25/2017 17:01:59,187,10.7,1116.070,358.10,3.36,52,114,565
04/25/2017 17:02:09,188,10.7,1118.590,357.85,3.35,52,114,565
04/25/2017 17:02:19,156,10.7,1121.080,357.59,3.35,52,114,565
04/25/2017 17:02:29,191,10.7,1123.690,358.25,3.35,53,114,565
04/25/2017 17:02:39,211,10.7,1126.160,357.68,3.35,51,114,565
04/25/2017 17:02:49,196,10.7,1128.660,357.92,3.35,52,114,565
04/25/2017 17:02:59,185,10.7,1131.280,358.01,3.35,54,114,565
04/25/2017 17:03:09,195,10.7,1133.860,357.52,3.35,52,114,565
04/25/2017 17:03:19,176,10.7,1136.320,358.02,3.35,53,114,565
04/25/2017 17:03:29,183,10.7,1138.860,357.35,3.35,52,114,565
04/25/2017 17:03:39,180,10.7,1141.370,357.86,3.35,53,112,565
04/25/2017 17:03:49,182,10.7,1143.910,358.12,3.35,52,116,565
04/25/2017 17:03:59,189,10.7,1146.500,357.44,3.35,52,112,565
04/25/2017 17:04:09,184,10.7,1149.030,357.79,3.35,51,114,565
04/25/2017 17:04:19,172,10.7,1151.510,357.38,3.35,52,114,565
04/25/2017 17:04:29,189,10.7,1153.980,356.73,3.35,51,113,565
04/25/2017 17:04:39,201,10.7,1156.620,357.77,3.35,52,114,565
04/25/2017 17:04:49,191,10.7,1159.160,357.05,3.35,52,113,565
04/25/2017 17:04:59,182,10.7,1161.660,357.12,3.35,51,117,565
04/25/2017 17:05:09,185,10.7,1164.160,356.92,3.35,50,112,565
04/25/2017 17:05:19,188,10.7,1166.800,357.35,3.35,51,113,565
04/25/2017 17:05:29,176,10.7,1169.240,357.54,3.34,52,112,565
04/25/2017 17:05:39,169,10.7,1171.850,356.47,3.34,52,114,565
04/25/2017 17:05:49,171,10.7,1174.380,357.16,3.34,51,114,565
04/25/2017 17:05:59,189,10.7,1176.930,357.42,3.34,53,113,565
04/25/2017 17:06:09,221,10.7,1179.390,357.76,3.34,52,114,565
04/25/2017 17:06:19,187,10.7,1182.050,357.67,3.34,52,112,565
04/25/2017 17:06:29,197,10.7,1184.470,358.38,3.34,53,115,565
04/25/2017 17:06:39,172,10.7,1187.080,357.06,3.34,52,113,565
04/25/2017 17:06:49,169,10.7,1189.630,357.95,3.34,53,112,565
04/25/2017 17:06:59,191,10.7,1192.230,357.56,3.35,52,112,565
04/25/2017 17:07:09,194,10.7,1194.790,357.28,3.35,53,113,565
04/25/2017 17:07:19,206,10.7,1197.190,356.56,3.35,51,112,565
04/25/2017 17:07:29,173,10.8,1199.850,357.27,3.35,52,112,565
04/25/2017 17:07:39,161,10.7,1202.260,356.94,3.35,51,113,565
04/25/2017 17:07:49,185,10.7,1204.810,356.87,3.35,52,114,565
04/25/2017 17:07:59,208,10.7,1207.430,356.90,3.35,52,113,565
04/25/2017 17:08:09,198,10.7,1209.760,356.65,3.35,52,115,565
04/25/2017 17:08:19,188,10.7,1212.250,356.46,3.35,52,113,565
04/25/2017 17:08:29,188,10.7,1214.910,356.54,3.35,51,112,565
04/25/2017 17:08:39,168,10.7,1217.480,356.11,3.35,53,114,565
04/25/2017 17:08:49,188,10.8,1219.970,356.72,3.35,51,112,565
04/25/2017 17:08:59,183,10.7,1222.430,356.66,3.35,53,112,565
04/25/2017 17:09:09,204,10.7,1224.880,356.35,3.35,52,113,565
04/25/2017 17:09:19,177,10.7,1227.410,355.85,3.35,52,113,565
04/25/2017 17:09:29,158,10.7,1229.920,356.00,3.35,53,112,565
04/25/2017 17:09:39,196,10.7,1232.530,355.84,3.35,54,113,565
04/25/2017 17:09:49,199,10.7,1235.030,355.94,3.35,52,113,565
04/25/2017 17:09:59,174,10.7,1237.530,355.98,3.35,52,113,565
04/25/2017 17:10:09,198,10.7,1240.120,355.67,3.35,51,114,565
04/25/2017 17:10:19,194,10.7,1242.590,355.42,3.36,52,113,565
04/25/2017 17:10:29,190,10.7,1245.060,355.40,3.36,53,114,565
04/25/2017 17:10:39,190,10.8,1247.620,355.34,3.36,52,113,565
04/25/2017 17:10:49,182,10.7,1250.050,354.63,3.36,51,112,565
04/25/2017 17:10:59,179,10.7,1252.710,355.21,3.37,52,114,565
04/25/2017 17:11:09,222,10.7,1255.050,354.00,3.37,52,113,565
04/25/2017 17:11:19,184,10.7,1257.690,354.77,3.37,53,112,565
04/25/2017 17:11:29,173,10.7,1260.200,354.65,3.37,52,114,565
04/25/2017 17:11:39,184,10.7,1262.730,354.55,3.37,53,115,565
04/25/2017 17:11:49,173,10.7,1265.230,354.31,3.37,52,112,565
04/25/2017 17:11:59,176,10.7,1267.780,353.79,3.37,51,113,565
04/25/2017 17:12:09,194,10.8,1270.320,353.14,3.37,52,113,565
04/25/2017 17:12:19,202,10.7,1272.800,353.43,3.38,52,113,565
04/25/2017 17:12:29,207,10.7,1275.350,352.66,3.38,53,113,565
04/25/2017 17:12:39,204,10.7,1277.750,353.06,3.38,52,113,565
04/25/2017 17:12:49,187,10.7,1280.270,352.03,3.39,53,114,565
04/25/2017 17:12:59,192,10.7,1282.780,351.75,3.39,52,115,565
04/25/2017 17:13:09,208,10.7,1285.330,351.94,3.40,53,113,565
04/25/2017 17:13:19,170,10.7,1287.780,351.85,3.40,52,113,565
04/25/2017 17:13:29,179,10.7,1290.400,350.30,3.40,52,112,565
04/25/2017 17:13:39,178,10.7,1292.920,351.16,3.40,53,114,565
04/25/2017 17:13:49,204,10.7,1295.250,350.08,3.41,52,112,565
04/25/2017 17:13:59,179,10.7,1297.830,349.40,3.42,53,113,565
04/25/2017 17:14:09,188,10.7,1300.370,349.25,3.43,52,113,565
04/25/2017 17:14:19,190,10.7,1302.950,348.02,3.43,52,114,565
04/25/2017 17:14:29,197,10.7,1305.440,346.96,3.44,51,113,565
04/25/2017 17:14:39,180,10.7,1307.910,347.44,3.44,52,113,565
04/25/2017 17:14:49,174,10.7,1310.350,348.46,3.44,53,115,565
04/25/2017 17:14:59,188,10.7,1312.830,348.33,3.44,54,113,565
04/25/2017 17:15:09,189,10.8,1315.460,347.34,3.44,53,112,565
04/25/2017 17:15:19,177,10.7,1317.940,346.69,3.45,53,113,565
04/25/2017 17:15:29,189,10.7,1320.480,346.34,3.45,52,114,565
04/25/2017 17:15:39,221,10.7,1322.970,346.35,3.45,53,112,565
04/25/2017 17:15:49,176,10.7,1325.470,346.19,3.46,53,113,565
04/25/2017 17:15:59,186,10.7,1328.120,345.95,3.46,53,112,565
04/25/2017 17:16:09,191,10.7,1330.480,344.88,3.46,52,113,565
04/25/2017 17:16:19,199,10.7,1333.050,345.37,3.46,52,114,565
04/25/2017 17:16:29,198,10.7,1335.430,345.56,3.46,53,114,565
04/25/2017 17:16:39,207,10.7,1337.970,344.45,3.47,53,112,565
04/25/2017 17:16:49,209,10.7,1340.450,345.01,3.47,53,112,565
04/25/2017 17:16:59,212,10.7,1343.020,344.44,3.47,52,114,565
04/25/2017 17:17:09,191,10.7,1345.430,343.53,3.48,52,112,565
04/25/2017 17:17:19,197,10.7,1348.000,342.53,3.49,52,134,565
04/25/2017 17:17:29,188,10.7,1350.400,342.49,3.50,53,114,565
04/25/2017 17:17:39,179,10.7,1352.900,342.19,3.50,52,113,565
04/25/2017 17:17:49,180,10.7,1355.450,341.63,3.51,51,112,565
04/25/2017 17:17:59,193,10.7,1357.870,341.83,3.51,54,113,565
04/25/2017 17:18:09,207,10.7,1360.310,340.91,3.51,54,114,565
04/25/2017 17:18:19,185,10.7,1362.870,341.52,3.51,53,114,565
04/25/2017 17:18:29,185,10.7,1365.460,340.20,3.52,52,112,565
04/25/2017 17:18:39,206,10.7,1367.710,340.32,3.52,52,113,565
04/25/2017 17:18:49,200,10.7,1370.190,339.60,3.52,53,113,565
04/25/2017 17:18:59,177,10.7,1372.750,339.60,3.52,53,113,565
04/25/2017 17:19:09,207,10.7,1375.490,339.28,3.54,55,113,565
04/25/2017 17:19:19,184,10.7,1377.890,338.13,3.54,53,112,565
04/25/2017 17:19:29,179,10.7,1380.260,337.11,3.55,52,113,565
04/25/2017 17:19:39,205,10.7,1382.730,337.00,3.56,52,112,565
04/25/2017 17:19:49,190,10.7,1385.470,335.86,3.56,53,114,565
04/25/2017 17:19:59,190,10.7,1387.900,335.68,3.57,52,114,565
04/25/2017 17:20:09,220,10.7,1390.270,335.19,3.57,53,113,565
04/25/2017 17:20:19,211,10.7,1392.790,334.72,3.57,54,112,565
04/25/2017 17:20:29,219,10.7,1395.400,334.67,3.57,52,113,565
04/25/2017 17:20:39,202,10.7,1397.990,334.31,3.57,53,116,565
04/25/2017 17:20:49,202,10.7,1400.430,334.07,3.57,53,114,565
04/25/2017 17:20:59,205,10.7,1402.840,334.02,3.57,52,115,565
04/25/2017 17:21:09,190,10.7,1405.380,333.32,3.57,52,112,565
04/25/2017 17:21:19,185,10.7,1407.640,332.55,3.57,53,113,565
04/25/2017 17:21:29,211,10.7,1409.960,332.93,3.57,52,115,565
04/25/2017 17:21:39,218,10.7,1412.690,332.35,3.58,52,114,565
04/25/2017 17:21:49,225,10.7,1415.180,332.21,3.58,53,114,565
04/25/2017 17:21:59,204,10.7,1417.600,331.89,3.58,52,112,565
04/25/2017 17:22:09,184,10.7,1420.140,331.35,3.58,53,113,565
04/25/2017 17:22:19,223,10.7,1422.690,330.83,3.58,53,114,565
04/25/2017 17:22:29,193,10.7,1425.070,330.92,3.58,53,113,565
04/25/2017 17:22:39,199,10.7,1427.540,330.87,3.58,53,115,565
04/25/2017 17:22:49,217,10.7,1430.140,331.20,3.58,52,114,565
04/25/2017 17:22:59,209,10.7,1432.410,330.40,3.58,53,114,565
04/25/2017 17:23:09,190,10.7,1435.000,331.41,3.58,51,113,565
04/25/2017 17:23:19,204,10.7,1437.460,330.89,3.58,52,115,565
04/25/2017 17:23:29,215,10.7,1440.020,331.10,3.58,54,124,565
04/25/2017 17:23:39,188,10.7,1442.490,329.90,3.58,53,114,565
04/25/2017 17:23:49,205,10.7,1444.890,329.38,3.59,53,113,565
04/25/2017 17:23:59,212,10.7,1447.540,329.96,3.59,53,112,565
04/25/2017 17:24:09,197,10.7,1449.900,329.23,3.59,52,116,565
04/25/2017 17:24:19,198,10.7,1452.420,328.84,3.59,53,115,565
04/25/2017 17:24:29,226,10.7,1454.790,329.01,3.59,54,113,565
04/25/2017 17:24:39,207,10.7,1457.180,327.82,3.58,54,116,565
04/25/2017 17:24:49,157,10.7,1459.580,328.36,3.58,53,113,565
04/25/2017 17:24:59,211,10.7,1461.790,328.37,3.58,53,114,565
04/25/2017 17:25:09,193,10.7,1464.470,327.87,3.58,51,113,565
04/25/2017 17:25:19,232,10.7,1466.960,328.04,3.58,54,114,565
04/25/2017 17:25:29,193,10.7,1469.400,328.13,3.58,53,113,565
04/25/2017 17:25:39,189,10.7,1471.890,328.46,3.58,53,114,565
04/25/2017 17:25:49,194,10.7,1474.460,328.27,3.58,52,113,565
04/25/2017 17:25:59,201,10.7,1476.970,328.56,3.57,53,114,565
04/25/2017 17:26:09,212,10.7,1479.270,327.83,3.57,53,114,565
04/25/2017 17:26:19,195,10.7,1481.830,328.24,3.57,52,117,565
04/25/2017 17:26:29,232,10.7,1484.140,328.41,3.57,53,114,565
04/25/2017 17:26:39,190,10.7,1486.360,327.73,3.57,53,113,565
04/25/2017 17:26:49,178,10.7,1489.120,327.90,3.57,51,113,565
04/25/2017 17:26:59,205,10.7,1491.650,327.36,3.57,52,114,565
04/25/2017 17:27:09,193,10.7,1493.700,327.88,3.57,53,115,564
04/25/2017 17:27:19,233,10.7,1496.410,327.68,3.57,53,115,565
04/25/2017 17:27:29,211,10.7,1498.860,327.97,3.57,53,114,565
04/25/2017 17:27:39,194,10.7,1501.270,327.00,3.56,52,113,565
04/25/2017 17:27:49,191,10.7,1503.630,327.22,3.56,53,114,565
04/25/2017 17:27:59,228,10.7,1506.200,327.07,3.56,54,114,565
04/25/2017 17:28:09,219,10.7,1508.640,326.83,3.56,52,116,565
04/25/2017 17:28:19,202,10.7,1511.160,327.26,3.55,53,114,565
04/25/2017 17:28:29,222,10.7,1513.560,326.98,3.55,54,113,565
04/25/2017 17:28:39,207,10.7,1515.960,327.27,3.55,54,113,565
04/25/2017 17:28:49,224,10.7,1518.430,327.26,3.55,53,113,565
04/25/2017 17:28:59,210,10.7,1520.910,326.99,3.55,53,117,565
04/25/2017 17:29:09,226,10.7,1523.400,326.71,3.55,52,115,565
04/25/2017 17:29:19,193,10.7,1525.900,326.35,3.54,54,115,565
04/25/2017 17:29:29,197,10.6,1528.400,326.48,3.54,53,116,565
04/25/2017 17:29:39,226,10.6,1530.890,326.66,3.54,54,114,565
04/25/2017 17:29:49,222,10.7,1533.330,326.55,3.54,52,114,565
04/25/2017 17:29:59,225,10.7,1535.580,326.69,3.54,52,114,565
04/25/2017 17:30:09,221,10.7,1538.130,326.75,3.54,53,114,565
04/25/2017 17:30:19,217,10.7,1540.620,326.73,3.53,53,114,565
04/25/2017 17:30:29,213,10.7,1542.780,326.29,3.53,54,113,565
04/25/2017 17:30:39,208,10.6,1545.640,326.29,3.52,53,113,565
04/25/2017 17:30:49,208,10.7,1547.910,326.02,3.52,54,115,565
04/25/2017 17:30:59,198,10.7,1550.390,326.73,3.52,52,114,565
04/25/2017 17:31:09,199,10.7,1552.970,327.00,3.51,53,115,565
04/25/2017 17:31:19,215,10.7,1555.340,325.88,3.51,52,115,565
04/25/2017 17:31:29,241,10.6,1557.480,326.40,3.51,55,113,565
04/25/2017 17:31:39,219,10.7,1560.170,326.81,3.51,52,114,565
04/25/2017 17:31:49,235,10.7,1562.620,326.26,3.51,54,113,565
04/25/2017 17:31:59,208,10.7,1565.040,326.47,3.50,53,112,565
04/25/2017 17:32:09,226,10.7,1567.600,325.41,3.50,53,112,565
04/25/2017 17:32:19,188,10.7,1570.080,326.92,3.50,52,115,565
04/25/2017 17:32:29,210,10.6,1572.500,325.16,3.50,52,112,565
04/25/2017 17:32:39,202,10.7,1574.860,326.12,3.50,52,115,565
04/25/2017 17:32:49,196,10.7,1577.470,325.80,3.50,53,112,565
04/25/2017 17:32:59,203,10.7,1579.800,325.67,3.50,54,113,565
04/25/2017 17:33:09,213,10.7,1582.170,326.02,3.49,53,115,564
04/25/2017 17:33:19,206,10.7,1584.670,325.29,3.49,54,113,565
04/25/2017 17:33:29,198,10.7,1587.100,325.44,3.49,51,113,565
04/25/2017 17:33:39,210,10.6,1589.590,326.24,3.49,54,113,565
04/25/2017 17:33:49,230,10.7,1592.020,324.98,3.49,55,116,565
04/25/2017 17:33:59,190,10.7,1594.410,326.51,3.49,54,114,565
04/25/2017 17:34:09,199,10.6,1596.860,325.88,3.49,54,113,565
04/25/2017 17:34:19,242,10.6,1599.240,325.52,3.49,53,119,565
04/25/2017 17:34:29,231,10.6,1601.690,325.14,3.49,54,112,565
04/25/2017 17:34:39,209,10.7,1604.110,325.69,3.49,53,112,565
04/25/2017 17:34:49,205,10.6,1606.550,325.79,3.49,53,113,565
04/25/2017 17:34:59,222,10.6,1609.070,325.40,3.49,53,112,565
04/25/2017 17:35:09,193,10.7,1611.430,325.68,3.49,51,113,565
04/25/2017 17:35:19,195,10.7,1613.880,325.16,3.49,54,113,565
04/25/2017 17:35:29,229,10.6,1616.250,325.68,3.49,53,112,565
04/25/2017 17:35:39,221,10.7,1618.690,325.22,3.49,52,116,565
04/25/2017 17:35:49,208,10.7,1621.080,325.91,3.49,55,114,565
04/25/2017 17:35:59,236,10.6,1623.420,324.86,3.48,53,114,565
04/25/2017 17:36:09,199,10.6,1625.760,325.55,3.48,54,116,565
04/25/2017 17:36:19,209,10.7,1628.270,325.40,3.48,53,114,565
04/25/2017 17:36:29,199,10.7,1630.690,325.73,3.48,53,114,565
04/25/2017 17:36:39,181,10.7,1632.950,325.02,3.48,55,115,565
04/25/2017 17:36:49,231,10.7,1635.310,325.47,3.48,53,114,565
04/25/2017 17:36:59,212,10.6,1637.840,325.81,3.47,52,114,565
04/25/2017 17:37:09,215,10.6,1640.130,325.29,3.47,52,113,565
04/25/2017 17:37:19,223,10.7,1642.660,325.34,3.47,53,114,565
04/25/2017 17:37:29,222,10.7,1644.910,325.44,3.46,53,114,565
04/25/2017 17:37:39,210,10.6,1647.400,324.70,3.46,54,114,565
04/25/2017 17:37:49,201,10.7,1649.740,325.30,3.46,53,116,565
04/25/2017 17:37:59,255,10.6,1652.150,325.75,3.46,54,113,565
04/25/2017 17:38:09,228,10.6,1654.550,324.91,3.45,52,113,565
04/25/2017 17:38:19,192,10.6,1656.840,325.42,3.45,52,114,565
04/25/2017 17:38:29,228,10.6,1659.090,325.02,3.45,52,114,565
04/25/2017 17:38:39,206,10.6,1661.450,325.52,3.44,52,113,565
04/25/2017 17:38:49,218,10.6,1663.830,325.26,3.44,52,112,565
04/25/2017 17:38:59,203,10.7,1666.280,325.28,3.44,54,115,565
04/25/2017 17:39:09,214,10.6,1668.620,324.69,3.44,52,113,565
04/25/2017 17:39:19,185,10.7,1671.030,325.31,3.44,54,115,565
04/25/2017 17:39:29,214,10.6,1673.290,325.45,3.44,53,113,565
04/25/2017 17:39:39,215,10.6,1675.660,325.91,3.44,54,114,565
04/25/2017 17:39:49,218,10.6,1678.040,324.82,3.44,52,113,565
04/25/2017 17:39:59,220,10.6,1680.550,324.71,3.43,53,116,565
04/25/2017 17:40:09,211,10.7,1682.990,325.39,3.42,52,115,565
04/25/2017 17:40:19,213,10.6,1685.310,325.59,3.42,53,115,565
04/25/2017 17:40:29,189,10.6,1687.580,325.38,3.42,53,113,565
04/25/2017 17:40:39,254,10.6,1689.840,325.32,3.41,53,112,565
04/25/2017 17:40:49,221,10.6,1692.250,325.11,3.41,53,113,565
04/25/2017 17:40:59,235,10.6,1694.380,324.64,3.41,54,116,565
04/25/2017 17:41:09,206,10.6,1696.840,325.42,3.41,54,112,565
04/25/2017 17:41:19,210,10.6,1699.030,325.29,3.41,53,113,565
04/25/2017 17:41:29,122,10.6,1701.060,326.03,3.41,53,114,565
04/25/2017 17:41:39,164,10.6,1703.110,325.41,3.41,53,114,565
04/25/2017 17:41:49,242,10.7,1705.190,325.56,3.41,53,114,565
04/25/2017 17:41:59,191,10.6,1707.360,325.29,3.41,54,114,565
04/25/2017 17:42:09,176,10.7,1709.400,326.43,3.41,53,115,565
04/25/2017 17:42:19,226,10.6,1711.460,325.13,3.41,53,114,565
04/25/2017 17:42:29,197,10.6,1713.770,325.58,3.41,53,112,565
04/25/2017 17:42:39,222,10.6,1715.810,325.78,3.40,52,115,565
04/25/2017 17:42:49,222,10.7,1717.910,325.93,3.39,52,114,565
04/25/2017 17:42:59,145,10.7,1719.920,325.43,3.39,52,114,565
04/25/2017 17:43:09,239,10.6,1721.830,325.48,3.39,52,114,565
04/25/2017 17:43:19,215,10.7,1723.930,326.20,3.39,52,114,565
04/25/2017 17:43:29,177,10.6,1725.670,326.05,3.38,53,113,565
04/25/2017 17:43:39,216,10.6,1727.860,325.12,3.38,53,113,565
04/25/2017 17:43:49,201,10.7,1730.160,325.47,3.37,52,112,565
04/25/2017 17:43:59,227,10.7,1732.280,323.94,3.37,53,112,565
04/25/2017 17:44:09,196,10.6,1734.470,325.07,3.37,53,115,565
04/25/2017 17:44:19,204,10.6,1736.530,324.71,3.37,53,113,565
04/25/2017 17:44:29,270,10.7,1738.540,324.93,3.36,54,112,565
04/25/2017 17:44:39,221,10.6,1740.500,324.79,3.36,53,112,565
04/25/2017 17:44:49,264,10.6,1742.540,324.99,3.36,53,112,565
04/25/2017 17:44:59,214,10.6,1744.730,324.82,3.35,52,111,565
04/25/2017 17:45:09,264,10.6,1746.930,324.89,3.35,54,113,565
04/25/2017 17:45:19,181,10.6,1749.210,325.44,3.34,53,111,565
04/25/2017 17:45:29,240,10.6,1751.250,324.53,3.34,53,113,565
04/25/2017 17:45:39,211,10.6,1753.100,324.32,3.34,53,113,565
04/25/2017 17:45:49,201,10.6,1755.270,324.95,3.34,55,113,565
04/25/2017 17:45:59,228,10.6,1757.340,324.43,3.34,54,112,565
04/25/2017 17:46:09,248,10.6,1759.730,324.09,3.33,53,112,565
04/25/2017 17:46:19,173,10.6,1761.810,324.33,3.33,54,111,565
04/25/2017 17:46:29,219,10.6,1764.050,324.64,3.32,51,111,565
04/25/2017 17:46:39,211,10.6,1766.260,323.70,3.32,51,112,565
04/25/2017 17:46:49,218,10.6,1768.390,325.23,3.32,54,112,565
04/25/2017 17:46:59,271,10.6,1770.440,324.35,3.32,52,111,565
04/25/2017 17:47:09,170,10.6,1772.580,324.73,3.32,52,112,565
04/25/2017 17:47:19,264,10.6,1774.890,324.19,3.32,52,111,565
04/25/2017 17:47:29,236,10.6,1777.000,323.75,3.32,52,113,565
04/25/2017 17:47:39,208,10.6,1779.100,324.45,3.31,53,112,565
04/25/2017 17:47:49,202,10.6,1781.620,324.12,3.31,54,113,565
04/25/2017 17:47:59,248,10.6,1783.800,324.42,3.31,54,110,565
04/25/2017 17:48:09,244,10.6,1786.220,324.20,3.31,53,113,565
04/25/2017 17:48:19,223,10.6,1788.410,324.71,3.31,52,111,565
04/25/2017 17:48:29,215,10.6,1790.300,324.62,3.31,54,112,565
04/25/2017 17:48:39,226,10.6,1792.510,325.12,3.31,52,113,565
04/25/2017 17:48:49,149,10.6,1794.630,324.26,3.30,52,112,565
04/25/2017 17:48:59,218,10.6,1796.580,324.32,3.30,53,111,565
04/25/2017 17:49:09,261,10.6,1798.680,323.93,3.30,52,113,565
04/25/2017 17:49:19,217,10.6,1801.020,324.15,3.30,53,114,565
04/25/2017 17:49:29,233,10.6,1802.990,323.84,3.30,54,111,565
04/25/2017 17:49:39,226,10.6,1805.350,324.30,3.29,53,110,565
04/25/2017 17:49:49,214,10.6,1807.440,323.90,3.29,52,114,565
04/25/2017 17:49:59,215,10.6,1809.590,324.49,3.29,52,110,565
04/25/2017 17:50:09,204,10.6,1811.700,323.63,3.29,53,113,565
04/25/2017 17:50:19,145,10.7,1813.780,324.74,3.29,53,114,565
04/25/2017 17:50:29,216,10.6,1815.920,324.71,3.29,53,111,565
04/25/2017 17:50:39,216,10.6,1818.130,324.51,3.28,53,112,565
04/25/2017 17:50:49,242,10.7,1820.260,324.14,3.28,52,111,565
04/25/2017 17:50:59,260,10.6,1822.490,324.64,3.28,52,112,565
04/25/2017 17:51:09,207,10.7,1824.490,324.22,3.27,51,113,565
04/25/2017 17:51:19,214,10.6,1826.620,324.87,3.27,53,112,565
04/25/2017 17:51:29,219,10.7,1828.790,324.60,3.27,54,111,565
04/25/2017 17:51:39,225,10.6,1830.900,324.26,3.27,53,111,565
04/25/2017 17:51:49,243,10.6,1833.150,324.35,3.27,55,110,565
04/25/2017 17:51:59,254,10.6,1835.490,324.28,3.26,53,111,565
04/25/2017 17:52:09,235,10.6,1837.730,325.24,3.26,53,132,565
04/25/2017 17:52:19,230,10.6,1839.890,324.75,3.26,53,114,565
04/25/2017 17:52:29,250,10.6,1842.200,323.93,3.26,51,112,565
04/25/2017 17:52:39,255,10.6,1844.510,324.26,3.25,54,111,565
04/25/2017 17:52:49,238,10.6,1846.660,324.58,3.25,53,111,565
04/25/2017 17:52:59,240,10.6,1848.880,324.43,3.25,53,111,565
04/25/2017 17:53:09,267,10.6,1851.010,324.29,3.25,54,112,565
04/25/2017 17:53:19,222,10.5,1853.400,324.00,3.25,53,112,565
04/25/2017 17:53:29,265,10.6,1855.610,323.75,3.25,54,112,565
04/25/2017 17:53:39,202,10.7,1857.800,324.33,3.24,54,114,565
04/25/2017 17:53:49,234,10.6,1860.000,324.70,3.24,53,113,565
04/25/2017 17:53:59,224,10.6,1862.340,324.12,3.24,53,111,565
04/25/2017 17:54:09,250,10.6,1864.510,324.29,3.24,54,112,565
04/25/2017 17:54:19,261,10.6,1866.890,323.87,3.24,52,110,565
04/25/2017 17:54:29,275,10.6,1869.120,324.00,3.24,51,111,565
04/25/2017 17:54:39,249,10.6,1871.310,323.99,3.24,53,112,565
04/25/2017 17:54:49,264,10.6,1873.670,324.13,3.23,53,110,565
04/25/2017 17:54:59,216,10.6,1875.780,323.89,3.23,52,110,565
04/25/2017 17:55:09,231,10.6,1878.230,324.19,3.23,53,113,565
04/25/2017 17:55:19,262,10.5,1880.450,324.05,3.22,53,114,565
04/25/2017 17:55:29,240,10.6,1882.660,323.70,3.22,54,113,565
04/25/2017 17:55:39,212,10.5,1884.860,324.35,3.22,53,112,565
04/25/2017 17:55:49,249,10.5,1887.130,323.81,3.21,54,112,565
04/25/2017 17:55:59,240,10.6,1889.360,324.24,3.21,54,111,565
04/25/2017 17:56:09,266,10.6,1891.570,324.00,3.21,54,113,565
04/25/2017 17:56:19,248,10.5,1893.700,323.67,3.20,53,110,565
04/25/2017 17:56:29,253,10.6,1895.860,323.90,3.20,53,111,565
04/25/2017 17:56:39,192,10.5,1898.020,324.07,3.20,53,111,565
04/25/2017 17:56:49,269,10.5,1900.360,324.05,3.20,53,110,565
04/25/2017 17:56:59,233,10.5,1902.520,323.90,3.20,53,113,565
04/25/2017 17:57:09,178,10.6,1904.410,323.47,3.19,54,111,565
04/25/2017 17:57:19,230,10.5,1906.470,323.67,3.19,53,111,565
04/25/2017 17:57:29,252,10.5,1908.660,323.74,3.19,53,110,565
04/25/2017 17:57:39,211,10.5,1910.870,324.15,3.19,53,111,565
04/25/2017 17:57:49,230,10.5,1912.900,324.29,3.19,52,111,565
04/25/2017 17:57:59,220,10.5,1915.320,324.12,3.19,53,112,565
04/25/2017 17:58:09,234,10.6,1917.410,323.77,3.18,53,110,565
04/25/2017 17:58:19,240,10.6,1919.610,323.47,3.18,53,112,565
04/25/2017 17:58:29,242,10.6,1921.770,324.14,3.18,53,111,565
04/25/2017 17:58:39,231,10.5,1924.170,323.82,3.18,52,112,565
04/25/2017 17:58:49,279,10.6,1926.220,324.10,3.18,52,111,565
04/25/2017 17:58:59,242,10.5,1928.540,324.68,3.17,52,121,565
04/25/2017 17:59:09,295,10.5,1930.820,324.41,3.17,53,112,565
04/25/2017 17:59:19,257,10.5,1932.930,324.77,3.17,53,112,565
04/25/2017 17:59:29,189,10.5,1935.170,323.67,3.17,54,110,565
04/25/2017 17:59:39,221,10.5,1937.400,323.64,3.17,53,112,565
04/25/2017 17:59:49,238,10.5,1939.550,323.96,3.16,52,111,565
04/25/2017 17:59:59,250,10.5,1941.820,323.87,3.16,53,111,565
04/25/2017 18:00:09,249,10.5,1943.970,324.38,3.16,53,110,565
04/25/2017 18:00:19,271,10.5,1946.270,323.77,3.15,52,112,565
04/25/2017 18:00:29,202,10.5,1948.470,323.88,3.15,52,111,565
04/25/2017 18:00:39,267,10.5,1950.800,323.45,3.14,53,111,565
04/25/2017 18:00:49,242,10.5,1952.930,324.03,3.14,51,111,565
04/25/2017 18:00:59,276,10.6,1955.190,323.88,3.14,52,110,565
04/25/2017 18:01:09,238,10.5,1957.400,323.87,3.14,53,111,565
04/25/2017 18:01:19,272,10.5,1959.670,323.94,3.13,52,111,565
04/25/2017 18:01:29,250,10.5,1961.860,323.73,3.13,52,111,565
04/25/2017 18:01:39,266,10.5,1964.050,323.39,3.13,52,109,565
04/25/2017 18:01:49,283,10.5,1966.310,323.91,3.13,53,112,565
04/25/2017 18:01:59,285,10.5,1968.650,324.59,3.13,52,110,565
04/25/2017 18:02:09,223,10.5,1970.850,323.70,3.13,55,117,565
04/25/2017 18:02:19,256,10.5,1972.910,323.28,3.12,54,112,565
04/25/2017 18:02:29,246,10.5,1975.210,324.74,3.11,54,114,565
04/25/2017 18:02:39,270,10.6,1977.200,324.18,3.11,54,112,565
04/25/2017 18:02:49,232,10.5,1979.480,324.51,3.11,54,111,565
04/25/2017 18:02:59,267,10.5,1981.600,323.78,3.10,52,110,565
04/25/2017 18:03:09,258,10.5,1983.840,323.75,3.10,53,112,565
04/25/2017 18:03:19,252,10.5,1986.100,324.05,3.10,54,110,565
04/25/2017 18:03:29,249,10.5,1988.260,323.54,3.10,52,114,565
04/25/2017 18:03:39,223,10.5,1990.410,324.23,3.10,54,113,565
04/25/2017 18:03:49,233,10.5,1992.740,323.93,3.09,52,117,565
04/25/2017 18:03:59,265,10.6,1994.870,324.00,3.09,54,111,565
04/25/2017 18:04:09,248,10.5,1997.190,323.91,3.09,54,112,565
04/25/2017 18:04:19,260,10.5,1999.330,324.29,3.09,53,110,565
04/25/2017 18:04:29,230,10.5,2001.480,323.79,3.09,53,110,565
04/25/2017 18:04:39,261,10.5,2003.750,324.27,3.09,54,111,565
04/25/2017 18:04:49,245,10.5,2005.940,324.36,3.09,52,111,565
04/25/2017 18:04:59,234,10.5,2008.130,323.87,3.09,54,111,565
04/25/2017 18:05:09,230,10.5,2010.540,323.45,3.09,52,112,565
04/25/2017 18:05:19,247,10.5,2012.800,323.69,3.08,52,109,565
04/25/2017 18:05:29,234,10.5,2014.970,323.83,3.08,51,111,565
04/25/2017 18:05:39,289,10.5,2017.180,323.90,3.08,54,111,565
04/25/2017 18:05:49,266,10.5,2019.510,323.15,3.08,52,112,565
04/25/2017 18:05:59,248,10.5,2021.520,323.76,3.07,54,110,565
04/25/2017 18:06:09,240,10.5,2023.760,323.51,3.07,52,111,565
04/25/2017 18:06:19,231,10.5,2026.090,323.90,3.06,55,112,565
04/25/2017 18:06:29,264,10.5,2028.270,323.73,3.06,53,112,565
04/25/2017 18:06:39,275,10.5,2030.510,324.08,3.06,53,112,565
04/25/2017 18:06:49,207,10.5,2032.660,323.92,3.06,52,110,565
04/25/2017 18:06:59,272,10.5,2034.980,323.54,3.06,53,112,565
04/25/2017 18:07:09,258,10.5,2037.190,323.18,3.05,52,111,565
04/25/2017 18:07:19,256,10.5,2039.370,323.25,3.05,53,112,565
04/25/2017 18:07:29,252,10.5,2041.610,324.02,3.05,54,111,565
04/25/2017 18:07:39,255,10.5,2043.760,323.95,3.05,54,112,565
04/25/2017 18:07:49,251,10.5,2046.100,323.96,3.05,52,111,565
04/25/2017 18:07:59,279,10.5,2048.210,322.81,3.05,52,111,565
04/25/2017 18:08:09,252,10.5,2050.420,322.81,3.05,52,111,565
04/25/2017 18:08:19,262,10.5,2052.680,324.05,3.04,53,112,565
04/25/2017 18:08:29,272,10.5,2054.780,323.24,3.04,54,111,565
04/25/2017 18:08:39,291,10.5,2056.890,323.27,3.04,52,112,565
04/25/2017 18:08:49,243,10.5,2059.300,323.75,3.04,52,111,565
04/25/2017 18:08:59,241,10.5,2061.360,323.65,3.03,53,111,565
04/25/2017 18:09:09,197,10.5,2063.420,323.80,3.02,53,113,565
04/25/2017 18:09:19,263,10.5,2065.760,324.70,3.02,53,114,565
04/25/2017 18:09:29,272,10.5,2067.920,325.05,3.02,54,114,565
04/25/2017 18:09:39,243,10.5,2070.150,324.93,3.02,54,116,565
04/25/2017 18:09:49,265,10.5,2072.440,325.33,3.01,54,114,565
04/25/2017 18:09:59,251,10.5,2074.470,326.03,3.01,53,114,565
04/25/2017 18:10:09,257,10.5,2076.770,325.55,3.01,53,114,565
04/25/2017 18:10:19,229,10.5,2079.010,324.18,3.01,53,113,565
04/25/2017 18:10:29,232,10.4,2081.040,323.95,3.01,53,111,565
04/25/2017 18:10:39,252,10.5,2083.060,324.73,3.01,53,113,565
04/25/2017 18:10:49,251,10.5,2085.350,324.55,3.01,53,127,565
04/25/2017 18:10:59,241,10.4,2087.560,324.67,3.00,53,115,565
04/25/2017 18:11:09,256,10.4,2089.770,324.83,2.99,53,118,565
04/25/2017 18:11:19,258,10.5,2091.900,325.07,2.99,52,114,565
04/25/2017 18:11:29,246,10.5,2094.000,325.25,2.99,54,117,565
04/25/2017 18:11:39,268,10.4,2096.140,325.56,2.99,53,115,565
04/25/2017 18:11:49,281,10.5,2098.280,325.29,2.98,53,116,565
04/25/2017 18:11:59,259,10.5,2100.420,324.88,2.98,53,114,565
04/25/2017 18:12:09,262,10.5,2102.590,325.18,2.98,53,115,565
04/25/2017 18:12:19,216,10.5,2104.840,325.40,2.97,53,115,565
04/25/2017 18:12:29,240,10.4,2106.900,325.27,2.97,53,113,565
04/25/2017 18:12:39,286,10.5,2109.130,324.77,2.97,53,114,565
04/25/2017 18:12:49,259,10.4,2111.330,324.67,2.97,52,113,566
04/25/2017 18:12:59,280,10.5,2113.390,324.60,2.96,51,111,565
04/25/2017 18:13:09,256,10.4,2115.520,324.47,2.96,53,114,566
04/25/2017 18:13:19,270,10.5,2117.910,323.90,2.96,54,115,565
04/25/2017 18:13:29,237,10.5,2119.980,323.84,2.97,52,113,565
04/25/2017 18:13:39,262,10.4,2122.120,323.93,2.97,52,110,565
04/25/2017 18:13:49,251,10.5,2124.380,323.35,2.97,54,128,565
04/25/2017 18:13:59,245,10.5,2126.440,322.81,2.97,53,114,565
04/25/2017 18:14:09,208,10.5,2128.670,323.09,2.96,53,111,565
04/25/2017 18:14:19,249,10.5,2130.910,323.09,2.96,52,111,565
04/25/2017 18:14:29,229,10.4,2133.040,322.84,2.96,52,111,565
04/25/2017 18:14:39,242,10.4,2135.300,322.20,2.96,53,112,565
04/25/2017 18:14:49,223,10.4,2137.420,322.76,2.95,53,112,565
04/25/2017 18:14:59,266,10.5,2139.620,321.73,2.95,54,110,565
04/25/2017 18:15:09,307,10.4,2141.700,322.73,2.95,54,110,566
04/25/2017 18:15:19,222,10.4,2144.070,322.60,2.95,52,112,566
04/25/2017 18:15:29,256,10.4,2146.050,322.52,2.94,54,112,565
04/25/2017 18:15:39,268,10.5,2148.290,322.18,2.94,53,112,565
04/25/2017 18:15:49,280,10.5,2150.320,323.03,2.94,53,112,565
04/25/2017 18:15:59,262,10.5,2152.570,322.82,2.94,54,113,565
04/25/2017 18:16:09,250,10.4,2154.680,322.64,2.94,53,113,565
04/25/2017 18:16:19,246,10.4,2156.760,322.70,2.94,53,111,566
04/25/2017 18:16:29,253,10.4,2158.990,322.66,2.94,53,113,565
04/25/2017 18:16:39,239,10.4,2161.020,322.47,2.93,52,111,565
04/25/2017 18:16:49,220,10.4,2163.110,322.53,2.93,53,110,566
04/25/2017 18:16:59,244,10.4,2165.210,322.32,2.93,52,111,565
04/25/2017 18:17:09,225,10.4,2167.370,322.25,2.93,53,111,565
04/25/2017 18:17:19,243,10.4,2169.490,322.51,2.93,52,112,565
04/25/2017 18:17:29,239,10.5,2171.460,322.35,2.93,53,110,566
04/25/2017 18:17:39,265,10.5,2173.590,321.51,2.93,53,112,566
04/25/2017 18:17:49,291,10.4,2175.770,322.01,2.93,54,112,566
04/25/2017 18:17:59,293,10.5,2177.800,322.22,2.93,53,111,565
04/25/2017 18:18:09,263,10.4,2179.900,322.38,2.93,53,111,566
04/25/2017 18:18:19,281,10.5,2181.920,322.04,2.93,53,111,566
04/25/2017 18:18:29,238,10.4,2184.110,322.12,2.93,54,112,566
04/25/2017 18:18:39,242,10.4,2186.070,321.81,2.93,53,114,566
04/25/2017 18:18:49,273,10.5,2187.970,321.89,2.93,54,112,566
04/25/2017 18:18:59,269,10.5,2190.040,321.97,2.93,53,111,566
04/25/2017 18:19:09,273,10.4,2192.190,322.58,2.93,56,112,566
04/25/2017 18:19:19,324,10.5,2194.300,321.65,2.92,54,111,566
04/25/2017 18:19:29,286,10.4,2196.350,322.22,2.93,54,111,566
04/25/2017 18:19:39,265,10.4,2198.400,322.10,2.93,53,112,566
04/25/2017 18:19:49,295,10.4,2200.310,322.40,2.92,53,111,565
04/25/2017 18:19:59,272,10.5,2202.530,321.89,2.92,51,111,565
04/25/2017 18:20:09,303,10.5,2204.500,322.88,2.92,53,113,565
04/25/2017 18:20:19,245,10.4,2206.530,321.60,2.91,53,113,566
04/25/2017 18:20:29,277,10.4,2208.430,322.26,2.91,53,111,566
04/25/2017 18:20:39,208,10.4,2210.550,322.15,2.90,55,113,566
04/25/2017 18:20:49,249,10.5,2212.770,321.27,2.90,52,111,566
04/25/2017 18:20:59,278,10.5,2214.760,322.66,2.90,53,133,566
04/25/2017 18:21:09,251,10.4,2216.720,321.60,2.90,54,111,566
04/25/2017 18:21:19,290,10.5,2218.720,322.28,2.90,54,110,565
04/25/2017 18:21:29,226,10.4,2220.760,321.95,2.90,53,112,566
04/25/2017 18:21:39,306,10.4,2222.770,322.12,2.89,53,113,566
04/25/2017 18:21:49,189,10.4,2224.820,321.22,2.89,53,111,566
04/25/2017 18:21:59,233,10.4,2226.660,321.16,2.89,53,111,565
04/25/2017 18:22:09,253,10.4,2228.720,321.55,2.89,53,110,565
04/25/2017 18:22:19,276,10.4,2230.770,321.39,2.88,53,111,566
04/25/2017 18:22:29,271,10.4,2232.850,320.97,2.88,53,110,566
04/25/2017 18:22:39,269,10.5,2234.840,321.79,2.88,53,112,566
04/25/2017 18:22:49,286,10.4,2236.860,322.04,2.88,52,113,566
04/25/2017 18:22:59,256,10.4,2239.000,322.21,2.87,53,110,566
04/25/2017 18:23:09,263,10.5,2241.140,322.53,2.87,53,114,566
04/25/2017 18:23:19,246,10.4,2243.110,321.51,2.87,52,112,566
04/25/2017 18:23:29,290,10.4,2245.200,321.95,2.87,52,110,566
04/25/2017 18:23:39,279,10.4,2247.270,321.86,2.86,54,111,566
04/25/2017 18:23:49,264,10.4,2249.330,322.54,2.86,53,153,566
04/25/2017 18:23:59,265,10.4,2251.300,321.86,2.86,52,112,566
04/25/2017 18:24:09,276,10.4,2253.470,322.76,2.86,54,113,566
04/25/2017 18:24:19,235,10.4,2255.470,322.19,2.86,53,112,566
04/25/2017 18:24:29,274,10.4,2257.360,321.87,2.86,53,111,566
04/25/2017 18:24:39,242,10.4,2259.180,322.08,2.86,53,111,566
04/25/2017 18:24:49,287,10.5,2261.200,322.53,2.86,52,111,566
04/25/2017 18:24:59,295,10.4,2263.200,321.93,2.85,53,111,566
04/25/2017 18:25:09,230,10.4,2265.360,322.03,2.85,52,111,566
04/25/2017 18:25:19,227,10.4,2267.240,322.19,2.85,52,110,566
04/25/2017 18:25:29,254,10.4,2269.070,321.41,2.85,53,110,566
04/25/2017 18:25:39,263,10.5,2271.120,321.56,2.85,53,112,566
04/25/2017 18:25:49,217,10.4,2273.090,321.14,2.85,52,111,566
04/25/2017 18:25:59,248,10.4,2275.080,322.54,2.85,53,112,566
04/25/2017 18:26:09,232,10.4,2277.090,322.10,2.84,52,111,566
04/25/2017 18:26:19,241,10.4,2279.270,321.85,2.84,52,114,566
04/25/2017 18:26:29,236,10.4,2281.150,321.36,2.84,52,111,566
04/25/2017 18:26:39,234,10.4,2283.260,322.07,2.84,52,110,566
04/25/2017 18:26:49,285,10.4,2285.350,321.42,2.84,54,110,566
04/25/2017 18:26:59,275,10.4,2287.380,322.27,2.84,53,111,565
04/25/2017 18:27:09,255,10.4,2289.340,321.97,2.83,52,113,566
04/25/2017 18:27:19,297,10.4,2291.410,321.64,2.83,53,111,566
04/25/2017 18:27:29,281,10.5,2293.470,321.60,2.83,53,112,566
04/25/2017 18:27:39,249,10.4,2295.280,321.35,2.83,54,112,566
04/25/2017 18:27:49,258,10.4,2297.140,321.15,2.82,54,111,566
04/25/2017 18:27:59,252,10.4,2299.150,320.94,2.82,53,111,566
04/25/2017 18:28:09,261,10.4,2301.380,321.12,2.82,53,111,566
04/25/2017 18:28:19,242,10.4,2303.280,321.48,2.82,53,112,566
04/25/2017 18:28:29,274,10.4,2305.200,321.66,2.81,53,116,566
04/25/2017 18:28:39,272,10.4,2307.150,321.38,2.81,52,111,566
04/25/2017 18:28:49,249,10.4,2309.080,321.39,2.81,52,112,566
04/25/2017 18:28:59,308,10.4,2311.120,321.32,2.81,54,111,566
04/25/2017 18:29:09,264,10.4,2313.030,320.97,2.81,53,111,566
04/25/2017 18:29:19,254,10.4,2314.990,321.56,2.81,53,111,566
04/25/2017 18:29:29,279,10.4,2316.990,321.10,2.80,52,110,566
04/25/2017 18:29:39,268,10.4,2318.910,321.41,2.80,55,111,566
04/25/2017 18:29:49,272,10.4,2320.950,321.75,2.80,53,112,566
04/25/2017 18:29:59,227,10.4,2322.770,321.20,2.79,52,113,566
04/25/2017 18:30:09,272,10.4,2324.670,321.44,2.79,52,113,566
04/25/2017 18:30:19,254,10.4,2326.640,321.28,2.79,52,113,566
04/25/2017 18:30:29,291,10.4,2328.620,322.09,2.79,54,111,566
04/25/2017 18:30:39,268,10.4,2330.550,321.18,2.79,54,111,566
04/25/2017 18:30:49,268,10.3,2332.330,321.20,2.78,54,111,566
04/25/2017 18:30:59,279,10.4,2334.150,322.14,2.78,54,112,566
04/25/2017 18:31:09,288,10.4,2336.150,321.75,2.78,52,113,566
04/25/2017 18:31:19,293,10.4,2337.930,322.45,2.77,52,112,566
04/25/2017 18:31:29,274,10.4,2339.750,322.10,2.77,53,112,566
04/25/2017 18:31:39,296,10.4,2341.690,322.12,2.77,54,113,566
04/25/2017 18:31:49,300,10.4,2343.760,322.39,2.76,53,115,566
04/25/2017 18:31:59,292,10.4,2345.700,322.52,2.76,52,112,566
04/25/2017 18:32:09,265,10.4,2347.490,322.78,2.76,53,112,566
04/25/2017 18:32:19,279,10.3,2349.380,321.74,2.75,53,113,566
04/25/2017 18:32:29,277,10.4,2351.510,322.06,2.75,53,113,566
04/25/2017 18:32:39,254,10.4,2353.230,322.36,2.74,54,112,566
04/25/2017 18:32:49,224,10.4,2355.230,321.97,2.74,53,112,566
04/25/2017 18:32:59,295,10.4,2357.230,323.42,2.74,54,117,566
04/25/2017 18:33:09,288,10.4,2359.250,322.40,2.73,54,114,566
04/25/2017 18:33:19,261,10.4,2361.170,322.97,2.73,53,114,566
04/25/2017 18:33:29,282,10.3,2363.000,323.51,2.73,54,113,566
04/25/2017 18:33:39,256,10.3,2364.900,322.51,2.72,53,113,566
04/25/2017 18:33:49,286,10.3,2366.850,323.64,2.72,54,114,566
04/25/2017 18:33:59,259,10.3,2368.640,323.28,2.71,52,115,566
04/25/2017 18:34:09,265,10.4,2370.580,323.29,2.71,53,113,566
04/25/2017 18:34:19,222,10.4,2372.430,323.62,2.70,53,114,566
04/25/2017 18:34:29,247,10.4,2374.190,323.32,2.70,53,112,566
04/25/2017 18:34:39,271,10.4,2376.130,323.33,2.70,55,114,566
04/25/2017 18:34:49,267,10.3,2377.970,324.09,2.69,52,113,566
04/25/2017 18:34:59,237,10.3,2379.730,323.70,2.69,52,113,566
04/25/2017 18:35:09,280,10.4,2381.650,323.83,2.69,55,114,566
04/25/2017 18:35:19,295,10.3,2383.500,323.91,2.69,53,113,566
04/25/2017 18:35:29,241,10.3,2385.280,323.44,2.69,51,112,566
04/25/2017 18:35:39,282,10.3,2387.020,322.96,2.68,54,112,566
04/25/2017 18:35:49,314,10.3,2388.860,323.86,2.67,52,114,566
04/25/2017 18:35:59,282,10.4,2390.750,324.24,2.67,53,112,566
04/25/2017 18:36:09,249,10.4,2392.580,324.24,2.67,53,113,566
04/25/2017 18:36:19,263,10.3,2394.300,324.62,2.67,53,117,566
04/25/2017 18:36:29,255,10.4,2396.050,324.76,2.67,53,112,566
04/25/2017 18:36:39,298,10.4,2397.980,324.03,2.67,53,114,566
04/25/2017 18:36:49,294,10.3,2399.840,324.74,2.67,53,112,566
04/25/2017 18:36:59,228,10.3,2401.750,324.89,2.67,54,113,566
04/25/2017 18:37:09,267,10.4,2403.600,324.08,2.66,54,114,566
04/25/2017 18:37:19,265,10.4,2405.470,324.28,2.66,53,117,566
04/25/2017 18:37:29,263,10.4,2407.220,323.95,2.66,54,114,566
04/25/2017 18:37:39,294,10.4,2409.060,324.84,2.65,53,118,566
04/25/2017 18:37:49,262,10.4,2410.960,323.54,2.65,53,117,566
04/25/2017 18:37:59,264,10.4,2412.810,324.15,2.64,54,113,566
04/25/2017 18:38:09,248,10.3,2414.630,323.83,2.64,53,114,566
04/25/2017 18:38:19,269,10.3,2416.260,324.09,2.64,53,113,566
04/25/2017 18:38:29,256,10.3,2417.970,325.12,2.64,54,114,566
04/25/2017 18:38:39,277,10.3,2419.740,324.61,2.64,53,114,566
04/25/2017 18:38:49,253,10.4,2421.660,323.90,2.63,54,114,566
04/25/2017 18:38:59,265,10.4,2423.270,323.80,2.63,52,114,566
04/25/2017 18:39:09,251,10.3,2425.030,324.41,2.63,52,113,566
04/25/2017 18:39:19,257,10.3,2426.660,324.50,2.62,52,112,566
04/25/2017 18:39:29,274,10.3,2428.270,324.44,2.62,53,116,566
04/25/2017 18:39:39,274,10.3,2430.130,324.85,2.61,51,115,566
04/25/2017 18:39:49,276,10.4,2431.870,325.12,2.60,54,116,566
04/25/2017 18:39:59,268,10.3,2433.740,325.60,2.60,53,115,566
04/25/2017 18:40:09,224,10.3,2435.190,325.81,2.60,54,116,566
04/25/2017 18:40:19,266,10.3,2436.760,325.50,2.60,53,113,566
04/25/2017 18:40:29,297,10.3,2438.610,325.94,2.60,54,115,566
04/25/2017 18:40:39,226,10.3,2440.420,325.86,2.59,52,116,566
04/25/2017 18:40:49,263,10.4,2441.720,325.82,2.59,52,114,566
04/25/2017 18:40:59,271,10.3,2443.520,326.18,2.59,53,115,566
04/25/2017 18:41:09,283,10.3,2445.300,326.17,2.58,52,116,566
04/25/2017 18:41:19,314,10.3,2447.160,325.76,2.58,51,117,566
04/25/2017 18:41:29,295,10.3,2448.940,325.83,2.57,54,114,566
04/25/2017 18:41:39,250,10.3,2450.590,326.35,2.57,52,115,566
04/25/2017 18:41:49,292,10.4,2452.200,325.59,2.57,54,115,566
04/25/2017 18:41:59,279,10.3,2453.920,325.98,2.57,53,113,566
04/25/2017 18:42:09,264,10.3,2455.750,325.72,2.56,52,115,566
04/25/2017 18:42:19,287,10.3,2457.660,325.63,2.55,53,116,566
04/25/2017 18:42:29,271,10.4,2459.460,326.00,2.54,52,115,566
04/25/2017 18:42:39,248,10.3,2460.990,325.52,2.54,52,116,566
04/25/2017 18:42:49,246,10.3,2462.630,326.33,2.54,52,115,566
04/25/2017 18:42:59,302,10.4,2464.300,326.22,2.52,54,114,566
04/25/2017 18:43:09,285,10.3,2465.880,326.45,2.52,54,114,566
04/25/2017 18:43:19,210,10.3,2467.520,326.89,2.51,53,116,566
04/25/2017 18:43:29,287,10.3,2469.080,326.68,2.50,53,115,566
04/25/2017 18:43:39,248,10.3,2470.760,327.12,2.50,53,115,566
04/25/2017 18:43:49,263,10.3,2472.210,328.06,2.49,53,116,566
04/25/2017 18:43:59,212,10.3,2473.780,327.68,2.49,53,117,566
04/25/2017 18:44:09,223,10.4,2475.110,327.50,2.49,53,120,566
04/25/2017 18:44:19,257,10.3,2476.600,328.41,2.48,53,116,566
04/25/2017 18:44:29,235,10.4,2477.860,327.80,2.47,51,116,566
04/25/2017 18:44:39,227,10.4,2479.080,328.35,2.47,53,116,566
04/25/2017 18:44:49,261,10.3,2480.760,328.07,2.46,54,117,566
04/25/2017 18:44:59,264,10.3,2482.240,327.52,2.45,53,117,566
04/25/2017 18:45:09,252,10.3,2483.540,328.00,2.44,55,116,566
04/25/2017 18:45:19,300,10.3,2485.040,328.81,2.44,52,117,566
04/25/2017 18:45:29,275,10.3,2486.550,328.10,2.43,54,116,566
04/25/2017 18:45:39,273,10.4,2488.050,328.48,2.42,54,117,566
04/25/2017 18:45:49,228,10.3,2489.730,329.59,2.42,53,116,566
04/25/2017 18:45:59,280,10.4,2491.060,329.58,2.41,54,133,566
04/25/2017 18:46:09,225,10.4,2492.390,329.37,2.41,53,119,566
04/25/2017 18:46:19,247,10.4,2493.780,329.71,2.40,53,116,566
04/25/2017 18:46:29,235,10.4,2494.980,330.74,2.39,53,120,566
04/25/2017 18:46:39,239,10.3,2496.390,330.19,2.38,53,120,566
04/25/2017 18:46:49,281,10.4,2497.820,331.49,2.36,53,130,566
04/25/2017 18:46:59,238,10.4,2499.230,331.96,2.35,53,121,566
04/25/2017 18:47:09,250,10.3,2500.770,332.25,2.34,52,121,566
04/25/2017 18:47:19,221,10.4,2501.910,332.79,2.33,54,121,566
04/25/2017 18:47:29,228,10.4,2503.220,333.28,2.33,53,120,566
04/25/2017 18:47:39,215,10.4,2504.380,333.18,2.32,53,124,566
04/25/2017 18:47:49,206,10.3,2505.330,333.34,2.32,53,120,566
04/25/2017 18:47:59,252,10.3,2506.470,333.30,2.31,52,127,566
04/25/2017 18:48:09,218,10.4,2507.690,333.88,2.27,53,124,566
04/25/2017 18:48:19,257,10.3,2508.670,335.95,2.27,54,123,566
04/25/2017 18:48:29,231,10.4,2510.040,336.24,2.25,53,125,566
04/25/2017 18:48:39,198,10.3,2511.310,336.87,2.25,54,124,566
04/25/2017 18:48:49,203,10.4,2512.240,336.72,2.25,53,127,566
04/25/2017 18:48:59,214,10.4,2513.210,337.94,2.23,55,129,566
04/25/2017 18:49:09,221,10.4,2514.190,338.32,2.22,53,127,567
04/25/2017 18:49:19,246,10.4,2515.360,339.14,2.21,55,128,566
04/25/2017 18:49:29,232,10.4,2516.530,339.95,2.19,52,131,566
04/25/2017 18:49:39,240,10.3,2517.870,340.98,2.17,53,132,566
04/25/2017 18:49:49,217,10.4,2519.110,340.11,2.16,54,132,567
04/25/2017 18:49:59,252,10.4,2520.290,339.94,2.16,53,128,566
04/25/2017 18:50:09,239,10.4,2521.440,340.45,2.15,53,133,566
04/25/2017 18:50:19,200,10.3,2522.790,340.68,2.15,53,131,566
04/25/2017 18:50:29,200,10.4,2523.890,340.45,2.15,55,131,567
04/25/2017 18:50:39,259,10.4,2525.110,340.86,2.15,52,132,567
04/25/2017 18:50:49,234,10.4,2526.280,340.31,2.14,52,128,566
04/25/2017 18:50:59,207,10.4,2527.490,341.09,2.14,53,131,566

 Ramp exit:    SMOOTH RUNNING
 Profile exit: BOTTOM PRESSURE

 Vehicle motion stopped at 04/25/2017 18:51:04
 Sensor logging stopped at 04/25/2017 18:53:13
