
 Profile 334

 Sensors were turned on at  04/15/2017 16:00:02
 Vehicle began profiling at 04/15/2017 16:02:04

Date,[mA],[V],[dbar],Oxygen[uM],Optode Temp[C],Chl,NTU,Therm
04/15/2017 16:02:04,0,11.0,0.000,0.00,0.00,111,144,567
04/15/2017 16:02:14,214,10.7,0.000,0.00,0.00,103,131,567
04/15/2017 16:02:24,189,10.8,0.000,0.00,0.00,100,131,567
04/15/2017 16:02:37,334,10.7,184.960,386.68,3.60,97,128,567
04/15/2017 16:02:47,160,10.9,187.520,385.31,3.59,98,132,567
04/15/2017 16:02:57,162,10.9,190.220,384.75,3.60,97,132,567
04/15/2017 16:03:07,175,10.9,192.860,385.87,3.59,96,130,567
04/15/2017 16:03:17,161,10.9,195.640,384.97,3.59,94,141,567
04/15/2017 16:03:27,154,10.9,198.260,385.37,3.58,94,132,567
04/15/2017 16:03:37,165,10.9,201.020,384.77,3.57,93,130,566
04/15/2017 16:03:47,160,10.9,203.640,385.51,3.57,92,131,566
04/15/2017 16:03:57,154,10.9,206.300,385.55,3.57,91,130,566
04/15/2017 16:04:07,161,10.9,208.890,384.36,3.56,90,130,566
04/15/2017 16:04:17,165,10.9,211.550,384.98,3.56,90,128,566
04/15/2017 16:04:27,150,10.9,214.230,383.42,3.55,90,132,566
04/15/2017 16:04:37,168,10.9,216.940,384.31,3.55,89,129,566
04/15/2017 16:04:47,155,10.9,219.650,383.98,3.54,88,130,566
04/15/2017 16:04:57,157,10.9,222.270,384.24,3.54,85,127,566
04/15/2017 16:05:07,164,10.9,224.920,384.13,3.53,87,130,566
04/15/2017 16:05:17,159,10.9,227.660,384.50,3.53,85,128,566
04/15/2017 16:05:27,157,10.9,230.160,384.21,3.53,84,130,566
04/15/2017 16:05:37,173,10.8,232.800,384.10,3.52,84,130,566
04/15/2017 16:05:47,165,10.8,235.440,382.90,3.52,85,129,566
04/15/2017 16:05:57,152,10.8,238.140,385.17,3.52,84,128,566
04/15/2017 16:06:07,161,10.9,240.860,383.29,3.52,84,130,566
04/15/2017 16:06:17,157,10.9,243.380,383.71,3.52,83,128,566
04/15/2017 16:06:27,168,10.8,246.150,383.55,3.52,84,129,566
04/15/2017 16:06:37,157,10.8,248.770,383.61,3.52,83,128,566
04/15/2017 16:06:47,167,10.8,251.300,383.34,3.51,84,129,566
04/15/2017 16:06:57,172,10.8,253.880,383.19,3.51,83,127,566
04/15/2017 16:07:07,176,10.8,256.750,383.43,3.51,82,128,566
04/15/2017 16:07:17,160,10.8,259.300,383.34,3.51,81,126,566
04/15/2017 16:07:27,173,10.8,261.870,383.08,3.51,80,128,566
04/15/2017 16:07:37,169,10.8,264.520,383.12,3.51,81,129,565
04/15/2017 16:07:47,172,10.8,267.230,382.88,3.51,80,129,565
04/15/2017 16:07:57,164,10.8,269.890,383.59,3.50,80,128,565
04/15/2017 16:08:07,155,10.8,272.410,383.06,3.50,78,127,566
04/15/2017 16:08:17,161,10.8,275.080,383.00,3.50,79,129,565
04/15/2017 16:08:27,181,10.8,277.710,383.26,3.50,77,128,565
04/15/2017 16:08:37,154,10.8,280.490,382.91,3.50,78,126,565
04/15/2017 16:08:47,157,10.8,283.130,382.31,3.50,77,127,565
04/15/2017 16:08:57,177,10.8,285.760,382.57,3.50,77,130,565
04/15/2017 16:09:07,170,10.8,288.360,382.61,3.50,75,127,565
04/15/2017 16:09:17,159,10.8,290.910,382.54,3.50,77,129,565
04/15/2017 16:09:27,170,10.8,293.520,381.34,3.50,75,128,565
04/15/2017 16:09:37,176,10.8,296.320,383.26,3.49,76,128,565
04/15/2017 16:09:47,164,10.8,298.910,381.61,3.50,76,127,565
04/15/2017 16:09:57,192,10.8,301.430,381.95,3.49,77,129,565
04/15/2017 16:10:07,167,10.8,304.100,381.88,3.49,78,135,565
04/15/2017 16:10:17,186,10.8,306.750,382.17,3.49,77,127,565
04/15/2017 16:10:27,150,10.8,309.430,382.56,3.49,77,127,565
04/15/2017 16:10:37,172,10.8,312.030,383.02,3.49,78,127,565
04/15/2017 16:10:47,166,10.8,314.650,381.71,3.49,77,130,565
04/15/2017 16:10:57,169,10.8,317.360,381.23,3.49,79,127,565
04/15/2017 16:11:07,154,10.8,319.970,382.22,3.49,76,126,565
04/15/2017 16:11:17,186,10.8,322.550,381.19,3.49,77,128,565
04/15/2017 16:11:27,167,10.8,325.250,382.13,3.49,77,127,565
04/15/2017 16:11:37,165,10.8,327.730,380.75,3.49,75,127,565
04/15/2017 16:11:47,165,10.8,330.500,381.80,3.49,77,128,565
04/15/2017 16:11:57,172,10.8,333.030,382.00,3.49,75,128,565
04/15/2017 16:12:07,179,10.8,335.720,382.58,3.49,74,125,565
04/15/2017 16:12:17,176,10.8,338.330,381.73,3.49,73,127,565
04/15/2017 16:12:27,182,10.8,340.920,381.22,3.49,74,126,565
04/15/2017 16:12:37,165,10.8,343.560,382.00,3.49,74,126,565
04/15/2017 16:12:47,162,10.8,346.170,380.91,3.49,73,126,565
04/15/2017 16:12:57,179,10.8,348.820,381.34,3.49,75,126,565
04/15/2017 16:13:07,168,10.8,351.450,381.11,3.49,73,125,565
04/15/2017 16:13:17,166,10.8,354.110,381.51,3.49,73,127,565
04/15/2017 16:13:27,170,10.8,356.700,381.25,3.49,74,130,565
04/15/2017 16:13:37,163,10.8,359.420,381.43,3.49,75,126,565
04/15/2017 16:13:47,172,10.8,362.020,381.09,3.49,74,129,565
04/15/2017 16:13:57,179,10.8,364.630,381.37,3.49,73,126,565
04/15/2017 16:14:07,186,10.8,367.260,381.72,3.49,73,127,565
04/15/2017 16:14:17,158,10.8,369.870,380.98,3.49,72,125,565
04/15/2017 16:14:27,184,10.8,372.650,381.05,3.49,73,125,565
04/15/2017 16:14:37,158,10.8,375.180,380.85,3.48,74,127,565
04/15/2017 16:14:47,197,10.8,377.710,381.19,3.49,73,124,565
04/15/2017 16:14:57,169,10.8,380.410,381.05,3.49,74,125,565
04/15/2017 16:15:07,149,10.8,383.030,381.30,3.48,73,125,565
04/15/2017 16:15:17,201,10.8,385.700,380.81,3.49,74,127,565
04/15/2017 16:15:27,167,10.9,388.310,380.96,3.49,73,125,565
04/15/2017 16:15:37,166,10.8,390.880,380.67,3.48,72,125,565
04/15/2017 16:15:47,190,10.8,393.500,380.85,3.48,72,124,565
04/15/2017 16:15:57,169,10.8,396.270,381.27,3.48,72,126,565
04/15/2017 16:16:07,169,10.8,398.770,380.76,3.48,73,125,565
04/15/2017 16:16:17,159,10.8,401.400,379.91,3.48,71,127,565
04/15/2017 16:16:27,166,10.8,404.010,381.26,3.48,73,128,565
04/15/2017 16:16:37,180,10.8,406.700,381.12,3.48,70,126,565
04/15/2017 16:16:47,174,10.8,409.310,380.92,3.48,72,125,565
04/15/2017 16:16:57,172,10.8,411.920,380.86,3.48,72,125,565
04/15/2017 16:17:07,160,10.8,414.650,379.93,3.48,72,126,565
04/15/2017 16:17:17,192,10.8,417.260,379.79,3.48,72,126,565
04/15/2017 16:17:27,168,10.8,419.840,380.23,3.48,69,125,565
04/15/2017 16:17:37,173,10.8,422.490,380.37,3.48,73,127,565
04/15/2017 16:17:47,170,10.8,425.100,380.23,3.48,71,126,565
04/15/2017 16:17:57,146,10.8,427.810,380.11,3.48,72,125,565
04/15/2017 16:18:07,188,10.8,430.420,379.77,3.48,72,125,565
04/15/2017 16:18:17,183,10.8,433.020,379.88,3.48,68,127,565
04/15/2017 16:18:27,158,10.9,435.500,379.76,3.48,69,127,565
04/15/2017 16:18:37,174,10.8,438.210,379.41,3.48,69,125,565
04/15/2017 16:18:47,166,10.8,440.760,379.75,3.48,70,124,565
04/15/2017 16:18:57,154,10.8,443.510,379.12,3.48,68,125,565
04/15/2017 16:19:07,164,10.8,446.010,379.75,3.48,69,123,565
04/15/2017 16:19:17,181,10.8,448.730,380.07,3.48,70,125,565
04/15/2017 16:19:27,170,10.8,451.340,380.03,3.48,69,125,565
04/15/2017 16:19:37,181,10.8,453.880,379.70,3.48,68,126,565
04/15/2017 16:19:47,168,10.8,456.520,378.26,3.48,67,128,565
04/15/2017 16:19:57,168,10.8,459.160,378.82,3.48,67,123,565
04/15/2017 16:20:07,160,10.8,461.730,378.41,3.48,66,124,565
04/15/2017 16:20:17,174,10.8,464.290,379.08,3.48,66,126,565
04/15/2017 16:20:27,177,10.8,467.030,378.69,3.48,66,124,565
04/15/2017 16:20:37,185,10.8,469.550,378.38,3.48,66,125,565
04/15/2017 16:20:47,180,10.8,472.260,378.98,3.48,67,126,565
04/15/2017 16:20:57,175,10.8,474.800,377.94,3.48,66,123,565
04/15/2017 16:21:07,161,10.8,477.390,378.64,3.48,66,125,565
04/15/2017 16:21:17,170,10.8,480.050,377.77,3.48,66,124,565
04/15/2017 16:21:27,183,10.8,482.710,378.54,3.48,66,125,565
04/15/2017 16:21:37,163,10.9,485.400,377.51,3.48,65,125,565
04/15/2017 16:21:47,179,10.8,487.940,378.36,3.48,67,126,565
04/15/2017 16:21:57,169,10.8,490.430,378.07,3.48,64,125,565
04/15/2017 16:22:07,187,10.8,493.200,377.23,3.48,64,123,565
04/15/2017 16:22:17,162,10.8,495.810,378.35,3.48,65,123,565
04/15/2017 16:22:27,174,10.8,498.450,377.56,3.48,65,124,565
04/15/2017 16:22:37,176,10.8,501.130,377.15,3.48,66,125,565
04/15/2017 16:22:47,160,10.8,503.620,379.01,3.48,66,123,565
04/15/2017 16:22:57,183,10.8,506.150,377.46,3.48,66,123,565
04/15/2017 16:23:07,183,10.8,508.830,377.66,3.48,65,122,565
04/15/2017 16:23:17,176,10.8,511.480,378.19,3.48,64,124,565
04/15/2017 16:23:27,187,10.8,513.990,377.60,3.48,66,124,565
04/15/2017 16:23:37,161,10.8,516.680,377.05,3.48,66,122,565
04/15/2017 16:23:47,169,10.9,519.310,378.37,3.48,65,124,565
04/15/2017 16:23:57,188,10.8,521.950,377.85,3.48,66,125,565
04/15/2017 16:24:07,184,10.9,524.550,376.56,3.48,64,123,565
04/15/2017 16:24:17,173,10.9,527.170,377.20,3.48,64,123,565
04/15/2017 16:24:27,149,10.8,529.740,376.77,3.48,65,126,565
04/15/2017 16:24:37,170,10.8,532.260,376.59,3.48,63,123,565
04/15/2017 16:24:47,177,10.9,534.870,376.89,3.48,64,126,565
04/15/2017 16:24:57,195,10.8,537.600,376.45,3.48,65,125,565
04/15/2017 16:25:07,168,10.9,540.210,376.58,3.48,64,123,565
04/15/2017 16:25:17,167,10.8,542.800,376.20,3.48,64,122,565
04/15/2017 16:25:27,191,10.8,545.410,376.11,3.48,64,123,565
04/15/2017 16:25:37,193,10.8,548.030,376.47,3.48,64,125,565
04/15/2017 16:25:47,181,10.8,550.670,376.51,3.48,64,124,565
04/15/2017 16:25:57,176,10.8,553.250,377.60,3.48,63,125,565
04/15/2017 16:26:07,181,10.8,555.780,376.59,3.48,64,123,565
04/15/2017 16:26:17,191,10.8,558.480,376.61,3.48,64,126,565
04/15/2017 16:26:27,196,10.8,561.090,376.52,3.48,64,128,565
04/15/2017 16:26:37,180,10.8,563.590,377.34,3.48,64,124,565
04/15/2017 16:26:47,158,10.8,566.240,377.06,3.48,64,126,565
04/15/2017 16:26:57,166,10.8,568.920,375.86,3.48,64,122,565
04/15/2017 16:27:07,155,10.8,571.410,376.59,3.48,63,124,565
04/15/2017 16:27:17,180,10.8,574.070,376.33,3.48,64,122,565
04/15/2017 16:27:27,172,10.8,576.770,376.75,3.48,63,124,565
04/15/2017 16:27:37,176,10.8,579.230,376.36,3.48,62,124,565
04/15/2017 16:27:47,188,10.8,581.930,376.31,3.48,63,123,565
04/15/2017 16:27:57,192,10.8,584.580,375.56,3.48,63,123,565
04/15/2017 16:28:07,200,10.8,587.180,375.89,3.47,64,123,565
04/15/2017 16:28:17,183,10.8,589.760,375.98,3.47,64,123,565
04/15/2017 16:28:27,189,10.8,592.380,375.23,3.47,63,124,565
04/15/2017 16:28:37,196,10.8,594.910,375.82,3.47,62,122,565
04/15/2017 16:28:47,167,10.8,597.540,376.01,3.47,62,122,565
04/15/2017 16:28:57,171,10.8,600.170,375.73,3.47,63,124,565
04/15/2017 16:29:07,186,10.8,602.720,375.18,3.46,62,125,565
04/15/2017 16:29:17,171,10.9,605.230,375.78,3.46,63,125,565
04/15/2017 16:29:27,171,10.8,607.990,375.10,3.46,62,122,565
04/15/2017 16:29:37,185,10.8,610.490,374.66,3.46,61,126,565
04/15/2017 16:29:47,194,10.8,613.080,375.44,3.46,61,123,565
04/15/2017 16:29:57,194,10.8,615.700,374.17,3.46,62,126,565
04/15/2017 16:30:07,178,10.9,618.420,374.40,3.46,61,123,565
04/15/2017 16:30:17,183,10.8,620.950,374.61,3.46,61,121,565
04/15/2017 16:30:27,194,10.8,623.580,373.71,3.46,61,122,565
04/15/2017 16:30:37,174,10.8,626.110,374.77,3.46,61,123,565
04/15/2017 16:30:47,181,10.8,628.710,373.74,3.46,61,122,565
04/15/2017 16:30:57,194,10.8,631.480,374.32,3.46,60,122,565
04/15/2017 16:31:07,192,10.8,633.930,373.70,3.46,62,122,565
04/15/2017 16:31:17,195,10.8,636.510,373.04,3.46,60,121,565
04/15/2017 16:31:27,185,10.9,639.300,373.69,3.46,61,121,565
04/15/2017 16:31:37,166,10.9,641.870,373.70,3.46,60,123,565
04/15/2017 16:31:47,182,10.9,644.510,372.57,3.46,61,121,565
04/15/2017 16:31:57,203,10.8,647.050,373.34,3.46,60,123,565
04/15/2017 16:32:07,164,10.8,649.620,372.61,3.46,60,125,565
04/15/2017 16:32:17,178,10.8,652.110,372.56,3.45,60,122,565
04/15/2017 16:32:27,200,10.8,654.710,372.55,3.45,58,121,565
04/15/2017 16:32:37,170,10.9,657.280,371.40,3.45,57,119,565
04/15/2017 16:32:47,190,10.8,659.950,370.11,3.44,56,119,565
04/15/2017 16:32:57,184,10.8,662.580,369.22,3.44,56,118,565
04/15/2017 16:33:07,158,10.8,665.110,368.60,3.44,55,118,565
04/15/2017 16:33:17,172,10.8,667.750,367.81,3.43,55,119,565
04/15/2017 16:33:27,202,10.8,670.330,367.91,3.43,55,124,565
04/15/2017 16:33:37,182,10.8,672.940,368.51,3.43,56,124,565
04/15/2017 16:33:47,165,10.8,675.550,367.93,3.43,54,118,565
04/15/2017 16:33:57,197,10.8,678.180,368.05,3.42,54,118,565
04/15/2017 16:34:07,163,10.9,680.710,367.92,3.41,53,118,565
04/15/2017 16:34:17,189,10.8,683.370,366.11,3.41,53,118,565
04/15/2017 16:34:27,175,10.9,685.890,366.39,3.41,54,119,565
04/15/2017 16:34:37,179,10.8,688.460,367.02,3.41,53,119,565
04/15/2017 16:34:47,183,10.8,691.040,366.48,3.41,54,117,565
04/15/2017 16:34:57,183,10.8,693.670,366.65,3.41,53,119,565
04/15/2017 16:35:07,187,10.8,696.360,365.95,3.41,52,119,565
04/15/2017 16:35:17,193,10.8,698.920,366.31,3.41,54,117,565
04/15/2017 16:35:27,202,10.8,701.450,366.66,3.41,54,120,565
04/15/2017 16:35:37,183,10.8,704.060,366.71,3.40,54,118,565
04/15/2017 16:35:47,186,10.8,706.730,366.77,3.40,54,118,565
04/15/2017 16:35:57,205,10.8,709.310,365.50,3.40,52,120,565
04/15/2017 16:36:07,195,10.8,711.930,365.90,3.40,53,118,565
04/15/2017 16:36:17,168,10.8,714.390,364.99,3.39,53,118,565
04/15/2017 16:36:27,178,10.8,717.000,364.97,3.39,52,118,565
04/15/2017 16:36:37,169,10.8,719.660,365.55,3.39,53,117,565
04/15/2017 16:36:47,195,10.8,722.180,365.25,3.39,53,118,565
04/15/2017 16:36:57,165,10.9,724.850,365.15,3.39,52,117,565
04/15/2017 16:37:07,167,10.8,727.400,365.80,3.39,52,123,565
04/15/2017 16:37:17,204,10.8,729.910,364.91,3.38,53,119,565
04/15/2017 16:37:27,187,10.8,732.530,365.58,3.38,51,119,565
04/15/2017 16:37:37,183,10.8,735.110,365.98,3.38,53,119,565
04/15/2017 16:37:47,170,10.9,737.670,366.14,3.37,53,118,565
04/15/2017 16:37:57,184,10.8,740.230,366.06,3.37,53,118,565
04/15/2017 16:38:07,183,10.9,742.920,365.70,3.37,52,119,565
04/15/2017 16:38:17,176,10.8,745.440,366.24,3.37,53,118,565
04/15/2017 16:38:27,197,10.8,748.090,365.60,3.37,53,119,565
04/15/2017 16:38:37,202,10.9,750.710,365.33,3.37,52,116,565
04/15/2017 16:38:47,190,10.8,753.220,366.47,3.37,51,118,565
04/15/2017 16:38:57,194,10.8,755.780,365.57,3.37,52,119,565
04/15/2017 16:39:07,176,10.9,758.370,364.70,3.37,52,119,565
04/15/2017 16:39:17,186,10.8,760.880,365.59,3.37,53,120,565
04/15/2017 16:39:27,179,10.8,763.450,364.63,3.37,53,118,565
04/15/2017 16:39:37,171,10.8,766.080,364.70,3.37,53,119,565
04/15/2017 16:39:47,181,10.8,768.650,364.75,3.37,53,116,565
04/15/2017 16:39:57,181,10.8,771.310,365.30,3.37,53,119,565
04/15/2017 16:40:07,203,10.8,773.770,364.78,3.37,53,119,565
04/15/2017 16:40:17,190,10.8,776.320,366.23,3.35,51,118,565
04/15/2017 16:40:27,203,10.8,779.020,366.35,3.35,52,120,565
04/15/2017 16:40:37,188,10.8,781.440,365.93,3.34,52,121,565
04/15/2017 16:40:47,193,10.8,784.140,366.66,3.35,54,120,565
04/15/2017 16:40:57,172,10.8,786.580,366.06,3.34,52,118,565
04/15/2017 16:41:07,183,10.9,789.140,366.74,3.35,53,119,565
04/15/2017 16:41:17,191,10.8,791.770,366.08,3.34,54,119,565
04/15/2017 16:41:27,177,10.8,794.250,365.98,3.34,52,117,565
04/15/2017 16:41:37,193,10.8,796.910,366.34,3.34,54,119,565
04/15/2017 16:41:47,182,10.8,799.350,366.13,3.34,53,119,565
04/15/2017 16:41:57,194,10.8,801.980,365.83,3.34,52,119,565
04/15/2017 16:42:07,200,10.8,804.660,366.42,3.34,53,118,565
04/15/2017 16:42:17,178,10.8,807.180,365.39,3.34,52,120,565
04/15/2017 16:42:27,199,10.8,809.700,366.16,3.34,53,120,565
04/15/2017 16:42:37,197,10.8,812.320,366.44,3.34,52,119,565
04/15/2017 16:42:47,182,10.9,814.820,366.11,3.34,54,120,565
04/15/2017 16:42:57,180,10.8,817.390,365.75,3.34,52,120,565
04/15/2017 16:43:07,165,10.8,820.110,365.99,3.34,53,119,565
04/15/2017 16:43:17,182,10.8,822.670,365.79,3.34,54,119,565
04/15/2017 16:43:27,207,10.8,825.260,365.19,3.34,53,120,565
04/15/2017 16:43:37,171,10.8,827.650,365.00,3.34,52,120,565
04/15/2017 16:43:47,201,10.8,830.230,365.85,3.34,51,119,565
04/15/2017 16:43:57,167,10.8,832.830,366.15,3.34,52,118,565
04/15/2017 16:44:07,163,10.9,835.490,364.94,3.34,53,120,565
04/15/2017 16:44:17,200,10.8,837.990,365.40,3.34,53,122,565
04/15/2017 16:44:27,182,10.9,840.670,364.39,3.34,52,117,565
04/15/2017 16:44:37,192,10.8,843.060,364.63,3.34,53,119,565
04/15/2017 16:44:47,176,10.8,845.740,365.57,3.34,51,118,565
04/15/2017 16:44:57,197,10.8,848.310,363.73,3.34,53,118,565
04/15/2017 16:45:07,210,10.8,850.870,364.21,3.34,51,118,565
04/15/2017 16:45:17,202,10.8,853.350,364.32,3.34,51,118,565
04/15/2017 16:45:27,223,10.8,855.870,364.56,3.34,52,118,565
04/15/2017 16:45:37,198,10.8,858.570,364.81,3.34,52,118,565
04/15/2017 16:45:47,179,10.8,861.140,364.67,3.34,52,122,565
04/15/2017 16:45:57,223,10.8,863.540,364.69,3.34,53,118,565
04/15/2017 16:46:07,189,10.8,866.290,364.81,3.34,53,117,565
04/15/2017 16:46:17,192,10.8,868.790,364.34,3.34,53,119,565
04/15/2017 16:46:27,192,10.9,871.230,364.43,3.34,54,139,565
04/15/2017 16:46:37,182,10.8,873.830,363.32,3.34,54,120,565
04/15/2017 16:46:47,170,10.8,876.390,363.23,3.34,52,118,565
04/15/2017 16:46:57,190,10.8,878.920,363.59,3.34,52,118,565
04/15/2017 16:47:07,175,10.9,881.450,363.14,3.34,53,200,565
04/15/2017 16:47:17,194,10.8,884.110,362.85,3.34,53,119,565
04/15/2017 16:47:27,180,10.8,886.710,363.15,3.34,52,118,565
04/15/2017 16:47:37,189,10.8,889.170,363.02,3.33,53,118,565
04/15/2017 16:47:47,190,10.8,891.690,363.26,3.33,53,120,565
04/15/2017 16:47:57,217,10.8,894.200,363.75,3.34,52,118,565
04/15/2017 16:48:07,205,10.8,896.750,363.14,3.34,52,119,565
04/15/2017 16:48:17,173,10.9,899.380,363.76,3.34,52,118,565
04/15/2017 16:48:27,198,10.8,901.950,363.36,3.34,52,119,565
04/15/2017 16:48:37,216,10.8,904.410,362.43,3.34,50,117,565
04/15/2017 16:48:47,212,10.9,907.100,362.73,3.34,51,117,565
04/15/2017 16:48:57,209,10.8,909.450,362.86,3.34,52,116,565
04/15/2017 16:49:07,176,10.8,912.180,363.60,3.33,53,118,565
04/15/2017 16:49:17,193,10.8,914.590,363.79,3.33,53,118,565
04/15/2017 16:49:27,188,10.8,917.270,363.56,3.33,53,119,565
04/15/2017 16:49:37,194,10.8,919.740,363.16,3.33,54,117,565
04/15/2017 16:49:47,194,10.8,922.260,363.22,3.33,53,116,565
04/15/2017 16:49:57,196,10.8,924.850,363.93,3.33,50,119,565
04/15/2017 16:50:07,195,10.8,927.310,363.73,3.33,52,119,565
04/15/2017 16:50:17,183,10.8,929.950,362.94,3.33,52,118,565
04/15/2017 16:50:27,211,10.8,932.450,363.72,3.33,52,117,565
04/15/2017 16:50:37,160,10.8,935.040,363.17,3.33,53,118,565
04/15/2017 16:50:47,182,10.8,937.500,362.92,3.33,53,116,565
04/15/2017 16:50:57,209,10.8,940.090,362.78,3.33,53,117,565
04/15/2017 16:51:07,226,10.8,942.510,362.95,3.33,51,118,565
04/15/2017 16:51:17,191,10.8,945.070,362.70,3.33,53,123,565
04/15/2017 16:51:27,175,10.8,947.670,364.31,3.33,51,117,565
04/15/2017 16:51:37,170,10.9,950.040,361.82,3.33,53,119,565
04/15/2017 16:51:47,217,10.8,952.630,362.89,3.33,54,117,565
04/15/2017 16:51:57,175,10.8,955.280,362.46,3.33,52,117,565
04/15/2017 16:52:07,224,10.9,957.800,362.11,3.33,52,119,565
04/15/2017 16:52:17,214,10.8,960.370,361.67,3.33,54,116,565
04/15/2017 16:52:27,207,10.8,962.870,362.26,3.33,52,117,565
04/15/2017 16:52:37,203,10.8,965.360,361.96,3.34,53,115,565
04/15/2017 16:52:47,200,10.8,967.790,361.49,3.34,52,118,565
04/15/2017 16:52:57,195,10.8,970.370,361.65,3.34,53,116,565
04/15/2017 16:53:07,229,10.8,972.890,361.38,3.34,52,117,565
04/15/2017 16:53:17,186,10.8,975.380,361.58,3.34,52,117,565
04/15/2017 16:53:27,208,10.8,978.040,360.92,3.34,52,117,565
04/15/2017 16:53:37,181,10.8,980.640,361.41,3.34,52,116,565
04/15/2017 16:53:47,191,10.8,983.140,361.23,3.34,51,115,565
04/15/2017 16:53:57,178,10.9,985.540,361.02,3.34,53,116,565
04/15/2017 16:54:07,202,10.8,988.140,361.13,3.34,51,118,565
04/15/2017 16:54:17,203,10.8,990.630,360.99,3.34,54,116,565
04/15/2017 16:54:27,213,10.9,993.160,360.26,3.34,53,117,565
04/15/2017 16:54:37,202,10.8,995.750,361.15,3.34,53,115,565
04/15/2017 16:54:47,194,10.8,998.230,360.89,3.34,50,116,565
04/15/2017 16:54:57,196,10.8,1000.840,360.62,3.34,52,117,565
04/15/2017 16:55:07,215,10.8,1003.430,359.93,3.34,53,119,565
04/15/2017 16:55:17,216,10.8,1005.840,360.92,3.34,52,118,565
04/15/2017 16:55:27,222,10.8,1008.400,360.55,3.34,54,115,565
04/15/2017 16:55:37,182,10.8,1010.870,360.23,3.34,52,118,565
04/15/2017 16:55:47,217,10.8,1013.450,359.73,3.34,51,114,565
04/15/2017 16:55:57,200,10.8,1015.980,360.29,3.34,52,116,565
04/15/2017 16:56:07,195,10.8,1018.600,360.03,3.34,53,116,565
04/15/2017 16:56:17,207,10.8,1021.120,360.92,3.34,51,116,565
04/15/2017 16:56:27,191,10.8,1023.660,360.42,3.34,52,115,565
04/15/2017 16:56:37,206,10.8,1026.110,359.55,3.34,53,116,565
04/15/2017 16:56:47,224,10.8,1028.560,359.64,3.34,54,115,565
04/15/2017 16:56:57,211,10.8,1031.080,360.23,3.34,53,115,565
04/15/2017 16:57:07,187,10.8,1033.630,360.35,3.34,51,114,565
04/15/2017 16:57:17,219,10.8,1036.140,360.01,3.34,53,115,565
04/15/2017 16:57:27,214,10.8,1038.790,359.38,3.34,51,117,565
04/15/2017 16:57:37,203,10.8,1041.200,359.94,3.33,53,118,565
04/15/2017 16:57:47,209,10.8,1043.770,360.03,3.34,52,117,565
04/15/2017 16:57:57,208,10.8,1046.390,359.95,3.34,52,116,565
04/15/2017 16:58:07,205,10.8,1048.850,360.30,3.34,51,115,565
04/15/2017 16:58:17,203,10.8,1051.320,360.77,3.34,52,114,565
04/15/2017 16:58:27,206,10.8,1053.810,359.25,3.33,51,115,565
04/15/2017 16:58:37,216,10.8,1056.300,359.68,3.33,52,117,565
04/15/2017 16:58:47,240,10.8,1058.820,360.28,3.33,52,114,565
04/15/2017 16:58:57,222,10.8,1061.350,360.13,3.33,52,115,565
04/15/2017 16:59:07,189,10.8,1063.950,360.10,3.33,52,114,565
04/15/2017 16:59:17,210,10.8,1066.490,359.73,3.33,52,116,565
04/15/2017 16:59:27,197,10.8,1068.970,358.98,3.33,51,115,565
04/15/2017 16:59:37,197,10.8,1071.470,358.90,3.33,52,115,565
04/15/2017 16:59:47,183,10.8,1074.000,359.23,3.33,52,115,565
04/15/2017 16:59:57,192,10.8,1076.490,359.59,3.33,51,115,565
04/15/2017 17:00:07,189,10.8,1078.960,359.90,3.33,54,115,565
04/15/2017 17:00:17,213,10.8,1081.630,360.28,3.32,53,112,565
04/15/2017 17:00:27,182,10.8,1084.130,358.89,3.32,53,115,565
04/15/2017 17:00:37,189,10.9,1086.570,359.04,3.33,52,114,565
04/15/2017 17:00:47,207,10.8,1089.060,358.96,3.33,52,114,565
04/15/2017 17:00:57,210,10.8,1091.600,358.45,3.33,53,115,565
04/15/2017 17:01:07,221,10.8,1094.210,359.51,3.33,52,114,565
04/15/2017 17:01:17,215,10.8,1096.730,359.91,3.33,53,116,565
04/15/2017 17:01:27,195,10.8,1099.220,358.37,3.33,52,114,565
04/15/2017 17:01:37,197,10.8,1101.720,359.12,3.33,54,115,565
04/15/2017 17:01:47,205,10.8,1104.170,358.17,3.33,52,113,565
04/15/2017 17:01:57,212,10.8,1106.690,358.62,3.33,53,115,565
04/15/2017 17:02:07,214,10.8,1109.320,358.21,3.33,52,115,565
04/15/2017 17:02:17,230,10.8,1111.830,358.86,3.33,53,115,565
04/15/2017 17:02:27,209,10.8,1114.290,358.95,3.33,52,113,565
04/15/2017 17:02:37,193,10.8,1116.710,358.35,3.33,53,114,565
04/15/2017 17:02:47,204,10.8,1119.120,358.58,3.33,53,115,565
04/15/2017 17:02:57,204,10.8,1121.710,358.26,3.33,54,116,565
04/15/2017 17:03:07,202,10.8,1124.240,358.47,3.33,51,114,565
04/15/2017 17:03:17,205,10.8,1126.740,358.62,3.33,52,114,565
04/15/2017 17:03:27,218,10.8,1129.150,358.15,3.33,52,115,565
04/15/2017 17:03:37,189,10.8,1131.670,357.73,3.33,51,115,565
04/15/2017 17:03:47,207,10.8,1134.180,358.27,3.33,52,113,565
04/15/2017 17:03:57,209,10.8,1136.580,358.62,3.33,52,115,565
04/15/2017 17:04:07,214,10.8,1139.230,357.86,3.33,51,114,565
04/15/2017 17:04:17,211,10.9,1141.630,358.10,3.33,51,114,565
04/15/2017 17:04:27,205,10.8,1144.200,358.53,3.33,51,115,565
04/15/2017 17:04:37,213,10.9,1146.720,357.18,3.33,51,115,565
04/15/2017 17:04:47,211,10.8,1149.230,357.05,3.33,52,113,565
04/15/2017 17:04:57,205,10.8,1151.680,358.26,3.33,52,114,565
04/15/2017 17:05:07,204,10.9,1154.200,357.91,3.33,51,114,565
04/15/2017 17:05:17,207,10.9,1156.830,358.14,3.32,52,114,565
04/15/2017 17:05:27,218,10.9,1159.320,358.04,3.32,52,114,565
04/15/2017 17:05:37,186,10.8,1161.790,358.27,3.32,51,114,565
04/15/2017 17:05:47,187,10.8,1164.250,357.83,3.32,53,114,565
04/15/2017 17:05:57,219,10.8,1166.710,358.61,3.32,51,114,565
04/15/2017 17:06:07,206,10.9,1169.290,358.21,3.32,52,114,565
04/15/2017 17:06:17,205,10.8,1171.750,358.41,3.32,52,113,565
04/15/2017 17:06:27,216,10.8,1174.330,357.35,3.32,53,115,565
04/15/2017 17:06:37,213,10.8,1176.710,357.36,3.32,52,114,565
04/15/2017 17:06:47,194,10.8,1179.140,357.53,3.32,51,113,565
04/15/2017 17:06:57,201,10.8,1181.730,357.75,3.32,51,114,565
04/15/2017 17:07:07,220,10.8,1184.250,357.22,3.32,54,114,565
04/15/2017 17:07:17,160,10.9,1186.700,357.66,3.32,53,115,565
04/15/2017 17:07:27,215,10.8,1189.220,357.66,3.32,51,113,565
04/15/2017 17:07:37,196,10.9,1191.720,357.88,3.32,53,114,565
04/15/2017 17:07:47,221,10.8,1194.060,357.55,3.32,51,116,565
04/15/2017 17:07:57,220,10.8,1196.700,357.97,3.32,52,114,565
04/15/2017 17:08:07,204,10.8,1199.100,357.19,3.32,51,117,565
04/15/2017 17:08:17,199,10.8,1201.700,357.80,3.32,52,114,565
04/15/2017 17:08:27,211,10.8,1204.060,357.00,3.32,52,113,565
04/15/2017 17:08:37,224,10.8,1206.550,357.42,3.32,52,114,565
04/15/2017 17:08:47,206,10.8,1209.130,358.01,3.32,53,116,565
04/15/2017 17:08:57,209,10.8,1211.720,357.38,3.32,52,115,565
04/15/2017 17:09:07,216,10.8,1214.150,357.02,3.32,52,113,565
04/15/2017 17:09:17,192,10.9,1216.600,357.35,3.32,53,112,565
04/15/2017 17:09:27,219,10.8,1219.090,356.76,3.32,52,115,565
04/15/2017 17:09:37,223,10.8,1221.520,357.38,3.33,50,114,565
04/15/2017 17:09:47,225,10.8,1224.050,356.50,3.33,51,114,565
04/15/2017 17:09:57,211,10.8,1226.560,357.87,3.33,51,113,565
04/15/2017 17:10:07,216,10.8,1229.160,357.46,3.33,51,114,565
04/15/2017 17:10:17,211,10.8,1231.520,356.99,3.33,52,112,565
04/15/2017 17:10:27,220,10.8,1234.000,356.93,3.33,52,112,565
04/15/2017 17:10:37,210,10.8,1236.490,356.63,3.33,53,117,565
04/15/2017 17:10:47,236,10.8,1239.040,357.25,3.33,53,114,565
04/15/2017 17:10:57,195,10.8,1241.420,355.95,3.33,52,113,565
04/15/2017 17:11:07,228,10.8,1243.830,356.67,3.33,52,114,565
04/15/2017 17:11:17,173,10.8,1246.430,355.41,3.33,53,115,565
04/15/2017 17:11:27,234,10.8,1249.010,355.53,3.33,53,115,565
04/15/2017 17:11:37,232,10.8,1251.300,356.02,3.33,51,113,565
04/15/2017 17:11:47,200,10.8,1253.750,355.51,3.33,52,115,565
04/15/2017 17:11:57,231,10.8,1256.330,355.25,3.34,52,113,565
04/15/2017 17:12:07,220,10.8,1258.830,355.74,3.34,53,113,565
04/15/2017 17:12:17,217,10.8,1261.250,355.44,3.34,52,113,565
04/15/2017 17:12:27,240,10.8,1263.660,354.60,3.34,52,114,565
04/15/2017 17:12:37,207,10.9,1266.260,354.61,3.34,54,112,565
04/15/2017 17:12:47,155,10.9,1268.640,354.81,3.34,52,114,565
04/15/2017 17:12:57,211,10.8,1271.030,355.08,3.34,52,113,565
04/15/2017 17:13:07,202,10.8,1273.570,354.58,3.35,52,114,565
04/15/2017 17:13:17,210,10.8,1276.050,354.21,3.35,51,116,565
04/15/2017 17:13:27,192,10.8,1278.560,354.91,3.35,54,113,565
04/15/2017 17:13:37,207,10.8,1281.130,353.73,3.35,51,113,565
04/15/2017 17:13:47,218,10.8,1283.540,353.33,3.35,52,113,565
04/15/2017 17:13:57,219,10.8,1286.040,353.70,3.35,52,114,565
04/15/2017 17:14:07,205,10.8,1288.540,353.75,3.36,53,120,565
04/15/2017 17:14:17,210,10.8,1291.010,353.33,3.36,51,115,565
04/15/2017 17:14:27,241,10.8,1293.330,353.01,3.36,53,114,565
04/15/2017 17:14:37,219,10.8,1296.000,351.53,3.36,52,114,565
04/15/2017 17:14:47,244,10.8,1298.480,351.96,3.36,52,114,565
04/15/2017 17:14:57,199,10.8,1300.770,351.77,3.37,53,114,565
04/15/2017 17:15:07,196,10.8,1303.380,351.36,3.37,53,118,565
04/15/2017 17:15:17,213,10.8,1305.790,350.20,3.38,53,114,565
04/15/2017 17:15:27,205,10.8,1308.400,350.36,3.38,53,115,565
04/15/2017 17:15:37,207,10.8,1310.730,350.15,3.39,52,114,565
04/15/2017 17:15:47,185,10.9,1313.370,350.75,3.39,54,114,565
04/15/2017 17:15:57,220,10.9,1315.820,349.34,3.39,50,115,565
04/15/2017 17:16:07,213,10.8,1318.350,348.61,3.39,52,113,565
04/15/2017 17:16:17,184,10.8,1320.740,348.88,3.39,52,129,565
04/15/2017 17:16:27,185,10.8,1323.130,348.55,3.40,52,113,565
04/15/2017 17:16:37,212,10.8,1325.630,349.23,3.41,54,113,565
04/15/2017 17:16:47,215,10.8,1328.150,348.28,3.41,53,113,565
04/15/2017 17:16:57,204,10.8,1330.550,347.87,3.41,53,114,565
04/15/2017 17:17:07,211,10.8,1333.180,347.65,3.41,52,114,565
04/15/2017 17:17:17,251,10.8,1335.590,347.44,3.41,53,113,565
04/15/2017 17:17:27,212,10.8,1338.130,347.43,3.41,52,114,565
04/15/2017 17:17:37,227,10.8,1340.460,347.40,3.41,53,115,565
04/15/2017 17:17:47,227,10.8,1343.070,347.48,3.42,52,114,565
04/15/2017 17:17:57,227,10.8,1345.520,347.09,3.42,51,113,565
04/15/2017 17:18:07,219,10.8,1347.960,346.51,3.42,53,114,565
04/15/2017 17:18:17,230,10.8,1350.450,345.73,3.43,51,114,565
04/15/2017 17:18:27,237,10.8,1352.920,345.87,3.43,53,115,565
04/15/2017 17:18:37,207,10.8,1355.390,344.58,3.43,51,114,565
04/15/2017 17:18:47,215,10.8,1357.820,344.17,3.43,52,115,565
04/15/2017 17:18:57,222,10.8,1360.350,345.48,3.44,51,112,565
04/15/2017 17:19:07,243,10.8,1362.920,344.79,3.44,53,114,565
04/15/2017 17:19:17,231,10.8,1365.350,344.40,3.44,52,114,565
04/15/2017 17:19:27,196,10.8,1367.760,342.95,3.46,52,115,565
04/15/2017 17:19:37,213,10.8,1370.260,342.47,3.46,52,113,565
04/15/2017 17:19:47,220,10.8,1372.770,343.05,3.46,53,114,565
04/15/2017 17:19:57,212,10.9,1375.160,341.88,3.46,53,113,565
04/15/2017 17:20:07,225,10.8,1377.740,342.31,3.47,52,114,565
04/15/2017 17:20:17,214,10.8,1380.160,341.70,3.47,52,114,565
04/15/2017 17:20:27,185,10.8,1382.500,341.35,3.48,52,104,565
04/15/2017 17:20:37,169,10.8,1385.070,340.72,3.49,51,113,565
04/15/2017 17:20:47,203,10.8,1387.520,339.04,3.49,52,113,565
04/15/2017 17:20:57,221,10.8,1390.070,339.16,3.49,53,112,565
04/15/2017 17:21:07,228,10.8,1392.500,338.15,3.49,53,114,565
04/15/2017 17:21:17,213,10.8,1394.990,338.50,3.50,52,114,565
04/15/2017 17:21:27,229,10.8,1397.390,338.34,3.50,54,113,565
04/15/2017 17:21:37,208,10.8,1399.840,338.16,3.50,53,113,565
04/15/2017 17:21:47,225,10.8,1402.340,337.86,3.50,52,114,565
04/15/2017 17:21:57,217,10.8,1404.810,337.84,3.50,54,114,565
04/15/2017 17:22:07,240,10.8,1407.350,337.61,3.51,53,113,565
04/15/2017 17:22:17,207,10.8,1409.750,337.33,3.51,52,115,565
04/15/2017 17:22:27,158,10.8,1412.140,336.38,3.51,52,114,565
04/15/2017 17:22:37,220,10.8,1414.670,336.89,3.51,54,114,565
04/15/2017 17:22:47,207,10.8,1417.090,336.06,3.51,52,115,565
04/15/2017 17:22:57,228,10.8,1419.490,336.03,3.52,51,113,565
04/15/2017 17:23:07,186,10.9,1421.970,335.46,3.52,51,116,565
04/15/2017 17:23:17,217,10.8,1424.410,335.66,3.52,52,114,565
04/15/2017 17:23:27,229,10.8,1426.740,335.58,3.52,52,113,565
04/15/2017 17:23:37,234,10.8,1429.320,335.47,3.52,55,116,565
04/15/2017 17:23:47,236,10.8,1431.550,335.24,3.53,53,114,565
04/15/2017 17:23:57,195,10.8,1434.070,334.47,3.53,54,116,565
04/15/2017 17:24:07,245,10.9,1436.530,334.18,3.53,53,114,565
04/15/2017 17:24:17,203,10.8,1438.970,333.34,3.54,52,112,565
04/15/2017 17:24:27,233,10.8,1441.420,332.42,3.54,54,113,565
04/15/2017 17:24:37,194,10.8,1443.850,332.87,3.54,53,113,565
04/15/2017 17:24:47,216,10.8,1446.310,332.98,3.54,53,114,565
04/15/2017 17:24:57,225,10.8,1448.860,331.81,3.54,52,115,565
04/15/2017 17:25:07,227,10.9,1451.320,331.56,3.54,53,113,565
04/15/2017 17:25:17,195,10.8,1453.770,331.69,3.55,54,113,565
04/15/2017 17:25:27,228,10.8,1456.070,331.35,3.55,54,113,565
04/15/2017 17:25:37,215,10.8,1458.570,331.20,3.55,52,115,565
04/15/2017 17:25:47,225,10.8,1460.960,331.65,3.55,53,113,565
04/15/2017 17:25:57,238,10.8,1463.410,331.19,3.55,52,114,564
04/15/2017 17:26:07,227,10.8,1466.010,330.32,3.55,53,114,565
04/15/2017 17:26:17,240,10.8,1468.500,331.05,3.55,53,113,565
04/15/2017 17:26:27,222,10.8,1470.960,330.52,3.56,53,115,565
04/15/2017 17:26:37,224,10.8,1473.250,330.38,3.55,52,113,565
04/15/2017 17:26:47,250,10.8,1475.830,329.60,3.56,53,116,565
04/15/2017 17:26:57,232,10.8,1478.300,328.94,3.56,54,115,565
04/15/2017 17:27:07,216,10.8,1480.560,328.87,3.57,52,115,565
04/15/2017 17:27:17,216,10.8,1483.160,329.12,3.57,52,115,565
04/15/2017 17:27:27,208,10.8,1485.580,328.94,3.58,52,114,565
04/15/2017 17:27:37,228,10.8,1488.010,328.57,3.58,53,114,565
04/15/2017 17:27:47,219,10.8,1490.460,328.72,3.57,53,115,565
04/15/2017 17:27:57,200,10.8,1492.950,327.96,3.57,53,114,565
04/15/2017 17:28:07,245,10.8,1495.280,327.68,3.57,53,115,565
04/15/2017 17:28:17,192,10.8,1497.560,328.26,3.57,55,115,565
04/15/2017 17:28:27,241,10.8,1500.100,327.81,3.57,53,116,565
04/15/2017 17:28:37,229,10.8,1502.330,328.10,3.57,53,114,565
04/15/2017 17:28:47,229,10.8,1504.810,327.45,3.57,52,115,565
04/15/2017 17:28:57,215,10.8,1507.370,327.66,3.57,53,113,565
04/15/2017 17:29:07,176,10.9,1509.630,327.10,3.57,54,127,565
04/15/2017 17:29:17,229,10.8,1512.130,327.71,3.57,54,114,565
04/15/2017 17:29:27,237,10.9,1514.520,327.87,3.56,53,115,565
04/15/2017 17:29:37,200,10.8,1516.830,327.73,3.56,52,115,565
04/15/2017 17:29:47,223,10.8,1519.320,328.20,3.56,53,114,565
04/15/2017 17:29:57,215,10.8,1521.810,327.78,3.56,53,115,565
04/15/2017 17:30:07,246,10.8,1524.250,327.11,3.56,53,116,565
04/15/2017 17:30:17,225,10.8,1526.590,327.37,3.56,53,115,565
04/15/2017 17:30:27,255,10.8,1529.090,327.49,3.55,53,115,565
04/15/2017 17:30:37,214,10.8,1531.530,328.03,3.55,54,115,565
04/15/2017 17:30:47,182,10.8,1534.010,327.17,3.55,52,117,564
04/15/2017 17:30:57,231,10.8,1536.480,327.01,3.55,52,115,565
04/15/2017 17:31:07,220,10.8,1538.730,325.96,3.55,53,115,565
04/15/2017 17:31:17,241,10.8,1541.190,327.05,3.55,53,113,565
04/15/2017 17:31:27,212,10.8,1543.700,327.13,3.55,54,113,565
04/15/2017 17:31:37,228,10.8,1546.320,326.86,3.54,54,113,565
04/15/2017 17:31:47,228,10.8,1548.630,326.61,3.54,53,114,565
04/15/2017 17:31:57,241,10.8,1551.080,327.01,3.54,54,115,565
04/15/2017 17:32:07,243,10.8,1553.630,327.27,3.53,53,113,565
04/15/2017 17:32:17,246,10.8,1556.130,327.03,3.53,53,114,565
04/15/2017 17:32:27,202,10.8,1558.440,326.36,3.53,52,112,565
04/15/2017 17:32:37,215,10.8,1561.030,327.12,3.53,53,115,565
04/15/2017 17:32:47,243,10.8,1563.380,326.67,3.53,53,114,565
04/15/2017 17:32:57,225,10.8,1565.770,326.86,3.52,52,115,565
04/15/2017 17:33:07,221,10.8,1568.320,326.52,3.52,53,115,565
04/15/2017 17:33:17,244,10.8,1570.680,327.13,3.52,53,115,565
04/15/2017 17:33:27,227,10.8,1573.140,326.60,3.52,55,114,565
04/15/2017 17:33:37,249,10.8,1575.590,326.83,3.52,53,114,565
04/15/2017 17:33:47,215,10.8,1577.960,326.61,3.52,53,112,565
04/15/2017 17:33:57,261,10.8,1580.340,326.25,3.51,54,116,565
04/15/2017 17:34:07,214,10.8,1582.820,326.18,3.51,52,115,565
04/15/2017 17:34:17,251,10.8,1585.140,326.68,3.50,52,115,565
04/15/2017 17:34:27,217,10.8,1587.590,326.15,3.50,52,114,565
04/15/2017 17:34:37,242,10.8,1590.050,325.96,3.49,53,114,565
04/15/2017 17:34:47,244,10.8,1592.580,326.60,3.49,52,115,565
04/15/2017 17:34:57,243,10.8,1594.820,325.79,3.49,53,114,565
04/15/2017 17:35:07,242,10.8,1597.280,326.17,3.49,53,112,565
04/15/2017 17:35:17,263,10.8,1599.680,326.26,3.49,53,114,565
04/15/2017 17:35:27,232,10.8,1602.040,326.78,3.49,53,114,565
04/15/2017 17:35:37,235,10.8,1604.540,326.20,3.48,53,114,565
04/15/2017 17:35:47,252,10.8,1606.860,326.32,3.48,53,113,565
04/15/2017 17:35:57,247,10.8,1609.270,325.90,3.48,54,114,565
04/15/2017 17:36:07,258,10.8,1611.730,326.19,3.47,52,114,565
04/15/2017 17:36:17,247,10.8,1614.170,325.82,3.47,53,115,565
04/15/2017 17:36:27,270,10.8,1616.490,325.99,3.47,53,115,565
04/15/2017 17:36:37,214,10.8,1618.810,326.49,3.47,53,115,565
04/15/2017 17:36:47,234,10.8,1621.290,326.50,3.47,52,114,565
04/15/2017 17:36:57,216,10.8,1623.630,326.19,3.47,52,113,565
04/15/2017 17:37:07,234,10.9,1625.900,326.32,3.46,52,114,565
04/15/2017 17:37:17,240,10.8,1628.180,326.52,3.46,53,114,565
04/15/2017 17:37:27,232,10.8,1630.550,326.46,3.46,54,115,565
04/15/2017 17:37:37,237,10.8,1632.870,326.56,3.46,53,116,565
04/15/2017 17:37:47,271,10.8,1635.320,326.52,3.45,53,114,565
04/15/2017 17:37:57,245,10.8,1637.700,327.08,3.45,52,116,565
04/15/2017 17:38:07,225,10.8,1639.950,327.22,3.44,54,115,565
04/15/2017 17:38:17,242,10.8,1642.410,326.63,3.44,53,114,565
04/15/2017 17:38:27,225,10.9,1644.710,326.50,3.44,52,114,565
04/15/2017 17:38:37,235,10.8,1647.060,326.57,3.44,52,116,565
04/15/2017 17:38:47,163,10.8,1649.390,325.62,3.43,53,114,565
04/15/2017 17:38:57,253,10.8,1651.560,326.32,3.43,53,113,565
04/15/2017 17:39:07,232,10.8,1653.980,325.26,3.43,53,114,565
04/15/2017 17:39:17,231,10.8,1656.410,326.33,3.43,53,114,565
04/15/2017 17:39:27,238,10.8,1658.660,325.51,3.42,52,114,565
04/15/2017 17:39:37,265,10.8,1660.900,325.51,3.42,53,115,565
04/15/2017 17:39:47,215,10.8,1663.300,325.43,3.42,53,113,565
04/15/2017 17:39:57,267,10.8,1665.530,326.03,3.42,53,114,565
04/15/2017 17:40:07,240,10.8,1667.850,326.30,3.42,53,114,565
04/15/2017 17:40:17,266,10.8,1670.270,325.17,3.42,54,113,565
04/15/2017 17:40:27,284,10.8,1672.440,326.01,3.42,54,113,565
04/15/2017 17:40:37,235,10.8,1674.970,324.82,3.41,53,112,565
04/15/2017 17:40:47,211,10.8,1677.040,325.57,3.41,54,113,565
04/15/2017 17:40:57,252,10.8,1679.440,326.18,3.41,53,119,565
04/15/2017 17:41:07,253,10.8,1681.680,325.44,3.40,52,115,565
04/15/2017 17:41:17,245,10.8,1683.830,326.21,3.40,51,115,565
04/15/2017 17:41:27,254,10.8,1686.040,325.25,3.40,54,112,565
04/15/2017 17:41:37,248,10.8,1688.370,325.86,3.40,54,114,565
04/15/2017 17:41:47,233,10.8,1690.720,326.23,3.39,54,116,565
04/15/2017 17:41:57,279,10.8,1692.980,325.79,3.39,52,112,565
04/15/2017 17:42:07,249,10.8,1695.300,325.97,3.38,53,114,565
04/15/2017 17:42:17,260,10.8,1697.570,326.13,3.38,53,114,565
04/15/2017 17:42:27,287,10.8,1699.840,326.28,3.38,53,114,565
04/15/2017 17:42:37,254,10.9,1702.070,326.16,3.38,51,117,565
04/15/2017 17:42:47,244,10.8,1704.230,325.68,3.37,53,115,565
04/15/2017 17:42:57,285,10.9,1706.530,326.03,3.37,53,112,565
04/15/2017 17:43:07,225,10.8,1708.650,325.31,3.37,53,113,565
04/15/2017 17:43:17,267,10.8,1710.870,325.39,3.37,53,114,565
04/15/2017 17:43:27,248,10.8,1713.170,325.70,3.37,52,114,565
04/15/2017 17:43:37,243,10.8,1715.400,325.48,3.36,53,120,565
04/15/2017 17:43:47,254,10.8,1717.380,325.41,3.36,53,114,565
04/15/2017 17:43:57,245,10.8,1719.600,325.66,3.36,53,113,565
04/15/2017 17:44:07,248,10.8,1721.720,325.62,3.36,53,114,565
04/15/2017 17:44:17,283,10.8,1723.920,325.07,3.35,54,115,565
04/15/2017 17:44:27,266,10.9,1726.200,324.88,3.35,54,115,565
04/15/2017 17:44:37,203,10.9,1728.260,325.39,3.35,52,114,565
04/15/2017 17:44:47,252,10.8,1730.410,325.37,3.35,52,113,565
04/15/2017 17:44:57,242,10.8,1732.720,325.39,3.35,53,113,565
04/15/2017 17:45:07,236,10.8,1734.790,325.61,3.34,54,113,565
04/15/2017 17:45:17,258,10.8,1737.120,325.91,3.34,54,115,565
04/15/2017 17:45:27,195,10.8,1739.240,324.67,3.34,53,113,565
04/15/2017 17:45:37,216,10.8,1741.320,325.77,3.34,53,111,565
04/15/2017 17:45:47,261,10.8,1743.660,325.00,3.34,54,112,565
04/15/2017 17:45:57,241,10.8,1745.790,324.76,3.34,52,113,565
04/15/2017 17:46:07,209,10.8,1747.920,325.19,3.34,53,112,565
04/15/2017 17:46:17,195,10.8,1750.240,325.11,3.33,52,113,565
04/15/2017 17:46:27,256,10.8,1752.480,324.49,3.33,53,112,565
04/15/2017 17:46:37,237,10.8,1754.550,324.20,3.33,54,113,565
04/15/2017 17:46:47,252,10.8,1756.840,324.56,3.33,51,114,565
04/15/2017 17:46:57,260,10.8,1758.920,325.03,3.33,54,113,565
04/15/2017 17:47:07,232,10.8,1761.260,325.08,3.32,54,113,565
04/15/2017 17:47:17,251,10.8,1763.350,325.75,3.32,54,113,565
04/15/2017 17:47:27,233,10.8,1765.720,325.04,3.32,53,112,565
04/15/2017 17:47:37,247,10.8,1767.760,324.82,3.32,53,111,565
04/15/2017 17:47:47,173,10.9,1769.880,324.38,3.31,54,113,565
04/15/2017 17:47:57,270,10.8,1771.820,324.55,3.31,52,112,565
04/15/2017 17:48:07,255,10.8,1774.090,324.82,3.31,53,113,565
04/15/2017 17:48:17,225,10.8,1776.210,324.48,3.31,53,113,565
04/15/2017 17:48:27,259,10.8,1778.430,323.93,3.31,54,113,565
04/15/2017 17:48:37,246,10.8,1780.600,324.28,3.30,53,112,565
04/15/2017 17:48:47,275,10.8,1782.840,325.74,3.30,54,112,565
04/15/2017 17:48:57,270,10.8,1784.940,324.38,3.30,53,114,565
04/15/2017 17:49:07,241,10.8,1787.260,324.84,3.30,52,113,565
04/15/2017 17:49:17,258,10.8,1789.640,323.59,3.30,54,110,565
04/15/2017 17:49:27,245,10.8,1791.790,323.60,3.29,53,111,565
04/15/2017 17:49:37,288,10.9,1794.010,324.19,3.30,53,111,565
04/15/2017 17:49:47,285,10.8,1796.280,324.27,3.29,53,112,565
04/15/2017 17:49:57,250,10.8,1798.580,324.47,3.29,52,112,565
04/15/2017 17:50:07,266,10.8,1800.920,324.04,3.29,54,114,565
04/15/2017 17:50:17,226,10.8,1803.020,324.53,3.30,53,112,565
04/15/2017 17:50:27,249,10.8,1805.330,324.83,3.30,52,112,565
04/15/2017 17:50:37,238,10.8,1807.640,324.67,3.30,53,112,565
04/15/2017 17:50:47,240,10.8,1809.920,323.97,3.29,52,110,565
04/15/2017 17:50:57,244,10.8,1812.240,324.27,3.29,52,112,565
04/15/2017 17:51:07,234,10.8,1814.460,323.84,3.28,53,111,565
04/15/2017 17:51:17,247,10.8,1816.560,324.14,3.28,54,113,565
04/15/2017 17:51:27,253,10.8,1818.820,324.00,3.28,54,112,565
04/15/2017 17:51:37,251,10.8,1821.070,324.24,3.28,52,111,565
04/15/2017 17:51:47,228,10.8,1823.310,324.24,3.28,52,113,565
04/15/2017 17:51:57,267,10.8,1825.590,323.97,3.27,53,112,565
04/15/2017 17:52:07,269,10.8,1827.750,324.13,3.27,53,110,565
04/15/2017 17:52:17,235,10.8,1829.890,324.32,3.27,53,112,565
04/15/2017 17:52:27,252,10.8,1832.160,324.61,3.27,54,112,565
04/15/2017 17:52:37,271,10.8,1834.250,324.09,3.27,55,112,565
04/15/2017 17:52:47,269,10.8,1836.440,323.91,3.27,54,112,565
04/15/2017 17:52:57,232,10.8,1838.680,324.43,3.26,51,112,565
04/15/2017 17:53:07,243,10.8,1840.770,324.94,3.26,51,111,565
04/15/2017 17:53:17,175,10.8,1842.910,324.17,3.26,52,112,565
04/15/2017 17:53:27,282,10.8,1844.940,323.99,3.26,53,111,565
04/15/2017 17:53:37,261,10.8,1847.290,324.42,3.25,52,112,565
04/15/2017 17:53:47,248,10.8,1849.370,323.60,3.25,54,110,565
04/15/2017 17:53:57,272,10.8,1851.670,324.92,3.24,54,113,565
04/15/2017 17:54:07,290,10.8,1853.940,324.33,3.24,53,113,565
04/15/2017 17:54:17,242,10.8,1856.080,323.69,3.24,54,112,565
04/15/2017 17:54:27,255,10.8,1858.320,323.83,3.24,53,111,565
04/15/2017 17:54:37,263,10.8,1860.530,324.26,3.24,52,111,565
04/15/2017 17:54:47,253,10.8,1862.800,324.68,3.24,53,112,565
04/15/2017 17:54:57,275,10.8,1865.080,325.08,3.23,53,112,565
04/15/2017 17:55:07,244,10.8,1867.200,324.51,3.23,54,114,565
04/15/2017 17:55:17,299,10.8,1869.480,324.43,3.23,54,111,565
04/15/2017 17:55:27,250,10.8,1871.620,324.35,3.23,52,113,565
04/15/2017 17:55:37,258,10.8,1873.860,324.26,3.23,52,112,565
04/15/2017 17:55:47,251,10.8,1876.040,324.26,3.23,54,112,565
04/15/2017 17:55:57,249,10.8,1878.210,324.08,3.23,54,112,565
04/15/2017 17:56:07,273,10.8,1880.480,324.12,3.22,52,111,565
04/15/2017 17:56:17,243,10.8,1882.600,324.60,3.22,54,111,565
04/15/2017 17:56:27,248,10.8,1884.830,324.53,3.22,54,112,565
04/15/2017 17:56:37,274,10.8,1887.040,324.77,3.22,52,114,565
04/15/2017 17:56:47,257,10.8,1889.380,324.58,3.22,52,111,565
04/15/2017 17:56:57,262,10.8,1891.610,324.61,3.21,53,111,565
04/15/2017 17:57:07,264,10.8,1893.820,324.07,3.21,54,115,565
04/15/2017 17:57:17,255,10.8,1896.100,324.31,3.21,52,113,565
04/15/2017 17:57:27,239,10.8,1898.280,324.38,3.21,54,111,565
04/15/2017 17:57:37,293,10.8,1900.460,323.96,3.21,54,111,565
04/15/2017 17:57:47,265,10.8,1902.660,323.94,3.21,53,111,565
04/15/2017 17:57:57,255,10.8,1904.780,324.85,3.21,52,112,565
04/15/2017 17:58:07,259,10.8,1906.970,323.81,3.21,53,110,565
04/15/2017 17:58:17,262,10.8,1909.260,324.19,3.20,52,111,565
04/15/2017 17:58:27,225,10.8,1911.400,323.77,3.20,53,111,565
04/15/2017 17:58:37,229,10.8,1913.470,324.01,3.20,53,112,565
04/15/2017 17:58:47,304,10.8,1915.810,323.55,3.21,53,111,565
04/15/2017 17:58:57,268,10.8,1917.950,324.00,3.20,53,109,565
04/15/2017 17:59:07,227,10.8,1920.110,323.61,3.20,51,110,565
04/15/2017 17:59:17,248,10.8,1922.340,323.74,3.20,53,112,565
04/15/2017 17:59:27,278,10.8,1924.510,323.60,3.19,53,111,565
04/15/2017 17:59:37,274,10.8,1926.740,323.95,3.18,53,112,565
04/15/2017 17:59:47,256,10.8,1928.910,323.41,3.18,52,111,565
04/15/2017 17:59:57,257,10.7,1931.010,324.57,3.18,52,112,565
04/15/2017 18:00:07,233,10.8,1933.220,324.05,3.17,52,112,565
04/15/2017 18:00:17,228,10.8,1935.450,324.03,3.17,52,112,565
04/15/2017 18:00:27,263,10.7,1937.470,323.71,3.17,53,111,565
04/15/2017 18:00:37,221,10.8,1939.760,323.16,3.16,53,113,565
04/15/2017 18:00:47,240,10.9,1941.890,324.08,3.16,54,111,565
04/15/2017 18:00:57,244,10.7,1944.060,323.71,3.15,52,110,565
04/15/2017 18:01:07,255,10.7,1946.320,323.27,3.15,53,110,565
04/15/2017 18:01:17,254,10.8,1948.340,323.69,3.15,53,111,565
04/15/2017 18:01:27,217,10.8,1950.700,323.80,3.15,53,111,565
04/15/2017 18:01:37,266,10.8,1952.750,323.30,3.15,53,111,565
04/15/2017 18:01:47,227,10.8,1954.960,323.42,3.15,53,110,565
04/15/2017 18:01:57,244,10.8,1957.320,323.83,3.15,54,111,565
04/15/2017 18:02:07,249,10.8,1959.410,323.65,3.14,52,110,565
04/15/2017 18:02:17,257,10.8,1961.590,323.95,3.14,53,110,565
04/15/2017 18:02:27,275,10.8,1963.820,324.75,3.14,53,111,565
04/15/2017 18:02:37,282,10.7,1965.950,323.20,3.14,52,114,565
04/15/2017 18:02:47,272,10.8,1968.090,323.75,3.13,53,110,565
04/15/2017 18:02:57,253,10.8,1970.230,324.29,3.13,52,111,565
04/15/2017 18:03:07,283,10.8,1972.530,323.88,3.13,53,110,565
04/15/2017 18:03:17,275,10.8,1974.680,323.72,3.13,52,111,565
04/15/2017 18:03:27,284,10.8,1976.810,323.74,3.13,53,112,565
04/15/2017 18:03:37,264,10.8,1978.920,323.51,3.13,53,113,565
04/15/2017 18:03:47,242,10.8,1980.910,322.61,3.14,52,109,565
04/15/2017 18:03:57,265,10.8,1983.160,323.03,3.14,53,111,565
04/15/2017 18:04:07,266,10.7,1985.190,323.23,3.13,54,110,565
04/15/2017 18:04:17,280,10.8,1987.420,323.64,3.13,54,110,565
04/15/2017 18:04:27,240,10.8,1989.520,322.85,3.12,53,111,565
04/15/2017 18:04:37,261,10.8,1991.840,323.21,3.12,52,110,565
04/15/2017 18:04:47,260,10.7,1993.990,323.53,3.11,53,112,565
04/15/2017 18:04:57,268,10.8,1996.120,324.57,3.11,54,111,565
04/15/2017 18:05:07,270,10.8,1998.310,323.60,3.11,52,110,565
04/15/2017 18:05:17,268,10.8,2000.470,324.11,3.10,53,112,565
04/15/2017 18:05:27,296,10.8,2002.610,323.14,3.10,52,111,565
04/15/2017 18:05:37,251,10.8,2004.740,322.89,3.10,54,110,565
04/15/2017 18:05:47,294,10.8,2006.960,323.08,3.11,53,111,565
04/15/2017 18:05:57,281,10.8,2008.970,322.68,3.11,53,113,565
04/15/2017 18:06:07,242,10.8,2011.100,323.12,3.11,52,111,565
04/15/2017 18:06:17,292,10.7,2013.470,323.48,3.11,54,113,565
04/15/2017 18:06:27,243,10.8,2015.540,322.47,3.11,53,110,565
04/15/2017 18:06:37,259,10.8,2017.650,322.54,3.11,53,110,565
04/15/2017 18:06:47,275,10.8,2019.740,322.65,3.10,53,110,565
04/15/2017 18:06:57,263,10.8,2021.840,322.83,3.10,53,112,565
04/15/2017 18:07:07,285,10.8,2024.090,323.15,3.10,55,111,565
04/15/2017 18:07:17,288,10.8,2026.230,323.50,3.10,54,111,565
04/15/2017 18:07:27,246,10.8,2028.520,323.60,3.10,53,111,565
04/15/2017 18:07:37,300,10.7,2030.640,323.44,3.09,53,111,565
04/15/2017 18:07:47,241,10.8,2032.910,323.59,3.09,53,110,565
04/15/2017 18:07:57,266,10.8,2034.950,323.47,3.09,53,111,565
04/15/2017 18:08:07,267,10.8,2037.050,323.88,3.09,53,111,565
04/15/2017 18:08:17,245,10.8,2039.290,322.70,3.08,53,111,565
04/15/2017 18:08:27,280,10.8,2041.470,322.70,3.08,54,111,565
04/15/2017 18:08:37,319,10.7,2043.710,323.50,3.08,52,110,565
04/15/2017 18:08:47,284,10.8,2045.820,322.62,3.08,53,110,565
04/15/2017 18:08:57,274,10.8,2047.820,323.02,3.08,54,111,565
04/15/2017 18:09:07,257,10.8,2050.140,323.27,3.08,53,111,565
04/15/2017 18:09:17,249,10.8,2052.260,323.27,3.08,53,112,565
04/15/2017 18:09:27,238,10.8,2054.290,323.17,3.07,52,114,565
04/15/2017 18:09:37,273,10.8,2056.460,323.00,3.07,53,110,565
04/15/2017 18:09:47,253,10.7,2058.550,322.84,3.06,52,111,565
04/15/2017 18:09:57,283,10.8,2060.680,322.73,3.06,54,111,565
04/15/2017 18:10:07,253,10.8,2062.820,323.45,3.06,52,110,565
04/15/2017 18:10:17,290,10.8,2065.030,322.97,3.06,55,111,565
04/15/2017 18:10:27,263,10.8,2067.220,323.20,3.06,53,109,565
04/15/2017 18:10:37,265,10.8,2069.480,322.91,3.05,52,110,565
04/15/2017 18:10:47,282,10.8,2071.580,323.66,3.05,56,124,565
04/15/2017 18:10:57,273,10.8,2073.770,323.75,3.04,53,111,565
04/15/2017 18:11:07,274,10.8,2075.780,323.62,3.04,53,110,565
04/15/2017 18:11:17,260,10.8,2077.750,322.85,3.04,54,111,565
04/15/2017 18:11:27,287,10.8,2080.000,323.48,3.04,52,111,565
04/15/2017 18:11:37,247,10.8,2082.150,322.61,3.04,53,111,565
04/15/2017 18:11:47,254,10.8,2084.240,323.05,3.04,53,110,565
04/15/2017 18:11:57,251,10.8,2086.340,322.87,3.03,51,112,565
04/15/2017 18:12:07,294,10.8,2088.470,323.07,3.03,52,111,565
04/15/2017 18:12:17,248,10.8,2090.690,322.97,3.03,53,110,565
04/15/2017 18:12:27,268,10.8,2092.700,323.20,3.03,51,110,565
04/15/2017 18:12:37,264,10.8,2094.910,322.66,3.03,53,111,565
04/15/2017 18:12:47,254,10.8,2097.050,323.12,3.03,52,110,565
04/15/2017 18:12:57,313,10.8,2099.180,323.43,3.03,54,109,565
04/15/2017 18:13:07,251,10.8,2101.230,323.17,3.03,56,111,565
04/15/2017 18:13:17,244,10.8,2103.250,323.85,3.03,55,111,565
04/15/2017 18:13:27,281,10.8,2105.370,322.58,3.03,53,116,565
04/15/2017 18:13:37,266,10.8,2107.600,322.50,3.03,54,111,565
04/15/2017 18:13:47,248,10.8,2109.660,323.19,3.03,53,111,565
04/15/2017 18:13:57,273,10.7,2111.650,322.55,3.02,53,111,565
04/15/2017 18:14:07,277,10.8,2113.840,323.12,3.02,53,112,565
04/15/2017 18:14:17,252,10.8,2115.980,322.52,3.02,52,110,565
04/15/2017 18:14:27,289,10.8,2118.030,322.24,3.02,52,110,565
04/15/2017 18:14:37,280,10.8,2120.290,321.69,3.02,54,110,565
04/15/2017 18:14:47,260,10.8,2122.390,322.20,3.02,52,111,565
04/15/2017 18:14:57,267,10.8,2124.580,322.37,3.02,53,110,565
04/15/2017 18:15:07,276,10.7,2126.620,321.78,3.02,52,111,565
04/15/2017 18:15:17,289,10.8,2128.770,322.64,3.01,53,110,565
04/15/2017 18:15:27,294,10.7,2130.960,321.93,3.01,53,110,565
04/15/2017 18:15:37,232,10.7,2132.930,321.86,3.01,53,110,566
04/15/2017 18:15:47,270,10.8,2134.960,322.49,3.00,54,111,565
04/15/2017 18:15:57,273,10.7,2137.080,323.04,2.99,53,111,565
04/15/2017 18:16:07,256,10.8,2139.270,322.49,2.98,53,111,565
04/15/2017 18:16:17,278,10.8,2141.190,322.98,2.98,52,111,565
04/15/2017 18:16:27,264,10.8,2143.360,322.65,2.98,54,118,565
04/15/2017 18:16:37,265,10.8,2145.420,322.53,2.97,53,110,565
04/15/2017 18:16:47,245,10.8,2147.430,322.17,2.97,54,112,565
04/15/2017 18:16:57,275,10.8,2149.420,322.40,2.97,53,109,565
04/15/2017 18:17:07,265,10.8,2151.520,322.09,2.97,53,110,565
04/15/2017 18:17:17,283,10.8,2153.560,322.33,2.96,54,111,565
04/15/2017 18:17:27,268,10.8,2155.670,322.64,2.96,53,111,565
04/15/2017 18:17:37,266,10.8,2157.840,322.01,2.96,53,111,565
04/15/2017 18:17:47,262,10.8,2160.000,322.60,2.96,52,111,565
04/15/2017 18:17:57,275,10.8,2162.150,322.42,2.96,53,111,565
04/15/2017 18:18:07,239,10.8,2164.230,322.50,2.96,53,117,565
04/15/2017 18:18:17,251,10.8,2166.330,322.40,2.96,53,113,565
04/15/2017 18:18:27,255,10.8,2168.320,322.35,2.95,53,109,565
04/15/2017 18:18:37,284,10.9,2170.520,322.56,2.95,53,110,565
04/15/2017 18:18:47,313,10.9,2172.600,322.18,2.95,53,113,565
04/15/2017 18:18:57,289,10.8,2174.570,323.47,2.95,54,111,565
04/15/2017 18:19:07,245,10.8,2176.640,322.37,2.95,53,114,565
04/15/2017 18:19:17,252,10.8,2178.560,322.03,2.95,53,110,565
04/15/2017 18:19:27,281,10.9,2180.720,323.30,2.94,52,108,565
04/15/2017 18:19:37,246,10.8,2182.740,322.37,2.94,54,110,565
04/15/2017 18:19:47,255,10.7,2184.690,322.04,2.94,54,110,565
04/15/2017 18:19:57,246,10.8,2186.890,322.52,2.94,53,114,565
04/15/2017 18:20:07,271,10.8,2188.790,321.98,2.93,53,111,565
04/15/2017 18:20:17,261,10.8,2190.730,322.73,2.93,53,112,565
04/15/2017 18:20:27,259,10.8,2192.810,322.26,2.93,54,112,565
04/15/2017 18:20:37,270,10.7,2194.930,321.81,2.93,52,110,565
04/15/2017 18:20:47,251,10.7,2196.850,321.83,2.93,52,111,566
04/15/2017 18:20:57,267,10.8,2198.920,322.05,2.93,52,112,566
04/15/2017 18:21:07,304,10.8,2201.070,322.20,2.92,54,111,566
04/15/2017 18:21:17,262,10.8,2203.120,321.93,2.92,53,111,565
04/15/2017 18:21:27,261,10.7,2204.970,321.92,2.91,53,110,565
04/15/2017 18:21:37,291,10.7,2207.110,321.99,2.91,52,110,565
04/15/2017 18:21:47,294,10.8,2209.150,322.49,2.91,51,110,565
04/15/2017 18:21:57,268,10.8,2211.030,322.04,2.91,53,110,565
04/15/2017 18:22:07,273,10.7,2212.870,322.23,2.90,53,111,565
04/15/2017 18:22:17,272,10.8,2214.880,322.01,2.90,54,116,565
04/15/2017 18:22:27,332,10.7,2216.960,321.81,2.90,52,110,565
04/15/2017 18:22:37,257,10.8,2218.930,322.47,2.90,53,113,565
04/15/2017 18:22:47,268,10.8,2220.820,322.27,2.90,54,110,566
04/15/2017 18:22:57,305,10.8,2222.960,322.20,2.89,53,112,565
04/15/2017 18:23:07,251,10.8,2224.890,322.50,2.89,52,112,566
04/15/2017 18:23:17,282,10.8,2226.970,321.49,2.89,54,109,566
04/15/2017 18:23:27,241,10.7,2228.780,322.00,2.89,53,111,565
04/15/2017 18:23:37,256,10.8,2230.750,322.25,2.89,52,113,565
04/15/2017 18:23:47,268,10.7,2232.850,322.21,2.88,52,111,566
04/15/2017 18:23:57,291,10.8,2234.810,321.88,2.88,52,110,566
04/15/2017 18:24:07,234,10.8,2236.800,321.79,2.88,53,111,566
04/15/2017 18:24:17,296,10.8,2238.710,321.89,2.88,52,112,566
04/15/2017 18:24:27,278,10.7,2240.670,321.67,2.88,51,111,566
04/15/2017 18:24:37,270,10.8,2242.770,322.09,2.87,52,111,565
04/15/2017 18:24:47,248,10.8,2244.720,321.82,2.87,53,111,566
04/15/2017 18:24:57,302,10.8,2246.690,321.57,2.86,53,111,565
04/15/2017 18:25:07,263,10.8,2248.700,321.69,2.86,52,114,566
04/15/2017 18:25:17,276,10.8,2250.750,321.35,2.86,52,110,566
04/15/2017 18:25:27,254,10.7,2252.750,322.32,2.86,54,112,565
04/15/2017 18:25:37,253,10.7,2254.520,321.76,2.86,54,111,565
04/15/2017 18:25:47,296,10.8,2256.490,322.07,2.86,52,113,566
04/15/2017 18:25:57,272,10.8,2258.540,322.49,2.85,53,111,566
04/15/2017 18:26:07,242,10.8,2260.510,321.79,2.85,53,115,565
04/15/2017 18:26:17,242,10.8,2262.290,322.37,2.85,53,111,565
04/15/2017 18:26:27,247,10.7,2264.310,321.45,2.85,53,113,566
04/15/2017 18:26:37,239,10.8,2266.450,322.13,2.84,52,112,566
04/15/2017 18:26:47,225,10.8,2268.370,322.71,2.84,54,111,566
04/15/2017 18:26:57,239,10.8,2270.200,322.91,2.84,53,110,566
04/15/2017 18:27:07,263,10.8,2272.200,323.04,2.85,53,113,566
04/15/2017 18:27:17,270,10.8,2274.150,321.89,2.84,53,110,565
04/15/2017 18:27:27,274,10.8,2275.930,321.53,2.84,54,114,566
04/15/2017 18:27:37,301,10.8,2277.890,321.66,2.84,51,111,566
04/15/2017 18:27:47,249,10.8,2279.910,321.76,2.84,53,111,566
04/15/2017 18:27:57,282,10.8,2281.990,321.44,2.83,53,114,566
04/15/2017 18:28:07,232,10.8,2283.820,321.74,2.83,55,110,565
04/15/2017 18:28:17,268,10.8,2285.680,320.84,2.83,52,113,565
04/15/2017 18:28:27,259,10.8,2287.740,321.28,2.82,53,112,566
04/15/2017 18:28:37,255,10.8,2289.610,321.85,2.82,52,111,566
04/15/2017 18:28:47,234,10.8,2291.360,322.45,2.81,53,113,566
04/15/2017 18:28:57,283,10.8,2293.230,322.18,2.81,52,114,565
04/15/2017 18:29:07,229,10.8,2295.190,322.62,2.81,53,112,566
04/15/2017 18:29:17,264,10.8,2297.250,321.79,2.81,53,111,566
04/15/2017 18:29:27,258,10.8,2299.170,321.73,2.80,54,116,566
04/15/2017 18:29:37,289,10.8,2301.180,321.88,2.80,54,113,566
04/15/2017 18:29:47,258,10.8,2303.040,321.76,2.80,53,111,566
04/15/2017 18:29:57,262,10.8,2305.130,322.25,2.80,54,111,566
04/15/2017 18:30:07,275,10.7,2307.160,322.46,2.79,52,113,566
04/15/2017 18:30:17,291,10.8,2309.200,322.57,2.79,53,112,566
04/15/2017 18:30:27,260,10.7,2311.070,323.07,2.78,52,113,566
04/15/2017 18:30:37,255,10.8,2313.060,322.76,2.78,53,111,566
04/15/2017 18:30:47,272,10.8,2315.080,322.96,2.78,53,113,566
04/15/2017 18:30:57,248,10.8,2317.190,322.46,2.78,54,111,566
04/15/2017 18:31:07,267,10.8,2319.110,322.58,2.77,54,113,566
04/15/2017 18:31:17,267,10.8,2321.080,322.52,2.77,53,112,566
04/15/2017 18:31:27,260,10.8,2322.920,322.94,2.77,52,113,566
04/15/2017 18:31:37,279,10.8,2325.050,321.67,2.77,54,111,566
04/15/2017 18:31:47,285,10.8,2326.830,322.98,2.77,53,113,566
04/15/2017 18:31:57,252,10.8,2328.710,322.51,2.76,53,110,566
04/15/2017 18:32:07,262,10.7,2330.690,323.14,2.76,53,113,566
04/15/2017 18:32:17,219,10.8,2332.670,323.21,2.75,54,112,566
04/15/2017 18:32:27,236,10.8,2334.400,322.66,2.75,52,112,566
04/15/2017 18:32:37,268,10.8,2336.260,322.84,2.75,55,112,566
04/15/2017 18:32:47,269,10.8,2338.040,322.54,2.75,53,112,566
04/15/2017 18:32:57,283,10.8,2340.190,322.53,2.75,54,112,566
04/15/2017 18:33:07,296,10.8,2342.350,322.63,2.74,52,112,566
04/15/2017 18:33:17,268,10.8,2344.150,323.33,2.74,52,113,566
04/15/2017 18:33:27,308,10.8,2346.360,323.20,2.74,52,111,566
04/15/2017 18:33:37,271,10.8,2348.330,323.64,2.73,53,116,565
04/15/2017 18:33:47,249,10.7,2350.270,325.15,2.71,52,114,566
04/15/2017 18:33:57,305,10.8,2352.230,324.80,2.71,53,112,566
04/15/2017 18:34:07,264,10.8,2354.290,324.92,2.71,53,113,566
04/15/2017 18:34:17,252,10.7,2356.350,325.29,2.70,53,114,566
04/15/2017 18:34:27,265,10.8,2358.210,325.33,2.70,55,119,566
04/15/2017 18:34:37,271,10.8,2360.360,326.03,2.69,54,113,566
04/15/2017 18:34:47,323,10.8,2362.350,325.96,2.69,54,114,566
04/15/2017 18:34:57,281,10.8,2364.290,325.63,2.68,53,113,566
04/15/2017 18:35:07,265,10.8,2366.120,325.84,2.68,52,117,566
04/15/2017 18:35:17,240,10.8,2368.080,324.67,2.68,53,114,566
04/15/2017 18:35:27,258,10.8,2369.880,324.89,2.67,54,114,566
04/15/2017 18:35:37,313,10.8,2372.010,325.34,2.67,54,113,566
04/15/2017 18:35:47,240,10.8,2373.920,325.26,2.67,53,114,566
04/15/2017 18:35:57,269,10.8,2375.990,325.04,2.67,53,113,566
04/15/2017 18:36:07,274,10.8,2377.860,325.56,2.67,53,116,566
04/15/2017 18:36:17,258,10.8,2379.810,324.90,2.67,53,115,566
04/15/2017 18:36:27,252,10.8,2381.650,325.65,2.66,53,115,566
04/15/2017 18:36:37,276,10.8,2383.910,325.08,2.66,52,115,566
04/15/2017 18:36:47,267,10.8,2385.800,325.60,2.66,54,116,566
04/15/2017 18:36:57,241,10.8,2387.790,325.24,2.66,52,114,566
04/15/2017 18:37:07,254,10.8,2389.740,325.29,2.65,54,115,566
04/15/2017 18:37:17,271,10.8,2392.000,325.34,2.64,52,115,566
04/15/2017 18:37:27,292,10.8,2394.140,326.61,2.63,53,116,566
04/15/2017 18:37:37,281,10.8,2396.210,326.72,2.63,52,116,566
04/15/2017 18:37:47,281,10.8,2398.370,325.22,2.63,53,114,566
04/15/2017 18:37:57,263,10.8,2400.330,324.78,2.63,53,115,566
04/15/2017 18:38:07,282,10.8,2402.300,326.34,2.62,54,117,566
04/15/2017 18:38:17,273,10.8,2404.260,326.57,2.62,53,117,566
04/15/2017 18:38:27,311,10.8,2406.300,326.70,2.61,53,118,566
04/15/2017 18:38:37,257,10.8,2408.310,328.59,2.60,53,122,566
04/15/2017 18:38:47,213,10.8,2410.260,329.52,2.57,53,124,566
04/15/2017 18:38:57,247,10.8,2412.170,329.47,2.56,53,129,566
04/15/2017 18:39:07,290,10.8,2414.260,332.55,2.52,53,135,566
04/15/2017 18:39:17,249,10.8,2416.310,334.03,2.51,53,133,566
04/15/2017 18:39:27,262,10.8,2418.280,334.61,2.50,54,136,566
04/15/2017 18:39:37,242,10.8,2420.280,335.29,2.49,53,134,566
04/15/2017 18:39:47,262,10.8,2422.150,335.72,2.49,52,147,566
04/15/2017 18:39:57,262,10.8,2424.000,335.43,2.49,53,141,566
04/15/2017 18:40:07,296,10.8,2426.200,336.39,2.48,53,138,566
04/15/2017 18:40:17,270,10.8,2428.270,335.84,2.48,52,139,566
04/15/2017 18:40:27,275,10.8,2430.330,335.54,2.46,54,138,566
04/15/2017 18:40:37,258,10.8,2432.160,336.99,2.46,53,140,566
04/15/2017 18:40:47,283,10.8,2433.900,336.68,2.46,54,143,566
04/15/2017 18:40:57,246,10.8,2435.900,336.50,2.46,53,141,566
04/15/2017 18:41:07,260,10.8,2437.830,335.94,2.45,53,142,566
04/15/2017 18:41:17,253,10.7,2439.700,337.08,2.44,54,146,566
04/15/2017 18:41:27,289,10.8,2441.860,337.62,2.44,53,146,566
04/15/2017 18:41:37,287,10.8,2444.160,337.44,2.43,54,155,566
04/15/2017 18:41:47,233,10.8,2446.040,338.02,2.43,54,154,566
04/15/2017 18:41:57,231,10.8,2447.980,337.94,2.43,53,141,566
04/15/2017 18:42:07,293,10.8,2450.170,336.60,2.43,52,137,566
04/15/2017 18:42:17,284,10.8,2452.320,336.18,2.44,55,136,566
04/15/2017 18:42:27,271,10.8,2454.310,335.63,2.44,53,135,566
04/15/2017 18:42:37,236,10.8,2456.330,335.79,2.44,54,137,566
04/15/2017 18:42:47,218,10.8,2458.330,336.13,2.44,54,129,566
04/15/2017 18:42:57,260,10.8,2460.310,334.72,2.43,52,133,566
04/15/2017 18:43:07,262,10.8,2462.420,334.96,2.42,54,140,566
04/15/2017 18:43:17,205,10.8,2464.230,335.67,2.41,53,138,566
04/15/2017 18:43:27,259,10.8,2466.260,336.20,2.41,54,129,566
04/15/2017 18:43:37,244,10.8,2468.070,335.44,2.40,52,134,566
04/15/2017 18:43:47,212,10.8,2469.860,335.76,2.40,54,130,566
04/15/2017 18:43:57,250,10.8,2471.680,335.30,2.40,54,128,566
04/15/2017 18:44:07,236,10.8,2473.620,336.53,2.39,52,128,566
04/15/2017 18:44:17,212,10.8,2475.530,335.42,2.39,52,144,566
04/15/2017 18:44:27,226,10.8,2477.460,335.58,2.37,54,125,566
04/15/2017 18:44:37,267,10.8,2479.470,335.98,2.36,53,127,566
04/15/2017 18:44:47,239,10.8,2481.440,335.41,2.35,52,130,566
04/15/2017 18:44:57,213,10.8,2483.320,336.26,2.35,54,128,566
04/15/2017 18:45:07,233,10.9,2485.190,335.77,2.33,53,125,566
04/15/2017 18:45:17,256,10.9,2487.170,336.04,2.33,53,130,566
04/15/2017 18:45:27,207,10.8,2489.040,337.00,2.32,53,130,566
04/15/2017 18:45:37,206,10.8,2490.910,336.67,2.29,53,127,566
04/15/2017 18:45:47,228,10.8,2492.790,337.21,2.29,54,128,566
04/15/2017 18:45:57,228,10.8,2494.610,337.61,2.26,53,127,566
04/15/2017 18:46:07,239,10.8,2496.550,337.39,2.25,53,130,566
04/15/2017 18:46:17,202,10.8,2498.540,338.20,2.24,53,130,566
04/15/2017 18:46:27,209,10.8,2500.300,337.99,2.24,52,129,566
04/15/2017 18:46:37,203,10.8,2502.070,337.60,2.24,53,127,566
04/15/2017 18:46:47,206,10.8,2504.130,338.06,2.22,53,124,566
04/15/2017 18:46:57,213,10.8,2506.100,338.53,2.22,53,132,566
04/15/2017 18:47:07,231,10.8,2508.100,338.91,2.21,53,126,566
04/15/2017 18:47:17,212,10.8,2509.890,338.35,2.19,54,128,566
04/15/2017 18:47:27,221,10.8,2511.840,338.48,2.18,54,131,566
04/15/2017 18:47:37,253,10.8,2513.510,338.78,2.16,53,127,566
04/15/2017 18:47:47,213,10.8,2515.560,338.43,2.15,54,132,566
04/15/2017 18:47:57,236,10.9,2517.470,339.51,2.14,53,127,566
04/15/2017 18:48:07,210,10.8,2519.120,340.17,2.13,52,143,566
04/15/2017 18:48:17,215,10.9,2520.810,340.23,2.12,54,130,566
04/15/2017 18:48:27,238,10.9,2522.650,340.37,2.11,53,133,566
04/15/2017 18:48:37,193,10.8,2524.390,341.42,2.10,53,130,566
04/15/2017 18:48:47,240,10.8,2526.130,340.92,2.09,53,135,566
04/15/2017 18:48:57,261,10.8,2528.070,341.34,2.08,53,132,567

 Ramp exit:    SMOOTH RUNNING
 Profile exit: BOTTOM PRESSURE

 Vehicle motion stopped at 04/15/2017 18:49:01
 Sensor logging stopped at 04/15/2017 18:51:09
